{
	"NitMapLcm": {
		"section": [
			[8.255064998,-12.31001484],
			[6.269549238,-5.981906081],
			[6.878533736,-8.894159472],
			[7.205714131,-12.31383587],
			[6.690931027,-4.075705229],
			[6.962765523,-10.9854228],
			[6.968403202,-11.18054618],
			[7.001019815,-13.00684233],
			[7.264419488,-30.01271542],
			[9.545952092,-236.6744406],
			[6.839612091,33.98202216],
			[9.301553862,-459.8805429],
			[6.851104334,226.6261249]
		],
		"sectionkeypoint": [3.187136,4.782147,10.45196,16.00311,25.41884,34.61059,55.99282,64.563,90.58022,100.0083,200.5988,280.1554,479.9772]
	},
	"LcmMapNit": [
		[0,0.000234],
		[1,0.000258],
		[2,0.000258],
		[3,0.002284],
		[4,0.327096],
		[5,1.971031],
		[6,2.116339],
		[7,2.302495],
		[8,2.393401],
		[9,2.540624],
		[10,2.702585],
		[11,2.829551],
		[12,2.885999],
		[13,3.073557],
		[14,3.187136],
		[15,3.370095],
		[16,3.484116],
		[17,3.705998],
		[18,3.848573],
		[19,3.970421],
		[20,4.147829],
		[21,4.269944],
		[22,4.348763],
		[23,4.481535],
		[24,4.782147],
		[25,4.966057],
		[26,5.08101],
		[27,5.238593],
		[28,5.397669],
		[29,5.4214],
		[30,5.673309],
		[31,5.904557],
		[32,6.027439],
		[33,6.029977],
		[34,6.251203],
		[35,6.479451],
		[36,6.63102],
		[37,6.766166],
		[38,6.90545],
		[39,6.930612],
		[40,7.195678],
		[41,7.350904],
		[42,7.452956],
		[43,7.474056],
		[44,7.760094],
		[45,7.866413],
		[46,8.052007],
		[47,8.052007],
		[48,8.386277],
		[49,8.520163],
		[50,8.689416],
		[51,8.802909],
		[52,8.802909],
		[53,9.07538],
		[54,9.231079],
		[55,9.347957],
		[56,9.404428],
		[57,9.615858],
		[58,9.615858],
		[59,9.888449],
		[60,10.04806],
		[61,10.15195],
		[62,10.30275],
		[63,10.45196],
		[64,10.45196],
		[65,10.71471],
		[66,10.89144],
		[67,11.04857],
		[68,11.04857],
		[69,11.04857],
		[70,11.43161],
		[71,11.59033],
		[72,11.73453],
		[73,11.73851],
		[74,11.89495],
		[75,12.19154],
		[76,12.33329],
		[77,12.39468],
		[78,12.56646],
		[79,12.56646],
		[80,12.71561],
		[81,13.04749],
		[82,13.04749],
		[83,13.10013],
		[84,13.12216],
		[85,13.52136],
		[86,13.52136],
		[87,13.71366],
		[88,14.05785],
		[89,14.17739],
		[90,14.33969],
		[91,14.33969],
		[92,14.65524],
		[93,14.65524],
		[94,14.8525],
		[95,15.03712],
		[96,15.21162],
		[97,15.35129],
		[98,15.50563],
		[99,15.6599],
		[100,15.80827],
		[101,15.80827],
		[102,15.87043],
		[103,16.00311],
		[104,16.00311],
		[105,16.54052],
		[106,16.54052],
		[107,16.83194],
		[108,16.92956],
		[109,17.11625],
		[110,17.11625],
		[111,17.11625],
		[112,17.50969],
		[113,17.50969],
		[114,17.5893],
		[115,18.01283],
		[116,18.01283],
		[117,18.32726],
		[118,18.32726],
		[119,18.5622],
		[120,18.5622],
		[121,18.89639],
		[122,19.00402],
		[123,19.20217],
		[124,19.34837],
		[125,19.48918],
		[126,19.65394],
		[127,19.65394],
		[128,19.92102],
		[129,20.01377],
		[130,20.16375],
		[131,20.16375],
		[132,20.16375],
		[133,20.5008],
		[134,20.81171],
		[135,20.81171],
		[136,21.11948],
		[137,21.28407],
		[138,21.35625],
		[139,21.51135],
		[140,21.62432],
		[141,21.74529],
		[142,21.95793],
		[143,22.03232],
		[144,22.0517],
		[145,22.0517],
		[146,22.53051],
		[147,22.53051],
		[148,22.79488],
		[149,22.94342],
		[150,23.09095],
		[151,23.15567],
		[152,23.15567],
		[153,23.41419],
		[154,23.41419],
		[155,23.86389],
		[156,23.99232],
		[157,23.99232],
		[158,23.99232],
		[159,24.38875],
		[160,24.44493],
		[161,24.44493],
		[162,24.44493],
		[163,24.99047],
		[164,25.14326],
		[165,25.27662],
		[166,25.41884],
		[167,25.41884],
		[168,25.56079],
		[169,25.78194],
		[170,25.96969],
		[171,26.10368],
		[172,26.10381],
		[173,26.10381],
		[174,26.52861],
		[175,26.73366],
		[176,26.87255],
		[177,26.95672],
		[178,26.95672],
		[179,27.15094],
		[180,27.15094],
		[181,27.56495],
		[182,27.56495],
		[183,27.56495],
		[184,27.85258],
		[185,28.21182],
		[186,28.21182],
		[187,28.21182],
		[188,28.59649],
		[189,28.72467],
		[190,28.72467],
		[191,29.02421],
		[192,29.03082],
		[193,29.32871],
		[194,29.32871],
		[195,29.32871],
		[196,29.77888],
		[197,29.86701],
		[198,30.0218],
		[199,30.0218],
		[200,30.05069],
		[201,30.45074],
		[202,30.45074],
		[203,30.77846],
		[204,30.94235],
		[205,31.06557],
		[206,31.10964],
		[207,31.10964],
		[208,31.33026],
		[209,31.33026],
		[210,31.33026],
		[211,31.89082],
		[212,31.89082],
		[213,31.89082],
		[214,31.89082],
		[215,32.45792],
		[216,32.45792],
		[217,32.77482],
		[218,32.9098],
		[219,33.06094],
		[220,33.14324],
		[221,33.25879],
		[222,33.50368],
		[223,33.66089],
		[224,33.66089],
		[225,33.79046],
		[226,33.79046],
		[227,34.20456],
		[228,34.20456],
		[229,34.20456],
		[230,34.61059],
		[231,34.61059],
		[232,34.61059],
		[233,34.61059],
		[234,35.23746],
		[235,35.23746],
		[236,35.39909],
		[237,35.48531],
		[238,35.7727],
		[239,35.91996],
		[240,35.91996],
		[241,36.26485],
		[242,36.26485],
		[243,36.37093],
		[244,36.68517],
		[245,36.68517],
		[246,36.83112],
		[247,36.83112],
		[248,37.16878],
		[249,37.22472],
		[250,37.22472],
		[251,37.24436],
		[252,37.49328],
		[253,37.49328],
		[254,37.83534],
		[255,37.83534],
		[256,37.83534],
		[257,38.45103],
		[258,38.45103],
		[259,38.57136],
		[260,38.97183],
		[261,39.11266],
		[262,39.11266],
		[263,39.11266],
		[264,39.12009],
		[265,39.64947],
		[266,39.83244],
		[267,39.83244],
		[268,39.83244],
		[269,40.24419],
		[270,40.24419],
		[271,40.33142],
		[272,40.33142],
		[273,40.40181],
		[274,40.93157],
		[275,40.93157],
		[276,41.15794],
		[277,41.15794],
		[278,41.48367],
		[279,41.66706],
		[280,41.84803],
		[281,41.84803],
		[282,41.84803],
		[283,41.84803],
		[284,41.84803],
		[285,42.54528],
		[286,42.54528],
		[287,42.54528],
		[288,42.54528],
		[289,42.54528],
		[290,42.7322],
		[291,42.75951],
		[292,43.44532],
		[293,43.44532],
		[294,43.44532],
		[295,43.77279],
		[296,43.77631],
		[297,43.92703],
		[298,44.36933],
		[299,44.36933],
		[300,44.42479],
		[301,44.79569],
		[302,44.79569],
		[303,45.07297],
		[304,45.27766],
		[305,45.27766],
		[306,45.52815],
		[307,45.65805],
		[308,45.65805],
		[309,45.65805],
		[310,45.65805],
		[311,45.81485],
		[312,45.81485],
		[313,46.49205],
		[314,46.49205],
		[315,46.78427],
		[316,46.78427],
		[317,46.78427],
		[318,46.78427],
		[319,47.41357],
		[320,47.41357],
		[321,47.64729],
		[322,47.64729],
		[323,47.81377],
		[324,47.81377],
		[325,48.24162],
		[326,48.24162],
		[327,48.24162],
		[328,48.24162],
		[329,48.24162],
		[330,48.28593],
		[331,48.89032],
		[332,49.21268],
		[333,49.21268],
		[334,49.43778],
		[335,49.43778],
		[336,49.43778],
		[337,49.43778],
		[338,50.03674],
		[339,50.20198],
		[340,50.20198],
		[341,50.34644],
		[342,50.55776],
		[343,50.93557],
		[344,50.93557],
		[345,50.93557],
		[346,50.93557],
		[347,51.05468],
		[348,51.05468],
		[349,51.76348],
		[350,51.76348],
		[351,51.84981],
		[352,51.84981],
		[353,51.84981],
		[354,52.27974],
		[355,52.49153],
		[356,52.72085],
		[357,52.861],
		[358,52.861],
		[359,52.861],
		[360,52.89641],
		[361,52.89641],
		[362,52.93105],
		[363,53.0522],
		[364,53.15206],
		[365,53.28304],
		[366,53.46085],
		[367,53.61037],
		[368,54.03553],
		[369,54.03553],
		[370,54.29157],
		[371,54.29157],
		[372,54.39264],
		[373,54.72017],
		[374,55.21991],
		[375,55.21991],
		[376,55.34517],
		[377,55.34517],
		[378,55.34517],
		[379,55.99282],
		[380,55.99282],
		[381,56.2235],
		[382,56.3661],
		[383,56.3661],
		[384,56.60728],
		[385,56.60728],
		[386,56.60728],
		[387,56.77075],
		[388,57.23862],
		[389,57.23862],
		[390,57.25768],
		[391,57.65203],
		[392,57.65203],
		[393,57.98324],
		[394,57.98324],
		[395,57.98324],
		[396,57.98324],
		[397,58.14228],
		[398,58.67514],
		[399,58.67514],
		[400,58.67514],
		[401,58.67514],
		[402,58.73442],
		[403,58.74957],
		[404,59.34945],
		[405,59.34945],
		[406,59.87828],
		[407,59.87828],
		[408,59.87828],
		[409,59.88914],
		[410,59.88914],
		[411,60.22687],
		[412,60.43026],
		[413,60.43026],
		[414,60.43026],
		[415,60.48807],
		[416,60.62576],
		[417,60.89695],
		[418,60.95964],
		[419,61.40626],
		[420,61.40626],
		[421,61.8055],
		[422,61.8055],
		[423,61.8055],
		[424,61.93727],
		[425,62.24911],
		[426,62.24911],
		[427,62.53177],
		[428,62.53177],
		[429,62.53177],
		[430,63.13335],
		[431,63.13335],
		[432,63.27502],
		[433,63.27502],
		[434,63.27502],
		[435,63.27502],
		[436,63.57161],
		[437,63.58908],
		[438,63.77532],
		[439,64.563],
		[440,64.563],
		[441,64.563],
		[442,64.563],
		[443,64.563],
		[444,65.0536],
		[445,65.2241],
		[446,65.32475],
		[447,65.32475],
		[448,65.32475],
		[449,65.42858],
		[450,65.56075],
		[451,66.03391],
		[452,66.31395],
		[453,66.31395],
		[454,66.31395],
		[455,66.77484],
		[456,66.77484],
		[457,66.77484],
		[458,66.90631],
		[459,66.90631],
		[460,66.9366],
		[461,67.03996],
		[462,67.11591],
		[463,67.25745],
		[464,67.36243],
		[465,67.54527],
		[466,68.26476],
		[467,68.26476],
		[468,68.55573],
		[469,68.55573],
		[470,68.55573],
		[471,68.55573],
		[472,69.09275],
		[473,69.09275],
		[474,69.09275],
		[475,69.09275],
		[476,69.14584],
		[477,69.33154],
		[478,69.38731],
		[479,69.54813],
		[480,69.98138],
		[481,69.98138],
		[482,69.98138],
		[483,70.29111],
		[484,70.35236],
		[485,70.48634],
		[486,70.62368],
		[487,71.3364],
		[488,71.3364],
		[489,71.44426],
		[490,71.44426],
		[491,71.67154],
		[492,71.67154],
		[493,71.67154],
		[494,72.07447],
		[495,72.07447],
		[496,72.39601],
		[497,72.39601],
		[498,72.46387],
		[499,72.86602],
		[500,72.86602],
		[501,73.15257],
		[502,73.15257],
		[503,73.15257],
		[504,73.30257],
		[505,73.49017],
		[506,73.6768],
		[507,73.6768],
		[508,73.93723],
		[509,74.11729],
		[510,74.11729],
		[511,74.47485],
		[512,74.47485],
		[513,74.47485],
		[514,74.84425],
		[515,74.84425],
		[516,74.84425],
		[517,74.84425],
		[518,74.92708],
		[519,75.19612],
		[520,75.27568],
		[521,75.42393],
		[522,75.61375],
		[523,75.68261],
		[524,75.81159],
		[525,75.95308],
		[526,76.20693],
		[527,76.53609],
		[528,76.53609],
		[529,76.56836],
		[530,76.70273],
		[531,77.2845],
		[532,77.50012],
		[533,77.53368],
		[534,77.53368],
		[535,77.53368],
		[536,77.74334],
		[537,77.90741],
		[538,78.17091],
		[539,78.22722],
		[540,78.58913],
		[541,78.87834],
		[542,78.87834],
		[543,79.00555],
		[544,79.00555],
		[545,79.00555],
		[546,79.22382],
		[547,79.22382],
		[548,79.51179],
		[549,79.82771],
		[550,79.82771],
		[551,79.82771],
		[552,80.13366],
		[553,80.13366],
		[554,80.17653],
		[555,80.6125],
		[556,80.6125],
		[557,80.65926],
		[558,80.73371],
		[559,80.91613],
		[560,81.08067],
		[561,81.23884],
		[562,81.3435],
		[563,81.57293],
		[564,81.57885],
		[565,81.99093],
		[566,81.99093],
		[567,82.0101],
		[568,82.06366],
		[569,82.19924],
		[570,82.33018],
		[571,82.69803],
		[572,82.69803],
		[573,82.70155],
		[574,82.93057],
		[575,83.20025],
		[576,83.20025],
		[577,83.32027],
		[578,83.62177],
		[579,83.80879],
		[580,83.92989],
		[581,84.12416],
		[582,84.12416],
		[583,84.1957],
		[584,84.52194],
		[585,84.52194],
		[586,84.60036],
		[587,84.74804],
		[588,84.95798],
		[589,85.12228],
		[590,85.26703],
		[591,85.51956],
		[592,85.59712],
		[593,85.80071],
		[594,85.80071],
		[595,85.9716],
		[596,86.15363],
		[597,86.20544],
		[598,86.52536],
		[599,86.55816],
		[600,86.61403],
		[601,86.7941],
		[602,86.88984],
		[603,86.96175],
		[604,87.15579],
		[605,87.43267],
		[606,87.48464],
		[607,87.66105],
		[608,87.79164],
		[609,87.87623],
		[610,87.98736],
		[611,88.07744],
		[612,88.13738],
		[613,88.3152],
		[614,88.40977],
		[615,88.56381],
		[616,88.74992],
		[617,88.80535],
		[618,89.13876],
		[619,89.13922],
		[620,89.28868],
		[621,89.49154],
		[622,89.52467],
		[623,89.64678],
		[624,90.13988],
		[625,90.25204],
		[626,90.26768],
		[627,90.27422],
		[628,90.58022],
		[629,90.65507],
		[630,90.65507],
		[631,90.86887],
		[632,90.91282],
		[633,90.98579],
		[634,91.20109],
		[635,91.20109],
		[636,91.29372],
		[637,91.61391],
		[638,91.61391],
		[639,91.61391],
		[640,91.88872],
		[641,91.88872],
		[642,91.88872],
		[643,92.06563],
		[644,92.21574],
		[645,92.2161],
		[646,92.56984],
		[647,92.56984],
		[648,92.56984],
		[649,92.73007],
		[650,92.76913],
		[651,92.76913],
		[652,93.12635],
		[653,93.12635],
		[654,93.12635],
		[655,93.40827],
		[656,93.40827],
		[657,93.61817],
		[658,93.70444],
		[659,93.74229],
		[660,93.77853],
		[661,93.88995],
		[662,94.02452],
		[663,94.16524],
		[664,94.2428],
		[665,94.29422],
		[666,94.39089],
		[667,94.54832],
		[668,94.56831],
		[669,94.60199],
		[670,94.86442],
		[671,94.86442],
		[672,95.05157],
		[673,95.12443],
		[674,95.13324],
		[675,95.3173],
		[676,95.39587],
		[677,95.46835],
		[678,95.77103],
		[679,95.77103],
		[680,95.80236],
		[681,96.0489],
		[682,96.07132],
		[683,96.13364],
		[684,96.56165],
		[685,96.56165],
		[686,96.56165],
		[687,96.64692],
		[688,96.84881],
		[689,96.86594],
		[690,97.08632],
		[691,97.08632],
		[692,97.14353],
		[693,97.38372],
		[694,97.38372],
		[695,97.43394],
		[696,97.63183],
		[697,97.82674],
		[698,97.82674],
		[699,97.90993],
		[700,97.91396],
		[701,98.05966],
		[702,98.29596],
		[703,98.341],
		[704,98.41837],
		[705,98.54902],
		[706,98.64616],
		[707,98.68303],
		[708,98.94749],
		[709,99.01627],
		[710,99.10618],
		[711,99.17416],
		[712,99.26151],
		[713,99.40908],
		[714,99.54552],
		[715,99.59402],
		[716,99.63588],
		[717,99.82189],
		[718,100.0083],
		[719,100.1665],
		[720,100.1665],
		[721,100.254],
		[722,100.532],
		[723,100.5328],
		[724,100.6473],
		[725,100.6548],
		[726,100.7738],
		[727,100.922],
		[728,101.0354],
		[729,101.1408],
		[730,101.2312],
		[731,101.281],
		[732,101.4719],
		[733,101.506],
		[734,101.6911],
		[735,101.7949],
		[736,101.7949],
		[737,102.0051],
		[738,102.0051],
		[739,102.1763],
		[740,102.3773],
		[741,102.4596],
		[742,102.4596],
		[743,102.7484],
		[744,102.7484],
		[745,102.7484],
		[746,103.0538],
		[747,103.091],
		[748,103.1632],
		[749,103.3573],
		[750,103.442],
		[751,103.5176],
		[752,103.6233],
		[753,103.6787],
		[754,103.8042],
		[755,104.0202],
		[756,104.1552],
		[757,104.1552],
		[758,104.2501],
		[759,104.2916],
		[760,104.323],
		[761,104.582],
		[762,104.8214],
		[763,104.8713],
		[764,105.0353],
		[765,105.0954],
		[766,105.3185],
		[767,105.3464],
		[768,105.3729],
		[769,105.7288],
		[770,105.7288],
		[771,105.7757],
		[772,106.0649],
		[773,106.0649],
		[774,106.1176],
		[775,106.269],
		[776,106.3925],
		[777,106.3925],
		[778,106.7422],
		[779,106.8514],
		[780,106.8514],
		[781,106.9495],
		[782,107.0927],
		[783,107.0927],
		[784,107.1986],
		[785,107.4128],
		[786,107.4128],
		[787,107.5067],
		[788,107.7765],
		[789,107.7765],
		[790,108.0361],
		[791,108.1194],
		[792,108.1194],
		[793,108.4246],
		[794,108.5179],
		[795,108.5179],
		[796,108.7055],
		[797,108.7509],
		[798,108.8624],
		[799,109.0806],
		[800,109.1697],
		[801,109.2508],
		[802,109.3548],
		[803,109.5079],
		[804,109.5186],
		[805,109.7093],
		[806,109.9334],
		[807,109.9334],
		[808,110.0989],
		[809,110.0989],
		[810,110.2803],
		[811,110.4496],
		[812,110.4566],
		[813,110.7706],
		[814,110.7868],
		[815,110.7868],
		[816,111.0587],
		[817,111.0587],
		[818,111.1112],
		[819,111.3822],
		[820,111.4829],
		[821,111.5692],
		[822,111.5953],
		[823,111.8937],
		[824,111.8937],
		[825,112.0522],
		[826,112.3062],
		[827,112.3114],
		[828,112.4073],
		[829,112.5289],
		[830,112.8195],
		[831,112.8219],
		[832,112.9149],
		[833,112.9149],
		[834,113.2301],
		[835,113.2619],
		[836,113.3352],
		[837,113.6809],
		[838,113.6809],
		[839,113.7574],
		[840,114.1326],
		[841,114.1326],
		[842,114.1326],
		[843,114.1943],
		[844,114.1943],
		[845,114.2626],
		[846,114.7421],
		[847,114.8155],
		[848,114.8155],
		[849,115.018],
		[850,115.0191],
		[851,115.1097],
		[852,115.2287],
		[853,115.4982],
		[854,115.6682],
		[855,115.7884],
		[856,115.7884],
		[857,116.0557],
		[858,116.1708],
		[859,116.1708],
		[860,116.3492],
		[861,116.4927],
		[862,116.525],
		[863,116.6697],
		[864,116.8463],
		[865,116.9714],
		[866,117.2598],
		[867,117.2598],
		[868,117.3134],
		[869,117.4442],
		[870,117.4455],
		[871,117.653],
		[872,117.8434],
		[873,118.0033],
		[874,118.0604],
		[875,118.1982],
		[876,118.226],
		[877,118.3147],
		[878,118.5298],
		[879,118.6424],
		[880,118.676],
		[881,119.066],
		[882,119.066],
		[883,119.066],
		[884,119.8928],
		[885,120.0156],
		[886,120.0156],
		[887,120.3023],
		[888,120.3595],
		[889,120.5646],
		[890,120.6117],
		[891,120.7753],
		[892,120.8022],
		[893,121.0339],
		[894,121.0339],
		[895,121.0653],
		[896,121.3839],
		[897,121.4517],
		[898,121.4638],
		[899,121.7721],
		[900,121.7973],
		[901,122.0478],
		[902,122.1475],
		[903,122.4409],
		[904,122.4409],
		[905,122.4954],
		[906,122.546],
		[907,122.917],
		[908,122.917],
		[909,122.9404],
		[910,123.2542],
		[911,123.2542],
		[912,123.2542],
		[913,123.6489],
		[914,123.6544],
		[915,123.6653],
		[916,124.1234],
		[917,124.1234],
		[918,124.1234],
		[919,124.3596],
		[920,124.4012],
		[921,124.4493],
		[922,124.6782],
		[923,124.7282],
		[924,124.7282],
		[925,124.9712],
		[926,125.1071],
		[927,125.1071],
		[928,125.4079],
		[929,125.4423],
		[930,125.4423],
		[931,125.8029],
		[932,125.8546],
		[933,125.9095],
		[934,126.1948],
		[935,126.2293],
		[936,126.3517],
		[937,126.4466],
		[938,126.6281],
		[939,126.8354],
		[940,126.9507],
		[941,127.0943],
		[942,127.0943],
		[943,127.244],
		[944,127.41],
		[945,127.7623],
		[946,127.7623],
		[947,127.8151],
		[948,127.9939],
		[949,128.1432],
		[950,128.3593],
		[951,128.4642],
		[952,128.5829],
		[953,128.5864],
		[954,128.9112],
		[955,128.9112],
		[956,128.9112],
		[957,129.2745],
		[958,129.2745],
		[959,129.3618],
		[960,129.6544],
		[961,129.6763],
		[962,129.9617],
		[963,130.0649],
		[964,130.0649],
		[965,130.1349],
		[966,130.3986],
		[967,130.4442],
		[968,130.5661],
		[969,130.843],
		[970,130.8792],
		[971,130.8792],
		[972,131.1782],
		[973,131.3309],
		[974,131.411],
		[975,131.7841],
		[976,131.7841],
		[977,131.8053],
		[978,132.1599],
		[979,132.1625],
		[980,132.1625],
		[981,132.5851],
		[982,132.6515],
		[983,132.6515],
		[984,132.8176],
		[985,132.8176],
		[986,132.8678],
		[987,133.1398],
		[988,133.3331],
		[989,133.3331],
		[990,133.6269],
		[991,133.77],
		[992,133.889],
		[993,133.9569],
		[994,134.0607],
		[995,134.3373],
		[996,134.4488],
		[997,134.6124],
		[998,134.78],
		[999,134.824],
		[1000,134.8586],
		[1001,135.2461],
		[1002,135.2461],
		[1003,135.2932],
		[1004,135.6922],
		[1005,135.7455],
		[1006,135.8449],
		[1007,135.9408],
		[1008,136.0293],
		[1009,136.1432],
		[1010,136.4803],
		[1011,136.5192],
		[1012,136.6553],
		[1013,136.8721],
		[1014,137.0255],
		[1015,137.0255],
		[1016,137.2682],
		[1017,137.3194],
		[1018,137.3194],
		[1019,137.7327],
		[1020,137.784],
		[1021,137.784],
		[1022,138.018],
		[1023,138.0999],
		[1024,138.1435],
		[1025,138.5581],
		[1026,138.6182],
		[1027,138.7141],
		[1028,138.9356],
		[1029,138.9487],
		[1030,139.1371],
		[1031,139.4573],
		[1032,139.4696],
		[1033,139.4919],
		[1034,139.7899],
		[1035,139.7899],
		[1036,140.1071],
		[1037,140.1071],
		[1038,140.2069],
		[1039,140.5067],
		[1040,140.61],
		[1041,140.6917],
		[1042,140.9355],
		[1043,140.9975],
		[1044,140.9975],
		[1045,141.2355],
		[1046,141.4329],
		[1047,141.5037],
		[1048,141.8772],
		[1049,141.8772],
		[1050,141.9433],
		[1051,142.1847],
		[1052,142.1907],
		[1053,142.2501],
		[1054,142.5895],
		[1055,142.6891],
		[1056,142.761],
		[1057,143.0703],
		[1058,143.1008],
		[1059,143.2028],
		[1060,143.3219],
		[1061,143.4684],
		[1062,143.487],
		[1063,143.6099],
		[1064,143.9363],
		[1065,143.9363],
		[1066,144.2144],
		[1067,144.2679],
		[1068,144.346],
		[1069,144.5732],
		[1070,144.7642],
		[1071,144.846],
		[1072,144.9398],
		[1073,145.1249],
		[1074,145.2884],
		[1075,145.5396],
		[1076,145.6604],
		[1077,145.7211],
		[1078,145.9988],
		[1079,145.9988],
		[1080,146.0765],
		[1081,146.4101],
		[1082,146.5197],
		[1083,146.6414],
		[1084,146.7641],
		[1085,146.9726],
		[1086,147.063],
		[1087,147.3573],
		[1088,147.395],
		[1089,147.5652],
		[1090,147.7151],
		[1091,147.7252],
		[1092,147.9485],
		[1093,148.2669],
		[1094,148.2669],
		[1095,148.4474],
		[1096,148.625],
		[1097,148.625],
		[1098,148.9842],
		[1099,149.1002],
		[1100,149.1266],
		[1101,149.3269],
		[1102,149.4567],
		[1103,149.5129],
		[1104,149.696],
		[1105,149.9249],
		[1106,149.9446],
		[1107,150.284],
		[1108,150.3545],
		[1109,150.3545],
		[1110,150.5243],
		[1111,150.6714],
		[1112,150.7326],
		[1113,151.1956],
		[1114,151.1956],
		[1115,151.1956],
		[1116,151.7603],
		[1117,151.8566],
		[1118,151.8566],
		[1119,152.0731],
		[1120,152.0731],
		[1121,152.1043],
		[1122,152.4839],
		[1123,152.494],
		[1124,152.494],
		[1125,152.8074],
		[1126,152.8825],
		[1127,153.2273],
		[1128,153.3822],
		[1129,153.4616],
		[1130,153.6763],
		[1131,153.7403],
		[1132,153.7901],
		[1133,154.1072],
		[1134,154.2809],
		[1135,154.2809],
		[1136,154.6092],
		[1137,154.6891],
		[1138,154.7912],
		[1139,155.0764],
		[1140,155.1969],
		[1141,155.1969],
		[1142,156.4684],
		[1143,156.4684],
		[1144,156.4684],
		[1145,156.5864],
		[1146,156.6439],
		[1147,156.6776],
		[1148,157.1118],
		[1149,157.1552],
		[1150,157.1552],
		[1151,157.5614],
		[1152,157.5614],
		[1153,157.6127],
		[1154,157.9138],
		[1155,158.0833],
		[1156,158.1264],
		[1157,158.4681],
		[1158,158.4681],
		[1159,158.4681],
		[1160,158.932],
		[1161,158.932],
		[1162,159.0514],
		[1163,159.3493],
		[1164,159.46],
		[1165,159.4726],
		[1166,159.7335],
		[1167,159.7335],
		[1168,160.1149],
		[1169,160.1959],
		[1170,160.3534],
		[1171,160.4413],
		[1172,160.6209],
		[1173,160.662],
		[1174,161.1478],
		[1175,161.1478],
		[1176,161.1817],
		[1177,161.4682],
		[1178,161.4682],
		[1179,161.7405],
		[1180,161.921],
		[1181,162.1372],
		[1182,162.1372],
		[1183,162.4877],
		[1184,162.8687],
		[1185,162.8687],
		[1186,163.0216],
		[1187,163.1144],
		[1188,163.1411],
		[1189,163.5789],
		[1190,163.5789],
		[1191,163.6745],
		[1192,163.9233],
		[1193,163.9588],
		[1194,164.2169],
		[1195,164.5404],
		[1196,164.5629],
		[1197,164.6838],
		[1198,164.8166],
		[1199,164.9322],
		[1200,165.1197],
		[1201,165.2705],
		[1202,165.3548],
		[1203,165.6708],
		[1204,165.8902],
		[1205,165.9264],
		[1206,166.0671],
		[1207,166.2184],
		[1208,166.2347],
		[1209,166.4689],
		[1210,166.7498],
		[1211,166.7498],
		[1212,166.9261],
		[1213,167.3473],
		[1214,167.3473],
		[1215,167.3702],
		[1216,167.571],
		[1217,167.6514],
		[1218,167.958],
		[1219,168.0975],
		[1220,168.2437],
		[1221,168.5427],
		[1222,168.6939],
		[1223,168.8112],
		[1224,168.9544],
		[1225,169.149],
		[1226,169.35],
		[1227,169.4397],
		[1228,169.8499],
		[1229,169.8499],
		[1230,169.9167],
		[1231,170.3081],
		[1232,170.3081],
		[1233,170.4845],
		[1234,170.6311],
		[1235,170.8159],
		[1236,170.8497],
		[1237,171.0462],
		[1238,171.1838],
		[1239,171.4444],
		[1240,171.61],
		[1241,171.785],
		[1242,171.8807],
		[1243,171.9207],
		[1244,172.2379],
		[1245,172.7214],
		[1246,172.7214],
		[1247,172.8294],
		[1248,172.9111],
		[1249,173.0427],
		[1250,173.2219],
		[1251,173.6105],
		[1252,173.7854],
		[1253,173.7854],
		[1254,173.9672],
		[1255,174.1776],
		[1256,174.222],
		[1257,174.4501],
		[1258,174.4641],
		[1259,174.4762],
		[1260,174.8393],
		[1261,174.8393],
		[1262,175.0298],
		[1263,175.3304],
		[1264,175.3304],
		[1265,175.6851],
		[1266,175.7451],
		[1267,175.9157],
		[1268,176.2612],
		[1269,176.3787],
		[1270,176.3787],
		[1271,176.5825],
		[1272,176.9396],
		[1273,177.0546],
		[1274,177.1255],
		[1275,177.403],
		[1276,177.403],
		[1277,177.619],
		[1278,178.0228],
		[1279,178.0228],
		[1280,178.2272],
		[1281,178.2878],
		[1282,178.4389],
		[1283,178.6988],
		[1284,178.8138],
		[1285,178.8939],
		[1286,179.1978],
		[1287,179.3906],
		[1288,179.5043],
		[1289,179.5647],
		[1290,179.8778],
		[1291,179.9127],
		[1292,180.159],
		[1293,180.4085],
		[1294,180.4085],
		[1295,180.6952],
		[1296,180.8914],
		[1297,180.9029],
		[1298,181.0205],
		[1299,181.3553],
		[1300,181.3962],
		[1301,181.6483],
		[1302,181.9218],
		[1303,182.0067],
		[1304,182.4579],
		[1305,182.4579],
		[1306,182.4579],
		[1307,182.9012],
		[1308,182.9012],
		[1309,183.0847],
		[1310,183.0847],
		[1311,183.262],
		[1312,183.5281],
		[1313,183.5281],
		[1314,183.7764],
		[1315,184.0479],
		[1316,184.0522],
		[1317,184.3371],
		[1318,184.5186],
		[1319,184.548],
		[1320,184.8358],
		[1321,185.0166],
		[1322,185.2965],
		[1323,185.2965],
		[1324,185.6233],
		[1325,185.7281],
		[1326,185.8472],
		[1327,186.0933],
		[1328,186.1627],
		[1329,186.5177],
		[1330,186.6113],
		[1331,186.6113],
		[1332,186.6495],
		[1333,187.4136],
		[1334,187.4136],
		[1335,187.5116],
		[1336,187.9221],
		[1337,187.9221],
		[1338,187.9221],
		[1339,188.052],
		[1340,188.2081],
		[1341,188.3721],
		[1342,188.6097],
		[1343,188.7108],
		[1344,188.7695],
		[1345,189.0794],
		[1346,189.1669],
		[1347,189.2899],
		[1348,189.7314],
		[1349,189.7607],
		[1350,189.9866],
		[1351,190.1801],
		[1352,190.2771],
		[1353,190.3418],
		[1354,190.6101],
		[1355,190.8611],
		[1356,191.1317],
		[1357,191.2419],
		[1358,191.2419],
		[1359,191.6877],
		[1360,191.7505],
		[1361,191.8173],
		[1362,192.129],
		[1363,192.2462],
		[1364,192.2672],
		[1365,192.6515],
		[1366,192.6774],
		[1367,192.8027],
		[1368,193.3466],
		[1369,193.3466],
		[1370,193.3466],
		[1371,193.8834],
		[1372,193.8834],
		[1373,193.8834],
		[1374,194.3423],
		[1375,194.3969],
		[1376,194.3969],
		[1377,194.9944],
		[1378,194.9944],
		[1379,194.9944],
		[1380,195.4564],
		[1381,195.4564],
		[1382,195.5234],
		[1383,195.8707],
		[1384,195.8908],
		[1385,195.9946],
		[1386,196.3553],
		[1387,196.6085],
		[1388,196.7586],
		[1389,196.9378],
		[1390,197.1849],
		[1391,197.1849],
		[1392,197.536],
		[1393,197.7568],
		[1394,197.7568],
		[1395,198.1795],
		[1396,198.2059],
		[1397,198.2059],
		[1398,198.6779],
		[1399,198.6779],
		[1400,199.9863],
		[1401,200.182],
		[1402,200.182],
		[1403,200.182],
		[1404,200.182],
		[1405,200.4417],
		[1406,200.5988],
		[1407,200.9156],
		[1408,200.9156],
		[1409,200.9156],
		[1410,200.9156],
		[1411,200.9156],
		[1412,201.0583],
		[1413,201.0583],
		[1414,201.1836],
		[1415,201.1836],
		[1416,201.2358],
		[1417,201.3487],
		[1418,201.5159],
		[1419,201.5483],
		[1420,202.0935],
		[1421,202.0935],
		[1422,202.0935],
		[1423,202.0935],
		[1424,202.2371],
		[1425,202.2371],
		[1426,202.2371],
		[1427,202.2693],
		[1428,202.437],
		[1429,202.437],
		[1430,202.5517],
		[1431,202.6394],
		[1432,202.6404],
		[1433,202.6404],
		[1434,203.1395],
		[1435,203.4169],
		[1436,203.4169],
		[1437,203.4169],
		[1438,203.4169],
		[1439,203.5915],
		[1440,203.7376],
		[1441,204.048],
		[1442,204.048],
		[1443,204.048],
		[1444,204.048],
		[1445,204.1183],
		[1446,204.2421],
		[1447,204.4177],
		[1448,204.4177],
		[1449,204.4177],
		[1450,204.4564],
		[1451,204.4564],
		[1452,204.6879],
		[1453,204.7774],
		[1454,204.9483],
		[1455,204.9483],
		[1456,205.2302],
		[1457,205.2302],
		[1458,205.2302],
		[1459,205.4522],
		[1460,205.5545],
		[1461,205.5545],
		[1462,205.6299],
		[1463,205.6871],
		[1464,205.813],
		[1465,205.8867],
		[1466,206.0277],
		[1467,206.0422],
		[1468,206.2838],
		[1469,206.3853],
		[1470,206.4843],
		[1471,206.4843],
		[1472,206.5078],
		[1473,206.87],
		[1474,207.1771],
		[1475,207.1771],
		[1476,207.1839],
		[1477,207.1975],
		[1478,207.1975],
		[1479,207.361],
		[1480,207.5432],
		[1481,207.5546],
		[1482,207.6506],
		[1483,207.7324],
		[1484,207.7324],
		[1485,207.9059],
		[1486,208.204],
		[1487,208.204],
		[1488,208.2083],
		[1489,208.291],
		[1490,208.291],
		[1491,208.9062],
		[1492,208.9062],
		[1493,208.9062],
		[1494,208.9062],
		[1495,208.9062],
		[1496,208.9062],
		[1497,209.1964],
		[1498,209.3836],
		[1499,209.3836],
		[1500,209.3836],
		[1501,209.3836],
		[1502,209.4366],
		[1503,209.7896],
		[1504,209.9359],
		[1505,209.9541],
		[1506,209.9541],
		[1507,209.9541],
		[1508,210.2689],
		[1509,210.3938],
		[1510,210.3938],
		[1511,210.3938],
		[1512,210.4196],
		[1513,210.4196],
		[1514,211.0065],
		[1515,211.0065],
		[1516,211.0148],
		[1517,211.0423],
		[1518,211.067],
		[1519,211.1542],
		[1520,211.7711],
		[1521,211.7711],
		[1522,211.7711],
		[1523,211.7711],
		[1524,211.7711],
		[1525,211.8611],
		[1526,211.8916],
		[1527,212.1174],
		[1528,212.1174],
		[1529,212.2572],
		[1530,212.2572],
		[1531,212.8628],
		[1532,212.8628],
		[1533,212.8628],
		[1534,212.8628],
		[1535,212.8628],
		[1536,212.9671],
		[1537,213.3368],
		[1538,213.3368],
		[1539,213.4715],
		[1540,213.4715],
		[1541,213.4715],
		[1542,213.5516],
		[1543,213.5811],
		[1544,213.6761],
		[1545,213.7431],
		[1546,213.8837],
		[1547,213.8837],
		[1548,214.3294],
		[1549,214.3635],
		[1550,214.3635],
		[1551,214.3635],
		[1552,214.3635],
		[1553,214.3635],
		[1554,214.7572],
		[1555,214.7572],
		[1556,214.7572],
		[1557,214.7844],
		[1558,214.7844],
		[1559,215.2508],
		[1560,215.2508],
		[1561,215.2508],
		[1562,215.2508],
		[1563,215.2588],
		[1564,215.7536],
		[1565,215.9806],
		[1566,215.9806],
		[1567,215.9806],
		[1568,215.9806],
		[1569,215.9806],
		[1570,216.0086],
		[1571,216.5289],
		[1572,216.6639],
		[1573,216.6639],
		[1574,216.6639],
		[1575,216.8986],
		[1576,217.2821],
		[1577,217.2821],
		[1578,217.2821],
		[1579,217.2821],
		[1580,217.3092],
		[1581,217.3092],
		[1582,217.686],
		[1583,217.686],
		[1584,217.686],
		[1585,217.9107],
		[1586,217.9107],
		[1587,217.9107],
		[1588,218.2592],
		[1589,218.2592],
		[1590,218.4097],
		[1591,218.4097],
		[1592,218.4097],
		[1593,218.5572],
		[1594,218.5787],
		[1595,218.8269],
		[1596,218.8269],
		[1597,218.8269],
		[1598,218.8804],
		[1599,219.3503],
		[1600,219.3605],
		[1601,219.4487],
		[1602,219.4733],
		[1603,219.5368],
		[1604,219.5618],
		[1605,220.0505],
		[1606,220.0505],
		[1607,220.094],
		[1608,220.2739],
		[1609,220.2825],
		[1610,220.4282],
		[1611,220.6198],
		[1612,220.6372],
		[1613,220.6372],
		[1614,220.8429],
		[1615,220.8429],
		[1616,220.9795],
		[1617,220.9795],
		[1618,220.999],
		[1619,221.0735],
		[1620,221.1985],
		[1621,221.1985],
		[1622,221.3114],
		[1623,221.5297],
		[1624,221.7633],
		[1625,221.7633],
		[1626,221.7633],
		[1627,222.1743],
		[1628,222.2571],
		[1629,222.2852],
		[1630,222.2852],
		[1631,222.2852],
		[1632,222.3648],
		[1633,222.7047],
		[1634,222.7224],
		[1635,222.8531],
		[1636,222.8531],
		[1637,222.8531],
		[1638,222.8789],
		[1639,223.2379],
		[1640,223.2439],
		[1641,223.3341],
		[1642,223.3541],
		[1643,223.3636],
		[1644,223.885],
		[1645,223.9666],
		[1646,223.9666],
		[1647,223.9666],
		[1648,223.9666],
		[1649,224.0377],
		[1650,224.3606],
		[1651,224.3606],
		[1652,224.3606],
		[1653,224.4363],
		[1654,224.4941],
		[1655,224.4941],
		[1656,225.111],
		[1657,225.111],
		[1658,225.111],
		[1659,225.111],
		[1660,225.111],
		[1661,225.3665],
		[1662,225.5753],
		[1663,225.7957],
		[1664,225.7957],
		[1665,225.8109],
		[1666,225.8109],
		[1667,226.1955],
		[1668,226.2682],
		[1669,226.2682],
		[1670,226.2682],
		[1671,226.2682],
		[1672,226.5842],
		[1673,227.0648],
		[1674,227.0991],
		[1675,227.0991],
		[1676,227.0991],
		[1677,227.0991],
		[1678,227.308],
		[1679,227.3277],
		[1680,227.3277],
		[1681,227.3277],
		[1682,227.5516],
		[1683,227.5516],
		[1684,227.68],
		[1685,227.8087],
		[1686,228.028],
		[1687,228.1899],
		[1688,228.1899],
		[1689,228.1899],
		[1690,228.3522],
		[1691,228.5746],
		[1692,228.5746],
		[1693,228.5746],
		[1694,228.7369],
		[1695,229.0893],
		[1696,229.0893],
		[1697,229.2446],
		[1698,229.2446],
		[1699,229.2446],
		[1700,229.3427],
		[1701,229.6005],
		[1702,229.7473],
		[1703,229.9829],
		[1704,229.9829],
		[1705,229.9829],
		[1706,229.9829],
		[1707,230.3441],
		[1708,230.3441],
		[1709,230.4138],
		[1710,230.4138],
		[1711,230.4457],
		[1712,230.8395],
		[1713,230.8395],
		[1714,230.8597],
		[1715,230.9635],
		[1716,231.2617],
		[1717,231.2617],
		[1718,231.4298],
		[1719,231.6345],
		[1720,231.6345],
		[1721,231.9576],
		[1722,231.9576],
		[1723,231.9576],
		[1724,231.9576],
		[1725,232.1075],
		[1726,232.2332],
		[1727,232.2796],
		[1728,232.302],
		[1729,232.6177],
		[1730,232.8025],
		[1731,233.0293],
		[1732,233.0293],
		[1733,233.0293],
		[1734,233.0293],
		[1735,233.0598],
		[1736,233.3611],
		[1737,233.3611],
		[1738,233.3611],
		[1739,233.4296],
		[1740,233.4296],
		[1741,233.722],
		[1742,233.8787],
		[1743,233.986],
		[1744,234.0344],
		[1745,234.0344],
		[1746,234.3389],
		[1747,234.4984],
		[1748,234.5189],
		[1749,234.5189],
		[1750,234.8703],
		[1751,234.8703],
		[1752,235.0379],
		[1753,235.2741],
		[1754,235.2741],
		[1755,235.2741],
		[1756,235.2741],
		[1757,235.2741],
		[1758,235.5032],
		[1759,235.8089],
		[1760,235.8089],
		[1761,235.8089],
		[1762,235.8089],
		[1763,236.0979],
		[1764,236.5968],
		[1765,236.5968],
		[1766,236.8191],
		[1767,236.8191],
		[1768,236.8191],
		[1769,236.8905],
		[1770,237.025],
		[1771,237.025],
		[1772,237.2471],
		[1773,237.2471],
		[1774,237.2471],
		[1775,237.6619],
		[1776,237.6619],
		[1777,237.7448],
		[1778,237.7448],
		[1779,237.9713],
		[1780,237.9713],
		[1781,238.2427],
		[1782,238.2427],
		[1783,238.4705],
		[1784,238.4705],
		[1785,238.4705],
		[1786,238.701],
		[1787,238.8572],
		[1788,238.8572],
		[1789,238.9449],
		[1790,238.9449],
		[1791,238.9449],
		[1792,239.514],
		[1793,239.5328],
		[1794,239.5328],
		[1795,239.5328],
		[1796,239.5328],
		[1797,239.822],
		[1798,240.0338],
		[1799,240.0642],
		[1800,240.0642],
		[1801,240.092],
		[1802,240.2196],
		[1803,240.6366],
		[1804,240.7049],
		[1805,240.7441],
		[1806,240.7441],
		[1807,240.7441],
		[1808,240.9114],
		[1809,241.2488],
		[1810,241.2488],
		[1811,241.2488],
		[1812,241.2655],
		[1813,241.3038],
		[1814,241.5657],
		[1815,241.5657],
		[1816,241.6233],
		[1817,241.8327],
		[1818,241.8327],
		[1819,241.8327],
		[1820,242.312],
		[1821,242.3598],
		[1822,242.3598],
		[1823,242.4688],
		[1824,242.4688],
		[1825,242.4688],
		[1826,242.907],
		[1827,242.9207],
		[1828,243.0048],
		[1829,243.0236],
		[1830,243.0236],
		[1831,243.3997],
		[1832,243.657],
		[1833,243.657],
		[1834,243.657],
		[1835,243.657],
		[1836,243.657],
		[1837,244.038],
		[1838,244.038],
		[1839,244.038],
		[1840,244.038],
		[1841,244.0504],
		[1842,244.1735],
		[1843,244.7162],
		[1844,244.7162],
		[1845,244.7162],
		[1846,245.1222],
		[1847,245.1222],
		[1848,245.1222],
		[1849,245.2244],
		[1850,245.2244],
		[1851,245.2244],
		[1852,245.4666],
		[1853,245.4666],
		[1854,245.9933],
		[1855,245.9933],
		[1856,246.2332],
		[1857,246.2332],
		[1858,246.2332],
		[1859,246.2874],
		[1860,246.5868],
		[1861,246.7094],
		[1862,246.7094],
		[1863,246.7706],
		[1864,246.8528],
		[1865,247.0735],
		[1866,247.1724],
		[1867,247.3481],
		[1868,247.4473],
		[1869,247.4473],
		[1870,247.5641],
		[1871,247.7214],
		[1872,247.9464],
		[1873,248.0361],
		[1874,248.0361],
		[1875,248.1942],
		[1876,248.3847],
		[1877,248.5266],
		[1878,248.5734],
		[1879,248.6041],
		[1880,248.6041],
		[1881,248.7272],
		[1882,249.1032],
		[1883,249.1032],
		[1884,249.2331],
		[1885,249.3859],
		[1886,249.5637],
		[1887,249.7687],
		[1888,249.8118],
		[1889,249.9701],
		[1890,250.2116],
		[1891,250.2816],
		[1892,250.2816],
		[1893,250.2816],
		[1894,250.3017],
		[1895,250.4551],
		[1896,250.5648],
		[1897,250.6638],
		[1898,250.757],
		[1899,250.8966],
		[1900,251.132],
		[1901,251.132],
		[1902,251.132],
		[1903,251.4661],
		[1904,251.4661],
		[1905,251.6479],
		[1906,251.6479],
		[1907,251.9551],
		[1908,251.9551],
		[1909,251.9996],
		[1910,252.1779],
		[1911,252.3169],
		[1912,252.392],
		[1913,252.8352],
		[1914,252.8352],
		[1915,252.8811],
		[1916,252.943],
		[1917,252.943],
		[1918,252.943],
		[1919,253.0661],
		[1920,253.2116],
		[1921,253.4837],
		[1922,253.4837],
		[1923,253.4837],
		[1924,253.6872],
		[1925,253.7538],
		[1926,253.9274],
		[1927,253.9274],
		[1928,254.1471],
		[1929,254.442],
		[1930,254.5354],
		[1931,254.5354],
		[1932,254.6679],
		[1933,254.6679],
		[1934,255.0214],
		[1935,255.219],
		[1936,255.219],
		[1937,255.219],
		[1938,255.2872],
		[1939,255.6293],
		[1940,255.9004],
		[1941,255.9004],
		[1942,255.9004],
		[1943,255.9004],
		[1944,256.2538],
		[1945,256.3799],
		[1946,256.3799],
		[1947,256.4836],
		[1948,256.4836],
		[1949,256.6875],
		[1950,256.8304],
		[1951,256.8829],
		[1952,256.9543],
		[1953,256.9543],
		[1954,257.1745],
		[1955,257.1745],
		[1956,257.6555],
		[1957,257.6555],
		[1958,257.6555],
		[1959,257.6555],
		[1960,257.8611],
		[1961,257.8611],
		[1962,258.0122],
		[1963,258.1884],
		[1964,258.2032],
		[1965,258.2032],
		[1966,258.2032],
		[1967,258.2032],
		[1968,258.6581],
		[1969,258.9324],
		[1970,258.9324],
		[1971,258.9324],
		[1972,258.9324],
		[1973,259.2531],
		[1974,259.4686],
		[1975,259.5346],
		[1976,259.5406],
		[1977,259.674],
		[1978,259.674],
		[1979,259.9217],
		[1980,260.0118],
		[1981,260.1341],
		[1982,260.1896],
		[1983,260.2535],
		[1984,260.2535],
		[1985,260.4433],
		[1986,260.5468],
		[1987,261.0297],
		[1988,261.0297],
		[1989,261.0297],
		[1990,261.6887],
		[1991,261.6887],
		[1992,261.6887],
		[1993,261.6887],
		[1994,261.6887],
		[1995,261.6887],
		[1996,262.02],
		[1997,262.1762],
		[1998,262.1762],
		[1999,262.1762],
		[2000,262.1762],
		[2001,262.2023],
		[2002,262.7115],
		[2003,262.7115],
		[2004,262.7115],
		[2005,262.8302],
		[2006,262.8302],
		[2007,263.4006],
		[2008,263.4227],
		[2009,263.4227],
		[2010,263.4227],
		[2011,263.4227],
		[2012,263.6861],
		[2013,264.4597],
		[2014,264.4597],
		[2015,264.4597],
		[2016,264.4597],
		[2017,264.4597],
		[2018,264.4597],
		[2019,264.548],
		[2020,264.8997],
		[2021,264.8997],
		[2022,265.0174],
		[2023,265.0174],
		[2024,265.1938],
		[2025,265.3506],
		[2026,265.5205],
		[2027,265.5205],
		[2028,265.5205],
		[2029,265.5205],
		[2030,265.8224],
		[2031,266.1025],
		[2032,266.4147],
		[2033,266.4147],
		[2034,266.4147],
		[2035,266.4147],
		[2036,266.5009],
		[2037,266.5977],
		[2038,266.5977],
		[2039,266.6251],
		[2040,266.7286],
		[2041,267.297],
		[2042,267.379],
		[2043,267.6862],
		[2044,267.6862],
		[2045,267.6862],
		[2046,267.6862],
		[2047,267.9795],
		[2048,267.9795],
		[2049,268.0243],
		[2050,268.0362],
		[2051,268.2884],
		[2052,268.2884],
		[2053,268.3851],
		[2054,268.6477],
		[2055,268.8699],
		[2056,268.8699],
		[2057,268.8832],
		[2058,269.1286],
		[2059,269.1286],
		[2060,269.2288],
		[2061,269.2986],
		[2062,269.2986],
		[2063,269.2986],
		[2064,269.7987],
		[2065,269.8893],
		[2066,270.0477],
		[2067,270.0477],
		[2068,270.0477],
		[2069,270.1033],
		[2070,270.4881],
		[2071,270.7045],
		[2072,270.7045],
		[2073,270.7045],
		[2074,270.7045],
		[2075,271.1786],
		[2076,271.1786],
		[2077,271.2957],
		[2078,271.2957],
		[2079,271.4393],
		[2080,271.4393],
		[2081,271.7101],
		[2082,271.8143],
		[2083,272.0628],
		[2084,272.119],
		[2085,272.119],
		[2086,272.2168],
		[2087,272.4839],
		[2088,272.4839],
		[2089,272.5166],
		[2090,272.6693],
		[2091,272.6763],
		[2092,272.9332],
		[2093,272.9633],
		[2094,273.2974],
		[2095,273.2974],
		[2096,273.4004],
		[2097,273.4004],
		[2098,273.4832],
		[2099,273.8152],
		[2100,273.8152],
		[2101,273.8152],
		[2102,273.8831],
		[2103,273.9315],
		[2104,274.4499],
		[2105,275.6154],
		[2106,275.6154],
		[2107,275.6154],
		[2108,275.6154],
		[2109,275.9455],
		[2110,275.9495],
		[2111,276.147],
		[2112,276.3197],
		[2113,276.3197],
		[2114,276.3197],
		[2115,276.6942],
		[2116,276.6942],
		[2117,276.7054],
		[2118,277.1944],
		[2119,277.1944],
		[2120,277.1944],
		[2121,277.3794],
		[2122,277.4451],
		[2123,277.4451],
		[2124,277.6781],
		[2125,277.6781],
		[2126,278.0982],
		[2127,278.2452],
		[2128,278.2452],
		[2129,278.4023],
		[2130,278.4023],
		[2131,278.4023],
		[2132,278.4705],
		[2133,278.8289],
		[2134,278.8289],
		[2135,278.9519],
		[2136,278.9519],
		[2137,278.9519],
		[2138,279.2205],
		[2139,279.575],
		[2140,279.5751],
		[2141,279.5751],
		[2142,279.5751],
		[2143,279.9985],
		[2144,279.9985],
		[2145,280.0079],
		[2146,280.1554],
		[2147,280.1554],
		[2148,280.4827],
		[2149,280.7618],
		[2150,280.7887],
		[2151,280.8084],
		[2152,280.8084],
		[2153,280.8989],
		[2154,280.8989],
		[2155,281.2604],
		[2156,281.3386],
		[2157,281.4829],
		[2158,281.5981],
		[2159,281.7844],
		[2160,281.9169],
		[2161,282.2574],
		[2162,282.2574],
		[2163,282.2637],
		[2164,282.3649],
		[2165,282.3649],
		[2166,282.5305],
		[2167,282.8235],
		[2168,282.8782],
		[2169,282.8782],
		[2170,282.8803],
		[2171,282.8803],
		[2172,283.266],
		[2173,283.4833],
		[2174,283.4929],
		[2175,283.576],
		[2176,283.576],
		[2177,283.9769],
		[2178,284.1955],
		[2179,284.2],
		[2180,284.28],
		[2181,284.28],
		[2182,284.3129],
		[2183,284.7857],
		[2184,285.0993],
		[2185,285.0993],
		[2186,285.1422],
		[2187,285.1422],
		[2188,285.1426],
		[2189,285.7212],
		[2190,285.7212],
		[2191,285.8435],
		[2192,285.8435],
		[2193,285.91],
		[2194,285.9514],
		[2195,286.2793],
		[2196,286.2793],
		[2197,286.2793],
		[2198,286.2793],
		[2199,286.5592],
		[2200,286.6924],
		[2201,287.121],
		[2202,287.121],
		[2203,287.121],
		[2204,287.121],
		[2205,287.3553],
		[2206,287.6725],
		[2207,287.6725],
		[2208,287.7311],
		[2209,287.7653],
		[2210,288.0587],
		[2211,288.2345],
		[2212,288.2345],
		[2213,288.2431],
		[2214,288.2431],
		[2215,288.3132],
		[2216,288.4677],
		[2217,288.6577],
		[2218,288.7321],
		[2219,288.9238],
		[2220,288.9964],
		[2221,288.9964],
		[2222,288.9964],
		[2223,289.2556],
		[2224,289.8113],
		[2225,289.8113],
		[2226,289.8113],
		[2227,289.8113],
		[2228,290.1122],
		[2229,290.2418],
		[2230,290.4282],
		[2231,290.4282],
		[2232,290.5297],
		[2233,290.5297],
		[2234,290.8945],
		[2235,290.8979],
		[2236,291.1258],
		[2237,291.1258],
		[2238,291.1258],
		[2239,291.1258],
		[2240,291.3948],
		[2241,291.5072],
		[2242,291.5072],
		[2243,291.7863],
		[2244,291.7863],
		[2245,292.2868],
		[2246,292.2868],
		[2247,292.2868],
		[2248,292.3143],
		[2249,292.6896],
		[2250,292.6896],
		[2251,293.0868],
		[2252,293.0868],
		[2253,293.0868],
		[2254,293.2224],
		[2255,293.2224],
		[2256,293.2224],
		[2257,293.7903],
		[2258,293.7903],
		[2259,293.7903],
		[2260,293.7903],
		[2261,294.1853],
		[2262,294.4973],
		[2263,294.5781],
		[2264,294.8987],
		[2265,295.0063],
		[2266,295.0063],
		[2267,295.2249],
		[2268,295.2329],
		[2269,295.5374],
		[2270,295.5374],
		[2271,295.5374],
		[2272,295.5374],
		[2273,295.636],
		[2274,295.9138],
		[2275,296.1445],
		[2276,296.1445],
		[2277,296.1445],
		[2278,296.1445],
		[2279,296.4965],
		[2280,296.5669],
		[2281,296.6658],
		[2282,296.7213],
		[2283,297.074],
		[2284,297.074],
		[2285,297.2161],
		[2286,297.5017],
		[2287,297.5504],
		[2288,297.6163],
		[2289,297.6163],
		[2290,297.6163],
		[2291,297.7381],
		[2292,298.1892],
		[2293,298.2509],
		[2294,298.3457],
		[2295,298.3457],
		[2296,298.4984],
		[2297,298.4984],
		[2298,298.9208],
		[2299,299.1536],
		[2300,299.1536],
		[2301,299.1536],
		[2302,299.3011],
		[2303,299.4375],
		[2304,299.5087],
		[2305,299.5984],
		[2306,299.5984],
		[2307,299.6475],
		[2308,299.806],
		[2309,300.3922],
		[2310,300.3922],
		[2311,300.3922],
		[2312,300.3922],
		[2313,300.7253],
		[2314,300.7253],
		[2315,300.8028],
		[2316,300.8028],
		[2317,300.9368],
		[2318,301.4024],
		[2319,301.4268],
		[2320,301.4268],
		[2321,301.7011],
		[2322,301.7011],
		[2323,301.8225],
		[2324,301.9425],
		[2325,302.0342],
		[2326,302.1835],
		[2327,302.5112],
		[2328,302.5258],
		[2329,302.7195],
		[2330,302.9801],
		[2331,303.1783],
		[2332,303.5305],
		[2333,303.5305],
		[2334,303.5305],
		[2335,303.5305],
		[2336,303.6182],
		[2337,303.8181],
		[2338,303.8181],
		[2339,303.8181],
		[2340,303.8847],
		[2341,303.8847],
		[2342,304.4199],
		[2343,304.4199],
		[2344,304.4616],
		[2345,304.5538],
		[2346,304.6947],
		[2347,305.0327],
		[2348,305.0687],
		[2349,305.1094],
		[2350,305.1287],
		[2351,305.4688],
		[2352,305.4688],
		[2353,305.9179],
		[2354,305.9179],
		[2355,305.9179],
		[2356,306.0239],
		[2357,306.0382],
		[2358,306.0611],
		[2359,306.3158],
		[2360,306.6438],
		[2361,306.7377],
		[2362,307.0324],
		[2363,307.0324],
		[2364,307.2928],
		[2365,307.2928],
		[2366,307.2928],
		[2367,307.2928],
		[2368,307.2928],
		[2369,307.3407],
		[2370,307.8755],
		[2371,308.2079],
		[2372,308.2079],
		[2373,308.2079],
		[2374,308.2112],
		[2375,308.3087],
		[2376,309.1448],
		[2377,309.1448],
		[2378,309.2096],
		[2379,309.2096],
		[2380,309.3785],
		[2381,309.6926],
		[2382,309.6926],
		[2383,309.6926],
		[2384,309.6926],
		[2385,309.6926],
		[2386,309.7362],
		[2387,310.1927],
		[2388,310.3177],
		[2389,310.3177],
		[2390,310.3522],
		[2391,310.6428],
		[2392,310.6428],
		[2393,311.1595],
		[2394,311.4473],
		[2395,311.4473],
		[2396,311.4473],
		[2397,311.4473],
		[2398,311.4473],
		[2399,311.4473],
		[2400,311.4706],
		[2401,311.7034],
		[2402,311.7034],
		[2403,311.7034],
		[2404,312.226],
		[2405,312.5098],
		[2406,312.5142],
		[2407,312.5142],
		[2408,312.5142],
		[2409,312.5142],
		[2410,313.1135],
		[2411,313.1135],
		[2412,313.1135],
		[2413,313.1966],
		[2414,313.3296],
		[2415,313.8234],
		[2416,313.8299],
		[2417,313.9227],
		[2418,313.9227],
		[2419,313.9227],
		[2420,314.0468],
		[2421,314.5272],
		[2422,314.5272],
		[2423,314.5272],
		[2424,314.5272],
		[2425,314.6805],
		[2426,314.7238],
		[2427,315.0963],
		[2428,315.1217],
		[2429,315.3719],
		[2430,315.3985],
		[2431,315.3985],
		[2432,316.002],
		[2433,316.002],
		[2434,316.0133],
		[2435,316.3081],
		[2436,316.3081],
		[2437,316.33],
		[2438,316.7591],
		[2439,316.8838],
		[2440,316.9508],
		[2441,316.9508],
		[2442,317.0026],
		[2443,317.0144],
		[2444,317.6395],
		[2445,317.8718],
		[2446,317.8718],
		[2447,317.8718],
		[2448,317.8718],
		[2449,318.2219],
		[2450,318.3282],
		[2451,318.409],
		[2452,318.4594],
		[2453,318.4737],
		[2454,318.4737],
		[2455,318.8427],
		[2456,319.0521],
		[2457,319.0732],
		[2458,319.0732],
		[2459,319.0732],
		[2460,319.0732],
		[2461,319.5316],
		[2462,319.8357],
		[2463,319.8357],
		[2464,319.8357],
		[2465,319.8357],
		[2466,319.8357],
		[2467,320.3364],
		[2468,320.3466],
		[2469,320.4075],
		[2470,320.4518],
		[2471,320.5355],
		[2472,321.0086],
		[2473,321.0115],
		[2474,321.2313],
		[2475,321.2313],
		[2476,321.598],
		[2477,321.598],
		[2478,321.6958],
		[2479,321.6958],
		[2480,321.9063],
		[2481,321.9063],
		[2482,321.9063],
		[2483,321.9198],
		[2484,322.2686],
		[2485,322.384],
		[2486,322.5481],
		[2487,322.6803],
		[2488,322.6803],
		[2489,322.9198],
		[2490,322.9514],
		[2491,323.1373],
		[2492,323.7328],
		[2493,323.7328],
		[2494,323.7328],
		[2495,323.7912],
		[2496,323.9049],
		[2497,324.2077],
		[2498,324.314],
		[2499,324.314],
		[2500,324.314],
		[2501,324.4918],
		[2502,324.5753],
		[2503,325.1656],
		[2504,325.1656],
		[2505,325.1656],
		[2506,325.1656],
		[2507,325.5045],
		[2508,325.6341],
		[2509,325.6341],
		[2510,325.8302],
		[2511,325.8334],
		[2512,326.1776],
		[2513,326.1864],
		[2514,326.4303],
		[2515,326.4493],
		[2516,326.4907],
		[2517,326.4907],
		[2518,326.7582],
		[2519,326.8982],
		[2520,327.0237],
		[2521,327.1747],
		[2522,327.31],
		[2523,327.6188],
		[2524,327.7124],
		[2525,327.8395],
		[2526,328.0013],
		[2527,328.0258],
		[2528,328.1893],
		[2529,328.5472],
		[2530,328.701],
		[2531,328.7977],
		[2532,328.7977],
		[2533,328.8672],
		[2534,328.8672],
		[2535,329.2896],
		[2536,329.5798],
		[2537,329.5798],
		[2538,329.5798],
		[2539,329.5798],
		[2540,329.9625],
		[2541,329.9912],
		[2542,330.376],
		[2543,330.376],
		[2544,330.376],
		[2545,330.376],
		[2546,330.5208],
		[2547,330.6389],
		[2548,330.8093],
		[2549,330.8093],
		[2550,330.8377],
		[2551,330.9271],
		[2552,331.3032],
		[2553,331.7919],
		[2554,331.7919],
		[2555,331.7919],
		[2556,331.8511],
		[2557,332.2789],
		[2558,332.2789],
		[2559,332.3039],
		[2560,332.3521],
		[2561,332.4566],
		[2562,332.4566],
		[2563,332.9344],
		[2564,332.9763],
		[2565,333.0546],
		[2566,333.0546],
		[2567,333.1928],
		[2568,333.1928],
		[2569,333.5388],
		[2570,333.779],
		[2571,333.9731],
		[2572,333.9731],
		[2573,334.0345],
		[2574,334.4648],
		[2575,334.7986],
		[2576,334.9037],
		[2577,334.9037],
		[2578,334.9037],
		[2579,334.9037],
		[2580,335.0054],
		[2581,335.3715],
		[2582,335.5212],
		[2583,335.5968],
		[2584,335.5968],
		[2585,335.6308],
		[2586,336.1642],
		[2587,336.4568],
		[2588,336.4568],
		[2589,336.4568],
		[2590,336.4568],
		[2591,336.5895],
		[2592,337.1141],
		[2593,337.315],
		[2594,337.3422],
		[2595,337.3422],
		[2596,337.3422],
		[2597,337.4717],
		[2598,337.8051],
		[2599,338.2048],
		[2600,338.2048],
		[2601,338.2048],
		[2602,338.2048],
		[2603,338.9409],
		[2604,338.9409],
		[2605,339.0596],
		[2606,339.0596],
		[2607,339.0596],
		[2608,339.4716],
		[2609,339.4716],
		[2610,339.4716],
		[2611,339.4756],
		[2612,339.6797],
		[2613,339.8294],
		[2614,340.1446],
		[2615,340.1446],
		[2616,340.1446],
		[2617,340.1446],
		[2618,340.3793],
		[2619,340.7621],
		[2620,341.0629],
		[2621,341.0629],
		[2622,341.0629],
		[2623,341.2994],
		[2624,341.2994],
		[2625,341.8607],
		[2626,341.8607],
		[2627,341.9697],
		[2628,342.001],
		[2629,342.001],
		[2630,342.001],
		[2631,342.2468],
		[2632,342.2637],
		[2633,342.8466],
		[2634,342.959],
		[2635,342.959],
		[2636,342.959],
		[2637,343.4845],
		[2638,343.6442],
		[2639,343.6442],
		[2640,343.6442],
		[2641,343.6442],
		[2642,344.1471],
		[2643,344.1471],
		[2644,344.1471],
		[2645,344.1545],
		[2646,344.1545],
		[2647,344.446],
		[2648,344.9081],
		[2649,344.9918],
		[2650,345.0146],
		[2651,345.0146],
		[2652,345.0146],
		[2653,345.0146],
		[2654,345.7032],
		[2655,345.7032],
		[2656,345.7032],
		[2657,345.7032],
		[2658,345.9738],
		[2659,346.4579],
		[2660,346.4579],
		[2661,346.4579],
		[2662,346.4579],
		[2663,346.4701],
		[2664,346.4701],
		[2665,347.0628],
		[2666,347.1672],
		[2667,347.1672],
		[2668,347.1672],
		[2669,347.3801],
		[2670,347.3801],
		[2671,348.2533],
		[2672,348.2533],
		[2673,348.2533],
		[2674,348.2533],
		[2675,348.2533],
		[2676,348.7162],
		[2677,348.7162],
		[2678,348.7162],
		[2679,348.7162],
		[2680,348.7162],
		[2681,348.7162],
		[2682,349.3967],
		[2683,349.485],
		[2684,349.5959],
		[2685,349.5959],
		[2686,349.7341],
		[2687,349.7341],
		[2688,350.2367],
		[2689,350.296],
		[2690,350.296],
		[2691,350.296],
		[2692,350.3355],
		[2693,350.9698],
		[2694,350.9698],
		[2695,350.9698],
		[2696,351.0811],
		[2697,351.1708],
		[2698,351.1708],
		[2699,351.7683],
		[2700,351.7683],
		[2701,352.0138],
		[2702,352.3519],
		[2703,352.3519],
		[2704,352.3519],
		[2705,352.4373],
		[2706,352.5386],
		[2707,352.5386],
		[2708,352.8563],
		[2709,352.8563],
		[2710,353.2622],
		[2711,353.33],
		[2712,353.7124],
		[2713,353.7216],
		[2714,353.7216],
		[2715,353.7216],
		[2716,354.0219],
		[2717,354.0219],
		[2718,354.2037],
		[2719,354.2037],
		[2720,354.2037],
		[2721,354.2037],
		[2722,354.8456],
		[2723,354.8456],
		[2724,354.927],
		[2725,354.9754],
		[2726,354.9754],
		[2727,355.4193],
		[2728,355.4193],
		[2729,355.7129],
		[2730,355.7129],
		[2731,355.7129],
		[2732,355.7129],
		[2733,356.1795],
		[2734,356.1795],
		[2735,356.528],
		[2736,356.528],
		[2737,356.528],
		[2738,356.528],
		[2739,357.2339],
		[2740,357.3074],
		[2741,357.3074],
		[2742,357.3074],
		[2743,357.3074],
		[2744,358.0916],
		[2745,358.0916],
		[2746,358.0916],
		[2747,358.0916],
		[2748,358.0916],
		[2749,358.1966],
		[2750,358.6887],
		[2751,358.8115],
		[2752,358.8115],
		[2753,358.8115],
		[2754,358.8657],
		[2755,359.0769],
		[2756,359.9362],
		[2757,359.9362],
		[2758,359.9362],
		[2759,359.9362],
		[2760,359.9362],
		[2761,360.2386],
		[2762,360.296],
		[2763,360.6815],
		[2764,360.6815],
		[2765,360.6815],
		[2766,360.6815],
		[2767,361.2702],
		[2768,361.2779],
		[2769,361.2779],
		[2770,361.319],
		[2771,361.3683],
		[2772,361.3683],
		[2773,362.2796],
		[2774,362.2796],
		[2775,362.2796],
		[2776,362.2796],
		[2777,362.2796],
		[2778,362.5005],
		[2779,362.7951],
		[2780,362.9186],
		[2781,362.9186],
		[2782,362.9186],
		[2783,362.9382],
		[2784,363.7763],
		[2785,363.7763],
		[2786,363.7763],
		[2787,363.7763],
		[2788,364.038],
		[2789,364.038],
		[2790,364.5206],
		[2791,364.5206],
		[2792,364.5689],
		[2793,364.5689],
		[2794,364.5689],
		[2795,365.113],
		[2796,365.1851],
		[2797,365.4089],
		[2798,365.4246],
		[2799,365.4246],
		[2800,365.4246],
		[2801,365.9925],
		[2802,365.9925],
		[2803,366.1096],
		[2804,366.3145],
		[2805,366.3145],
		[2806,366.3145],
		[2807,366.763],
		[2808,367.294],
		[2809,367.294],
		[2810,368.2613],
		[2811,368.2613],
		[2812,369.0252],
		[2813,369.0252],
		[2814,369.0252],
		[2815,369.0252],
		[2816,369.0252],
		[2817,369.2005],
		[2818,369.5634],
		[2819,369.7451],
		[2820,369.8322],
		[2821,369.8322],
		[2822,370.0696],
		[2823,370.0696],
		[2824,370.5564],
		[2825,370.5564],
		[2826,370.8004],
		[2827,370.8004],
		[2828,370.9374],
		[2829,371.5348],
		[2830,371.5348],
		[2831,371.5348],
		[2832,371.5348],
		[2833,371.7111],
		[2834,371.7111],
		[2835,372.4622],
		[2836,372.5094],
		[2837,372.5094],
		[2838,372.5094],
		[2839,372.5094],
		[2840,372.5094],
		[2841,373.401],
		[2842,373.401],
		[2843,373.401],
		[2844,373.401],
		[2845,373.401],
		[2846,373.8796],
		[2847,373.8796],
		[2848,374.1884],
		[2849,374.1884],
		[2850,374.1884],
		[2851,374.2115],
		[2852,374.6458],
		[2853,374.7079],
		[2854,374.7079],
		[2855,375.1922],
		[2856,375.1922],
		[2857,375.2193],
		[2858,375.6346],
		[2859,375.6346],
		[2860,375.6346],
		[2861,375.7051],
		[2862,375.7051],
		[2863,376.3216],
		[2864,376.3742],
		[2865,376.4183],
		[2866,376.5426],
		[2867,376.6161],
		[2868,376.6161],
		[2869,377.247],
		[2870,377.4701],
		[2871,377.4701],
		[2872,377.4701],
		[2873,377.4701],
		[2874,377.4701],
		[2875,377.8741],
		[2876,377.9649],
		[2877,377.9649],
		[2878,377.9649],
		[2879,377.9649],
		[2880,378.7933],
		[2881,378.7933],
		[2882,378.811],
		[2883,379.0873],
		[2884,379.0873],
		[2885,379.2264],
		[2886,379.4837],
		[2887,379.7951],
		[2888,379.7951],
		[2889,379.7951],
		[2890,379.7951],
		[2891,379.8805],
		[2892,380.4134],
		[2893,380.5182],
		[2894,380.9682],
		[2895,380.9682],
		[2896,380.9682],
		[2897,380.9682],
		[2898,381.0256],
		[2899,381.2681],
		[2900,381.2681],
		[2901,381.3209],
		[2902,381.345],
		[2903,381.7696],
		[2904,381.8488],
		[2905,381.9098],
		[2906,382.1379],
		[2907,382.1379],
		[2908,382.1771],
		[2909,383.1553],
		[2910,383.1553],
		[2911,383.1553],
		[2912,383.1553],
		[2913,383.1553],
		[2914,383.8464],
		[2915,383.8464],
		[2916,383.8464],
		[2917,383.8464],
		[2918,383.8464],
		[2919,383.8464],
		[2920,384.5456],
		[2921,384.5456],
		[2922,384.5456],
		[2923,384.5924],
		[2924,384.9016],
		[2925,384.9144],
		[2926,385.3621],
		[2927,385.3621],
		[2928,385.4181],
		[2929,385.5836],
		[2930,385.6536],
		[2931,386.3289],
		[2932,386.3383],
		[2933,386.4049],
		[2934,386.4499],
		[2935,386.6164],
		[2936,386.6164],
		[2937,387.0063],
		[2938,387.1354],
		[2939,387.1354],
		[2940,387.2156],
		[2941,387.2156],
		[2942,387.2702],
		[2943,387.7826],
		[2944,388.1245],
		[2945,388.1245],
		[2946,388.1245],
		[2947,388.1245],
		[2948,388.7163],
		[2949,388.7163],
		[2950,388.7163],
		[2951,388.8341],
		[2952,388.8341],
		[2953,388.8341],
		[2954,389.2804],
		[2955,389.4547],
		[2956,389.4547],
		[2957,389.6265],
		[2958,389.776],
		[2959,389.776],
		[2960,390.3319],
		[2961,390.4846],
		[2962,390.5914],
		[2963,390.7291],
		[2964,390.7568],
		[2965,391.5293],
		[2966,391.5293],
		[2967,391.5293],
		[2968,391.5293],
		[2969,391.7601],
		[2970,391.7601],
		[2971,392.136],
		[2972,392.2818],
		[2973,392.3558],
		[2974,392.3558],
		[2975,392.3558],
		[2976,392.5048],
		[2977,393.1663],
		[2978,393.1877],
		[2979,393.1877],
		[2980,393.1877],
		[2981,393.1877],
		[2982,393.8041],
		[2983,393.8041],
		[2984,394.2233],
		[2985,394.2233],
		[2986,394.2233],
		[2987,394.2233],
		[2988,394.6874],
		[2989,394.6874],
		[2990,394.8029],
		[2991,394.8029],
		[2992,395.1046],
		[2993,395.1046],
		[2994,395.5742],
		[2995,395.5742],
		[2996,395.7563],
		[2997,395.8818],
		[2998,395.8818],
		[2999,395.8818],
		[3000,396.4517],
		[3001,396.6577],
		[3002,396.6577],
		[3003,396.6577],
		[3004,396.7222],
		[3005,397.3741],
		[3006,397.3741],
		[3007,397.4894],
		[3008,397.4894],
		[3009,397.5608],
		[3010,397.5608],
		[3011,398.2101],
		[3012,398.2101],
		[3013,398.2101],
		[3014,398.2117],
		[3015,398.2282],
		[3016,398.2282],
		[3017,399.1345],
		[3018,399.1345],
		[3019,399.1345],
		[3020,399.1345],
		[3021,399.2113],
		[3022,399.9077],
		[3023,399.9285],
		[3024,399.9285],
		[3025,399.9285],
		[3026,400.0366],
		[3027,400.0366],
		[3028,400.7111],
		[3029,400.7633],
		[3030,400.8218],
		[3031,400.8218],
		[3032,400.9082],
		[3033,400.9082],
		[3034,401.2318],
		[3035,401.4904],
		[3036,401.4904],
		[3037,401.7189],
		[3038,402.151],
		[3039,402.4437],
		[3040,402.4437],
		[3041,402.4437],
		[3042,402.4437],
		[3043,402.5815],
		[3044,402.5815],
		[3045,403.093],
		[3046,403.1481],
		[3047,403.1614],
		[3048,403.3739],
		[3049,403.3739],
		[3050,403.5785],
		[3051,404.4755],
		[3052,404.4755],
		[3053,404.4755],
		[3054,404.4755],
		[3055,404.4755],
		[3056,405.0065],
		[3057,405.0065],
		[3058,405.5775],
		[3059,405.5775],
		[3060,405.5775],
		[3061,405.5775],
		[3062,405.6304],
		[3063,405.7497],
		[3064,405.7627],
		[3065,406.05],
		[3066,406.089],
		[3067,406.089],
		[3068,406.8062],
		[3069,406.8062],
		[3070,406.8062],
		[3071,406.8914],
		[3072,406.8914],
		[3073,407.4486],
		[3074,407.5096],
		[3075,407.5096],
		[3076,407.5096],
		[3077,407.5096],
		[3078,407.5096],
		[3079,407.9415],
		[3080,408.2444],
		[3081,408.2645],
		[3082,408.312],
		[3083,408.312],
		[3084,408.312],
		[3085,409.5628],
		[3086,409.5628],
		[3087,409.5628],
		[3088,409.5628],
		[3089,409.5628],
		[3090,410.0439],
		[3091,410.0638],
		[3092,410.1513],
		[3093,410.3674],
		[3094,410.5282],
		[3095,410.5282],
		[3096,410.9354],
		[3097,410.9354],
		[3098,411.6805],
		[3099,411.6805],
		[3100,411.6805],
		[3101,411.6805],
		[3102,411.7914],
		[3103,411.931],
		[3104,412.0616],
		[3105,412.0616],
		[3106,412.0616],
		[3107,412.5787],
		[3108,412.7374],
		[3109,412.7508],
		[3110,412.7508],
		[3111,412.7508],
		[3112,412.7508],
		[3113,413.885],
		[3114,413.885],
		[3115,413.885],
		[3116,413.885],
		[3117,413.885],
		[3118,413.885],
		[3119,414.0842],
		[3120,414.6779],
		[3121,414.6779],
		[3122,414.6779],
		[3123,414.6779],
		[3124,415.3446],
		[3125,415.371],
		[3126,415.3871],
		[3127,415.6078],
		[3128,415.6755],
		[3129,415.6755],
		[3130,416.2725],
		[3131,416.2725],
		[3132,416.6031],
		[3133,416.6031],
		[3134,416.6031],
		[3135,416.6031],
		[3136,417.0522],
		[3137,417.293],
		[3138,417.2931],
		[3139,417.5641],
		[3140,417.5641],
		[3141,417.8457],
		[3142,417.9569],
		[3143,417.9579],
		[3144,417.9579],
		[3145,417.9579],
		[3146,417.9791],
		[3147,418.9551],
		[3148,419.0502],
		[3149,419.0502],
		[3150,419.0502],
		[3151,419.0502],
		[3152,419.106],
		[3153,419.5935],
		[3154,419.5935],
		[3155,420.0972],
		[3156,420.0972],
		[3157,420.0972],
		[3158,420.5849],
		[3159,420.626],
		[3160,420.7612],
		[3161,420.8958],
		[3162,420.8958],
		[3163,421.1796],
		[3164,421.6682],
		[3165,421.6682],
		[3166,421.6682],
		[3167,421.6682],
		[3168,421.6682],
		[3169,421.7868],
		[3170,422.2139],
		[3171,422.4696],
		[3172,422.7455],
		[3173,422.7455],
		[3174,422.8073],
		[3175,423.1592],
		[3176,423.2865],
		[3177,423.2865],
		[3178,423.3495],
		[3179,423.3627],
		[3180,423.5387],
		[3181,424.2212],
		[3182,424.2212],
		[3183,424.2212],
		[3184,424.3211],
		[3185,424.4297],
		[3186,424.4302],
		[3187,424.8961],
		[3188,424.9999],
		[3189,425.1704],
		[3190,425.8861],
		[3191,425.8861],
		[3192,426.2134],
		[3193,426.2134],
		[3194,426.307],
		[3195,426.4192],
		[3196,426.4192],
		[3197,426.6689],
		[3198,426.7738],
		[3199,426.9352],
		[3200,427.1964],
		[3201,427.1964],
		[3202,427.4618],
		[3203,427.4618],
		[3204,427.5221],
		[3205,427.9278],
		[3206,427.9278],
		[3207,427.9278],
		[3208,427.9278],
		[3209,428.2879],
		[3210,428.8511],
		[3211,428.9516],
		[3212,428.9516],
		[3213,428.9516],
		[3214,428.9516],
		[3215,429.685],
		[3216,429.9012],
		[3217,429.9012],
		[3218,429.9012],
		[3219,429.9012],
		[3220,429.9012],
		[3221,430.595],
		[3222,430.595],
		[3223,430.595],
		[3224,430.6489],
		[3225,430.6489],
		[3226,431.5409],
		[3227,431.5409],
		[3228,431.5409],
		[3229,431.5409],
		[3230,431.6478],
		[3231,431.6478],
		[3232,432.0911],
		[3233,432.1738],
		[3234,432.3493],
		[3235,432.4197],
		[3236,432.4197],
		[3237,432.4326],
		[3238,432.8416],
		[3239,433.002],
		[3240,433.002],
		[3241,433.076],
		[3242,433.1119],
		[3243,433.7407],
		[3244,434.111],
		[3245,434.111],
		[3246,434.111],
		[3247,434.111],
		[3248,434.111],
		[3249,435.2372],
		[3250,435.2372],
		[3251,435.2372],
		[3252,435.2372],
		[3253,435.2372],
		[3254,435.2899],
		[3255,435.641],
		[3256,435.7359],
		[3257,435.8078],
		[3258,436.0198],
		[3259,436.0198],
		[3260,436.5319],
		[3261,436.6768],
		[3262,436.6768],
		[3263,436.9632],
		[3264,437.0847],
		[3265,437.0847],
		[3266,437.6984],
		[3267,437.9018],
		[3268,437.9018],
		[3269,437.9018],
		[3270,437.9018],
		[3271,437.9018],
		[3272,438.2271],
		[3273,438.2978],
		[3274,438.3159],
		[3275,438.5447],
		[3276,438.5447],
		[3277,439.0003],
		[3278,439.2744],
		[3279,439.2744],
		[3280,439.2744],
		[3281,439.2744],
		[3282,439.4338],
		[3283,440.1316],
		[3284,440.189],
		[3285,440.2411],
		[3286,440.4681],
		[3287,440.4681],
		[3288,440.4878],
		[3289,441.1115],
		[3290,441.6215],
		[3291,441.6215],
		[3292,441.6215],
		[3293,441.6215],
		[3294,442.2436],
		[3295,442.2436],
		[3296,442.4796],
		[3297,442.5539],
		[3298,442.5539],
		[3299,442.5539],
		[3300,442.9785],
		[3301,443.0222],
		[3302,443.0785],
		[3303,443.0785],
		[3304,443.0785],
		[3305,443.0785],
		[3306,443.7015],
		[3307,444.0164],
		[3308,444.0164],
		[3309,444.0529],
		[3310,444.0529],
		[3311,444.8993],
		[3312,444.8993],
		[3313,444.9507],
		[3314,444.9507],
		[3315,444.9824],
		[3316,445.0077],
		[3317,445.8447],
		[3318,445.8447],
		[3319,446.1252],
		[3320,446.1611],
		[3321,446.2704],
		[3322,446.2704],
		[3323,446.8093],
		[3324,446.8093],
		[3325,446.8093],
		[3326,446.9195],
		[3327,446.9195],
		[3328,447.6977],
		[3329,447.6977],
		[3330,447.8808],
		[3331,447.9353],
		[3332,447.9353],
		[3333,447.9574],
		[3334,448.662],
		[3335,448.7925],
		[3336,448.7925],
		[3337,448.9218],
		[3338,448.9218],
		[3339,448.9746],
		[3340,449.6298],
		[3341,449.8813],
		[3342,449.8813],
		[3343,449.8813],
		[3344,449.8813],
		[3345,450.1119],
		[3346,450.4679],
		[3347,450.4679],
		[3348,450.7994],
		[3349,450.7994],
		[3350,450.7994],
		[3351,451.5934],
		[3352,451.5934],
		[3353,451.7351],
		[3354,451.7351],
		[3355,451.9461],
		[3356,452.0138],
		[3357,452.5953],
		[3358,452.6346],
		[3359,452.6773],
		[3360,452.6832],
		[3361,452.6832],
		[3362,453.3236],
		[3363,453.3236],
		[3364,453.3236],
		[3365,453.4752],
		[3366,453.5416],
		[3367,453.5416],
		[3368,454.6371],
		[3369,454.6371],
		[3370,454.6371],
		[3371,454.6371],
		[3372,454.6371],
		[3373,454.6371],
		[3374,454.7737],
		[3375,454.9872],
		[3376,455.2329],
		[3377,455.3257],
		[3378,455.3257],
		[3379,455.7219],
		[3380,456.1312],
		[3381,456.5395],
		[3382,456.5395],
		[3383,456.5395],
		[3384,456.5395],
		[3385,456.751],
		[3386,456.8588],
		[3387,457.0816],
		[3388,457.0816],
		[3389,457.2322],
		[3390,457.2322],
		[3391,457.9702],
		[3392,457.9702],
		[3393,457.9702],
		[3394,457.9702],
		[3395,457.9702],
		[3396,458.7296],
		[3397,458.7296],
		[3398,458.7296],
		[3399,458.781],
		[3400,458.9364],
		[3401,458.9364],
		[3402,459.5777],
		[3403,459.5777],
		[3404,459.6034],
		[3405,459.6034],
		[3406,459.7173],
		[3407,459.7173],
		[3408,460.1913],
		[3409,460.4776],
		[3410,460.4776],
		[3411,460.4776],
		[3412,460.4776],
		[3413,460.8556],
		[3414,460.8827],
		[3415,460.8976],
		[3416,461.2673],
		[3417,461.2673],
		[3418,461.281],
		[3419,461.8395],
		[3420,461.8395],
		[3421,461.9825],
		[3422,461.9825],
		[3423,462.0404],
		[3424,462.253],
		[3425,462.8443],
		[3426,462.8443],
		[3427,463.1152],
		[3428,463.1152],
		[3429,463.1152],
		[3430,464.0127],
		[3431,464.0127],
		[3432,464.0127],
		[3433,464.0127],
		[3434,464.0127],
		[3435,464.0127],
		[3436,464.8042],
		[3437,464.8042],
		[3438,465.483],
		[3439,465.483],
		[3440,465.483],
		[3441,465.483],
		[3442,465.7579],
		[3443,465.8618],
		[3444,466.067],
		[3445,466.067],
		[3446,466.1147],
		[3447,466.5756],
		[3448,466.9983],
		[3449,466.9983],
		[3450,466.9983],
		[3451,466.9983],
		[3452,466.9983],
		[3453,467.6013],
		[3454,468.0183],
		[3455,468.0183],
		[3456,468.0183],
		[3457,468.0183],
		[3458,468.0183],
		[3459,468.6255],
		[3460,468.6255],
		[3461,469.2253],
		[3462,469.2253],
		[3463,469.2253],
		[3464,469.5724],
		[3465,469.5724],
		[3466,469.5724],
		[3467,469.7835],
		[3468,469.7835],
		[3469,469.7835],
		[3470,470.2674],
		[3471,470.2951],
		[3472,470.3979],
		[3473,470.4421],
		[3474,470.4753],
		[3475,470.5769],
		[3476,471.3348],
		[3477,471.5689],
		[3478,471.5689],
		[3479,471.7537],
		[3480,471.7537],
		[3481,472.2611],
		[3482,472.4136],
		[3483,472.4492],
		[3484,472.5572],
		[3485,472.5572],
		[3486,473.0722],
		[3487,473.2164],
		[3488,473.2424],
		[3489,473.2424],
		[3490,473.3492],
		[3491,473.5055],
		[3492,473.6511],
		[3493,474.0881],
		[3494,474.1591],
		[3495,474.1591],
		[3496,474.7074],
		[3497,474.7074],
		[3498,475.1244],
		[3499,475.1244],
		[3500,475.1244],
		[3501,475.3699],
		[3502,475.5163],
		[3503,475.5163],
		[3504,476.1824],
		[3505,476.4625],
		[3506,476.4625],
		[3507,476.4778],
		[3508,476.5778],
		[3509,476.5778],
		[3510,477.3655],
		[3511,477.3655],
		[3512,477.3655],
		[3513,477.3655],
		[3514,477.3655],
		[3515,479.9772]
	]
}
