{
	"minBrightnessLevel": [5,19,46,67],
	"AlgoMapLcmBrLevel": {
		"sectionone": [0.1266666667,4.873333333],
		"sectiontwo": [0.1133333333,6.886666667],
		"sectionthree": [0.1266666667,2.873333333],
		"sectionfour": [0.124,4.876],
		"sectionfive": [0.126,1.874],
		"sectionsix": [0.02,319.98],
		"sectionseven": [0.02888888889,287.9711111],
		"sectioneight": [3.208333333,-14022.70833],
		"sectionnight": [0.8369565217,-3292.228261],
		"sectionten": [0.7306791569,-2781.990632],
		"sectioneleven": [0.4970662196,-1460.909472],
		"sectiontwelve": [0.3719563392,-604.1570109],
		"sectionthirteen": [0.2096708655,700.4559122],
		"sectionfourteen": [0.1270729706,1567.733809],
		"sectionkeypoint": [151,301,751,1501,3001,3601,4501,4525,4801,5655,6848,8039,10500]
	},
	"LcmMapAlgoBrLevel": [
		[1,1],
		[2,1],
		[3,1],
		[4,1],
		[5,1],
		[6,12],
		[7,20],
		[8,28],
		[9,36],
		[10,44],
		[11,52],
		[12,60],
		[13,68],
		[14,76],
		[15,83],
		[16,91],
		[17,99],
		[18,107],
		[19,115],
		[20,123],
		[21,131],
		[22,139],
		[23,147],
		[24,155],
		[25,164],
		[26,173],
		[27,182],
		[28,191],
		[29,199],
		[30,208],
		[31,217],
		[32,226],
		[33,235],
		[34,244],
		[35,252],
		[36,261],
		[37,270],
		[38,279],
		[39,288],
		[40,296],
		[41,304],
		[42,312],
		[43,320],
		[44,328],
		[45,336],
		[46,344],
		[47,352],
		[48,360],
		[49,368],
		[50,376],
		[51,383],
		[52,391],
		[53,399],
		[54,407],
		[55,415],
		[56,423],
		[57,431],
		[58,439],
		[59,447],
		[60,454],
		[61,462],
		[62,470],
		[63,478],
		[64,486],
		[65,494],
		[66,502],
		[67,510],
		[68,518],
		[69,526],
		[70,533],
		[71,541],
		[72,549],
		[73,557],
		[74,565],
		[75,573],
		[76,581],
		[77,589],
		[78,597],
		[79,604],
		[80,612],
		[81,620],
		[82,628],
		[83,636],
		[84,644],
		[85,652],
		[86,660],
		[87,668],
		[88,676],
		[89,683],
		[90,691],
		[91,699],
		[92,707],
		[93,715],
		[94,723],
		[95,731],
		[96,739],
		[97,747],
		[98,755],
		[99,763],
		[100,771],
		[101,779],
		[102,787],
		[103,795],
		[104,803],
		[105,811],
		[106,819],
		[107,827],
		[108,835],
		[109,843],
		[110,851],
		[111,859],
		[112,867],
		[113,876],
		[114,884],
		[115,892],
		[116,900],
		[117,908],
		[118,916],
		[119,924],
		[120,932],
		[121,940],
		[122,948],
		[123,956],
		[124,964],
		[125,972],
		[126,980],
		[127,988],
		[128,997],
		[129,1005],
		[130,1013],
		[131,1021],
		[132,1029],
		[133,1037],
		[134,1045],
		[135,1053],
		[136,1061],
		[137,1069],
		[138,1077],
		[139,1085],
		[140,1093],
		[141,1101],
		[142,1109],
		[143,1117],
		[144,1126],
		[145,1134],
		[146,1142],
		[147,1150],
		[148,1158],
		[149,1166],
		[150,1174],
		[151,1182],
		[152,1190],
		[153,1198],
		[154,1206],
		[155,1214],
		[156,1222],
		[157,1230],
		[158,1238],
		[159,1247],
		[160,1255],
		[161,1263],
		[162,1271],
		[163,1279],
		[164,1287],
		[165,1295],
		[166,1303],
		[167,1311],
		[168,1319],
		[169,1327],
		[170,1335],
		[171,1343],
		[172,1351],
		[173,1359],
		[174,1367],
		[175,1376],
		[176,1384],
		[177,1392],
		[178,1400],
		[179,1408],
		[180,1416],
		[181,1424],
		[182,1432],
		[183,1440],
		[184,1448],
		[185,1456],
		[186,1464],
		[187,1472],
		[188,1480],
		[189,1488],
		[190,1496],
		[191,1504],
		[192,1512],
		[193,1520],
		[194,1528],
		[195,1536],
		[196,1544],
		[197,1552],
		[198,1560],
		[199,1568],
		[200,1576],
		[201,1584],
		[202,1592],
		[203,1600],
		[204,1608],
		[205,1616],
		[206,1624],
		[207,1631],
		[208,1639],
		[209,1647],
		[210,1655],
		[211,1663],
		[212,1671],
		[213,1679],
		[214,1687],
		[215,1695],
		[216,1703],
		[217,1711],
		[218,1719],
		[219,1727],
		[220,1735],
		[221,1743],
		[222,1751],
		[223,1758],
		[224,1766],
		[225,1774],
		[226,1782],
		[227,1790],
		[228,1798],
		[229,1806],
		[230,1814],
		[231,1822],
		[232,1830],
		[233,1838],
		[234,1846],
		[235,1854],
		[236,1862],
		[237,1870],
		[238,1878],
		[239,1885],
		[240,1893],
		[241,1901],
		[242,1909],
		[243,1917],
		[244,1925],
		[245,1933],
		[246,1941],
		[247,1949],
		[248,1957],
		[249,1965],
		[250,1973],
		[251,1981],
		[252,1989],
		[253,1997],
		[254,2004],
		[255,2012],
		[256,2020],
		[257,2028],
		[258,2036],
		[259,2044],
		[260,2052],
		[261,2060],
		[262,2068],
		[263,2076],
		[264,2084],
		[265,2092],
		[266,2100],
		[267,2108],
		[268,2116],
		[269,2124],
		[270,2131],
		[271,2139],
		[272,2147],
		[273,2155],
		[274,2163],
		[275,2171],
		[276,2179],
		[277,2187],
		[278,2195],
		[279,2203],
		[280,2211],
		[281,2219],
		[282,2227],
		[283,2235],
		[284,2243],
		[285,2251],
		[286,2258],
		[287,2266],
		[288,2274],
		[289,2282],
		[290,2290],
		[291,2298],
		[292,2306],
		[293,2314],
		[294,2322],
		[295,2330],
		[296,2338],
		[297,2346],
		[298,2354],
		[299,2362],
		[300,2370],
		[301,2378],
		[302,2385],
		[303,2393],
		[304,2401],
		[305,2409],
		[306,2417],
		[307,2425],
		[308,2433],
		[309,2441],
		[310,2449],
		[311,2457],
		[312,2465],
		[313,2473],
		[314,2481],
		[315,2489],
		[316,2497],
		[317,2504],
		[318,2512],
		[319,2520],
		[320,2528],
		[321,2536],
		[322,2544],
		[323,2552],
		[324,2560],
		[325,2568],
		[326,2576],
		[327,2584],
		[328,2592],
		[329,2600],
		[330,2608],
		[331,2616],
		[332,2624],
		[333,2631],
		[334,2639],
		[335,2647],
		[336,2655],
		[337,2663],
		[338,2671],
		[339,2679],
		[340,2687],
		[341,2695],
		[342,2703],
		[343,2711],
		[344,2719],
		[345,2727],
		[346,2735],
		[347,2743],
		[348,2751],
		[349,2758],
		[350,2766],
		[351,2774],
		[352,2782],
		[353,2790],
		[354,2798],
		[355,2806],
		[356,2814],
		[357,2822],
		[358,2830],
		[359,2838],
		[360,2846],
		[361,2854],
		[362,2862],
		[363,2870],
		[364,2878],
		[365,2885],
		[366,2893],
		[367,2901],
		[368,2909],
		[369,2917],
		[370,2925],
		[371,2933],
		[372,2941],
		[373,2949],
		[374,2957],
		[375,2965],
		[376,2973],
		[377,2981],
		[378,2989],
		[379,2997],
		[380,3026],
		[381,3076],
		[382,3126],
		[383,3176],
		[384,3226],
		[385,3276],
		[386,3326],
		[387,3375],
		[388,3425],
		[389,3475],
		[390,3525],
		[391,3575],
		[392,3618],
		[393,3653],
		[394,3687],
		[395,3722],
		[396,3757],
		[397,3791],
		[398,3826],
		[399,3860],
		[400,3895],
		[401,3930],
		[402,3964],
		[403,3999],
		[404,4033],
		[405,4068],
		[406,4103],
		[407,4137],
		[408,4172],
		[409,4207],
		[410,4241],
		[411,4276],
		[412,4310],
		[413,4345],
		[414,4380],
		[415,4414],
		[416,4449],
		[417,4484],
		[418,4489],
		[418,4489],
		[418,4489],
		[421,4502],
		[422,4502],
		[422,4502],
		[424,4503],
		[425,4503],
		[425,4503],
		[427,4504],
		[428,4504],
		[428,4504],
		[430,4505],
		[431,4505],
		[431,4505],
		[431,4505],
		[434,4506],
		[435,4506],
		[435,4506],
		[437,4507],
		[438,4507],
		[438,4507],
		[440,4508],
		[441,4508],
		[441,4508],
		[443,4509],
		[444,4509],
		[444,4509],
		[446,4510],
		[447,4510],
		[447,4510],
		[447,4510],
		[450,4511],
		[451,4511],
		[451,4511],
		[453,4512],
		[454,4512],
		[454,4512],
		[456,4513],
		[457,4513],
		[457,4513],
		[459,4514],
		[460,4514],
		[460,4514],
		[462,4515],
		[463,4515],
		[463,4515],
		[463,4515],
		[466,4516],
		[467,4516],
		[467,4516],
		[469,4517],
		[470,4517],
		[470,4517],
		[472,4518],
		[473,4518],
		[473,4518],
		[475,4519],
		[476,4519],
		[476,4519],
		[478,4520],
		[479,4520],
		[479,4520],
		[479,4520],
		[482,4521],
		[483,4521],
		[483,4521],
		[485,4522],
		[486,4522],
		[486,4522],
		[488,4523],
		[489,4523],
		[489,4523],
		[491,4524],
		[492,4524],
		[492,4524],
		[492,4524],
		[495,4525],
		[496,4527],
		[497,4528],
		[498,4529],
		[499,4530],
		[500,4531],
		[501,4533],
		[502,4534],
		[503,4535],
		[504,4536],
		[505,4537],
		[506,4539],
		[507,4540],
		[508,4541],
		[509,4542],
		[510,4543],
		[511,4545],
		[512,4546],
		[513,4547],
		[514,4548],
		[515,4549],
		[516,4551],
		[517,4552],
		[518,4553],
		[519,4554],
		[520,4555],
		[521,4557],
		[522,4558],
		[523,4559],
		[524,4560],
		[525,4561],
		[526,4563],
		[527,4564],
		[528,4565],
		[529,4566],
		[530,4567],
		[531,4569],
		[532,4570],
		[533,4571],
		[534,4572],
		[535,4573],
		[536,4574],
		[537,4576],
		[538,4577],
		[539,4578],
		[540,4579],
		[541,4580],
		[542,4582],
		[543,4583],
		[544,4584],
		[545,4585],
		[546,4586],
		[547,4588],
		[548,4589],
		[549,4590],
		[550,4591],
		[551,4592],
		[552,4594],
		[553,4595],
		[554,4596],
		[555,4597],
		[556,4598],
		[557,4600],
		[558,4601],
		[559,4602],
		[560,4603],
		[561,4604],
		[562,4606],
		[563,4607],
		[564,4608],
		[565,4609],
		[566,4610],
		[567,4612],
		[568,4613],
		[569,4614],
		[570,4615],
		[571,4616],
		[572,4617],
		[573,4619],
		[574,4620],
		[575,4621],
		[576,4622],
		[577,4623],
		[578,4625],
		[579,4626],
		[580,4627],
		[581,4628],
		[582,4629],
		[583,4631],
		[584,4632],
		[585,4633],
		[586,4634],
		[587,4635],
		[588,4637],
		[589,4638],
		[590,4639],
		[591,4640],
		[592,4641],
		[593,4643],
		[594,4644],
		[595,4645],
		[596,4646],
		[597,4647],
		[598,4649],
		[599,4650],
		[600,4651],
		[601,4652],
		[602,4653],
		[603,4655],
		[604,4656],
		[605,4657],
		[606,4658],
		[607,4659],
		[608,4661],
		[609,4662],
		[610,4663],
		[611,4664],
		[612,4665],
		[613,4666],
		[614,4668],
		[615,4669],
		[616,4670],
		[617,4671],
		[618,4672],
		[619,4674],
		[620,4675],
		[621,4676],
		[622,4677],
		[623,4678],
		[624,4680],
		[625,4681],
		[626,4682],
		[627,4683],
		[628,4684],
		[629,4686],
		[630,4687],
		[631,4688],
		[632,4689],
		[633,4690],
		[634,4692],
		[635,4693],
		[636,4694],
		[637,4695],
		[638,4696],
		[639,4698],
		[640,4699],
		[641,4700],
		[642,4701],
		[643,4702],
		[644,4704],
		[645,4705],
		[646,4706],
		[647,4707],
		[648,4708],
		[649,4709],
		[650,4711],
		[651,4712],
		[652,4713],
		[653,4714],
		[654,4715],
		[655,4717],
		[656,4718],
		[657,4719],
		[658,4720],
		[659,4721],
		[660,4723],
		[661,4724],
		[662,4725],
		[663,4726],
		[664,4727],
		[665,4729],
		[666,4730],
		[667,4731],
		[668,4732],
		[669,4733],
		[670,4735],
		[671,4736],
		[672,4737],
		[673,4738],
		[674,4739],
		[675,4741],
		[676,4742],
		[677,4743],
		[678,4744],
		[679,4745],
		[680,4747],
		[681,4748],
		[682,4749],
		[683,4750],
		[684,4751],
		[685,4753],
		[686,4754],
		[687,4755],
		[688,4756],
		[689,4757],
		[690,4758],
		[691,4760],
		[692,4761],
		[693,4762],
		[694,4763],
		[695,4764],
		[696,4766],
		[697,4767],
		[698,4768],
		[699,4769],
		[700,4770],
		[701,4772],
		[702,4773],
		[703,4774],
		[704,4775],
		[705,4776],
		[706,4778],
		[707,4779],
		[708,4780],
		[709,4781],
		[710,4782],
		[711,4784],
		[712,4785],
		[713,4786],
		[714,4787],
		[715,4788],
		[716,4790],
		[717,4791],
		[718,4792],
		[719,4793],
		[720,4794],
		[721,4796],
		[722,4797],
		[723,4798],
		[724,4799],
		[725,4800],
		[726,4802],
		[727,4803],
		[728,4804],
		[729,4806],
		[730,4807],
		[731,4808],
		[732,4810],
		[733,4811],
		[734,4812],
		[735,4814],
		[736,4815],
		[737,4817],
		[738,4818],
		[739,4819],
		[740,4821],
		[741,4822],
		[742,4823],
		[743,4825],
		[744,4826],
		[745,4828],
		[746,4829],
		[747,4830],
		[748,4832],
		[749,4833],
		[750,4834],
		[751,4836],
		[752,4837],
		[753,4838],
		[754,4840],
		[755,4841],
		[756,4843],
		[757,4844],
		[758,4845],
		[759,4847],
		[760,4848],
		[761,4849],
		[762,4851],
		[763,4852],
		[764,4854],
		[765,4855],
		[766,4856],
		[767,4858],
		[768,4859],
		[769,4860],
		[770,4862],
		[771,4863],
		[772,4864],
		[773,4866],
		[774,4867],
		[775,4869],
		[776,4870],
		[777,4871],
		[778,4873],
		[779,4874],
		[780,4875],
		[781,4877],
		[782,4878],
		[783,4880],
		[784,4881],
		[785,4882],
		[786,4884],
		[787,4885],
		[788,4886],
		[789,4888],
		[790,4889],
		[791,4890],
		[792,4892],
		[793,4893],
		[794,4895],
		[795,4896],
		[796,4897],
		[797,4899],
		[798,4900],
		[799,4901],
		[800,4903],
		[801,4904],
		[802,4906],
		[803,4907],
		[804,4908],
		[805,4910],
		[806,4911],
		[807,4912],
		[808,4914],
		[809,4915],
		[810,4916],
		[811,4918],
		[812,4919],
		[813,4921],
		[814,4922],
		[815,4923],
		[816,4925],
		[817,4926],
		[818,4927],
		[819,4929],
		[820,4930],
		[821,4932],
		[822,4933],
		[823,4934],
		[824,4936],
		[825,4937],
		[826,4938],
		[827,4940],
		[828,4941],
		[829,4942],
		[830,4944],
		[831,4945],
		[832,4947],
		[833,4948],
		[834,4949],
		[835,4951],
		[836,4952],
		[837,4953],
		[838,4955],
		[839,4956],
		[840,4958],
		[841,4959],
		[842,4960],
		[843,4962],
		[844,4963],
		[845,4964],
		[846,4966],
		[847,4967],
		[848,4968],
		[849,4970],
		[850,4971],
		[851,4973],
		[852,4974],
		[853,4975],
		[854,4977],
		[855,4978],
		[856,4979],
		[857,4981],
		[858,4982],
		[859,4984],
		[860,4985],
		[861,4986],
		[862,4988],
		[863,4989],
		[864,4990],
		[865,4992],
		[866,4993],
		[867,4994],
		[868,4996],
		[869,4997],
		[870,4999],
		[871,5000],
		[872,5001],
		[873,5003],
		[874,5004],
		[875,5005],
		[876,5007],
		[877,5008],
		[878,5010],
		[879,5011],
		[880,5012],
		[881,5014],
		[882,5015],
		[883,5016],
		[884,5018],
		[885,5019],
		[886,5020],
		[887,5022],
		[888,5023],
		[889,5025],
		[890,5026],
		[891,5027],
		[892,5029],
		[893,5030],
		[894,5031],
		[895,5033],
		[896,5034],
		[897,5036],
		[898,5037],
		[899,5038],
		[900,5040],
		[901,5041],
		[902,5042],
		[903,5044],
		[904,5045],
		[905,5046],
		[906,5048],
		[907,5049],
		[908,5051],
		[909,5052],
		[910,5053],
		[911,5055],
		[912,5056],
		[913,5057],
		[914,5059],
		[915,5060],
		[916,5062],
		[917,5063],
		[918,5064],
		[919,5066],
		[920,5067],
		[921,5068],
		[922,5070],
		[923,5071],
		[924,5072],
		[925,5074],
		[926,5075],
		[927,5077],
		[928,5078],
		[929,5079],
		[930,5081],
		[931,5082],
		[932,5083],
		[933,5085],
		[934,5086],
		[935,5088],
		[936,5089],
		[937,5090],
		[938,5092],
		[939,5093],
		[940,5094],
		[941,5096],
		[942,5097],
		[943,5098],
		[944,5100],
		[945,5101],
		[946,5103],
		[947,5104],
		[948,5105],
		[949,5107],
		[950,5108],
		[951,5109],
		[952,5111],
		[953,5112],
		[954,5114],
		[955,5115],
		[956,5116],
		[957,5118],
		[958,5119],
		[959,5120],
		[960,5122],
		[961,5123],
		[962,5124],
		[963,5126],
		[964,5127],
		[965,5129],
		[966,5130],
		[967,5131],
		[968,5133],
		[969,5134],
		[970,5135],
		[971,5137],
		[972,5138],
		[973,5140],
		[974,5141],
		[975,5142],
		[976,5144],
		[977,5145],
		[978,5146],
		[979,5148],
		[980,5149],
		[981,5150],
		[982,5152],
		[983,5153],
		[984,5155],
		[985,5156],
		[986,5157],
		[987,5159],
		[988,5160],
		[989,5161],
		[990,5163],
		[991,5164],
		[992,5166],
		[993,5167],
		[994,5168],
		[995,5170],
		[996,5171],
		[997,5172],
		[998,5174],
		[999,5175],
		[1000,5176],
		[1001,5178],
		[1002,5179],
		[1003,5181],
		[1004,5182],
		[1005,5183],
		[1006,5185],
		[1007,5186],
		[1008,5187],
		[1009,5189],
		[1010,5190],
		[1011,5192],
		[1012,5193],
		[1013,5194],
		[1014,5196],
		[1015,5197],
		[1016,5198],
		[1017,5200],
		[1018,5201],
		[1019,5202],
		[1020,5204],
		[1021,5205],
		[1022,5207],
		[1023,5208],
		[1024,5209],
		[1025,5211],
		[1026,5212],
		[1027,5213],
		[1028,5215],
		[1029,5216],
		[1030,5218],
		[1031,5219],
		[1032,5220],
		[1033,5222],
		[1034,5223],
		[1035,5224],
		[1036,5226],
		[1037,5227],
		[1038,5228],
		[1039,5230],
		[1040,5231],
		[1041,5233],
		[1042,5234],
		[1043,5235],
		[1044,5237],
		[1045,5238],
		[1046,5239],
		[1047,5241],
		[1048,5242],
		[1049,5244],
		[1050,5245],
		[1051,5246],
		[1052,5248],
		[1053,5249],
		[1054,5250],
		[1055,5252],
		[1056,5253],
		[1057,5255],
		[1058,5256],
		[1059,5257],
		[1060,5259],
		[1061,5260],
		[1062,5261],
		[1063,5263],
		[1064,5264],
		[1065,5265],
		[1066,5267],
		[1067,5268],
		[1068,5270],
		[1069,5271],
		[1070,5272],
		[1071,5274],
		[1072,5275],
		[1073,5276],
		[1074,5278],
		[1075,5279],
		[1076,5281],
		[1077,5282],
		[1078,5283],
		[1079,5285],
		[1080,5286],
		[1081,5287],
		[1082,5289],
		[1083,5290],
		[1084,5291],
		[1085,5293],
		[1086,5294],
		[1087,5296],
		[1088,5297],
		[1089,5298],
		[1090,5300],
		[1091,5301],
		[1092,5302],
		[1093,5304],
		[1094,5305],
		[1095,5307],
		[1096,5308],
		[1097,5309],
		[1098,5311],
		[1099,5312],
		[1100,5313],
		[1101,5315],
		[1102,5316],
		[1103,5317],
		[1104,5319],
		[1105,5320],
		[1106,5322],
		[1107,5323],
		[1108,5324],
		[1109,5326],
		[1110,5327],
		[1111,5328],
		[1112,5330],
		[1113,5331],
		[1114,5333],
		[1115,5334],
		[1116,5335],
		[1117,5337],
		[1118,5338],
		[1119,5339],
		[1120,5341],
		[1121,5342],
		[1122,5343],
		[1123,5345],
		[1124,5346],
		[1125,5348],
		[1126,5349],
		[1127,5350],
		[1128,5352],
		[1129,5353],
		[1130,5354],
		[1131,5356],
		[1132,5357],
		[1133,5359],
		[1134,5360],
		[1135,5361],
		[1136,5363],
		[1137,5364],
		[1138,5365],
		[1139,5367],
		[1140,5368],
		[1141,5369],
		[1142,5371],
		[1143,5372],
		[1144,5374],
		[1145,5375],
		[1146,5376],
		[1147,5378],
		[1148,5379],
		[1149,5380],
		[1150,5382],
		[1151,5383],
		[1152,5385],
		[1153,5386],
		[1154,5387],
		[1155,5389],
		[1156,5390],
		[1157,5391],
		[1158,5393],
		[1159,5394],
		[1160,5395],
		[1161,5397],
		[1162,5398],
		[1163,5400],
		[1164,5401],
		[1165,5402],
		[1166,5404],
		[1167,5405],
		[1168,5406],
		[1169,5408],
		[1170,5409],
		[1171,5411],
		[1172,5412],
		[1173,5413],
		[1174,5415],
		[1175,5416],
		[1176,5417],
		[1177,5419],
		[1178,5420],
		[1179,5421],
		[1180,5423],
		[1181,5424],
		[1182,5426],
		[1183,5427],
		[1184,5428],
		[1185,5430],
		[1186,5431],
		[1187,5432],
		[1188,5434],
		[1189,5435],
		[1190,5437],
		[1191,5438],
		[1192,5439],
		[1193,5441],
		[1194,5442],
		[1195,5443],
		[1196,5445],
		[1197,5446],
		[1198,5447],
		[1199,5449],
		[1200,5450],
		[1201,5452],
		[1202,5453],
		[1203,5454],
		[1204,5456],
		[1205,5457],
		[1206,5458],
		[1207,5460],
		[1208,5461],
		[1209,5463],
		[1210,5464],
		[1211,5465],
		[1212,5467],
		[1213,5468],
		[1214,5469],
		[1215,5471],
		[1216,5472],
		[1217,5473],
		[1218,5475],
		[1219,5476],
		[1220,5478],
		[1221,5479],
		[1222,5480],
		[1223,5482],
		[1224,5483],
		[1225,5484],
		[1226,5486],
		[1227,5487],
		[1228,5489],
		[1229,5490],
		[1230,5491],
		[1231,5493],
		[1232,5494],
		[1233,5495],
		[1234,5497],
		[1235,5498],
		[1236,5499],
		[1237,5501],
		[1238,5502],
		[1239,5504],
		[1240,5505],
		[1241,5506],
		[1242,5508],
		[1243,5509],
		[1244,5510],
		[1245,5512],
		[1246,5513],
		[1247,5515],
		[1248,5516],
		[1249,5517],
		[1250,5519],
		[1251,5520],
		[1252,5521],
		[1253,5523],
		[1254,5524],
		[1255,5525],
		[1256,5527],
		[1257,5528],
		[1258,5530],
		[1259,5531],
		[1260,5532],
		[1261,5534],
		[1262,5535],
		[1263,5536],
		[1264,5538],
		[1265,5539],
		[1266,5541],
		[1267,5542],
		[1268,5543],
		[1269,5545],
		[1270,5546],
		[1271,5547],
		[1272,5549],
		[1273,5550],
		[1274,5551],
		[1275,5553],
		[1276,5554],
		[1277,5556],
		[1278,5557],
		[1279,5558],
		[1280,5560],
		[1281,5561],
		[1282,5562],
		[1283,5564],
		[1284,5565],
		[1285,5567],
		[1286,5568],
		[1287,5569],
		[1288,5571],
		[1289,5572],
		[1290,5573],
		[1291,5575],
		[1292,5576],
		[1293,5577],
		[1294,5579],
		[1295,5580],
		[1296,5582],
		[1297,5583],
		[1298,5584],
		[1299,5586],
		[1300,5587],
		[1301,5588],
		[1302,5590],
		[1303,5591],
		[1304,5593],
		[1305,5594],
		[1306,5595],
		[1307,5597],
		[1308,5598],
		[1309,5599],
		[1310,5601],
		[1311,5602],
		[1312,5603],
		[1313,5605],
		[1314,5606],
		[1315,5608],
		[1316,5609],
		[1317,5610],
		[1318,5612],
		[1319,5613],
		[1320,5614],
		[1321,5616],
		[1322,5617],
		[1323,5619],
		[1324,5620],
		[1325,5621],
		[1326,5623],
		[1327,5624],
		[1328,5625],
		[1329,5627],
		[1330,5628],
		[1331,5629],
		[1332,5631],
		[1333,5632],
		[1334,5634],
		[1335,5635],
		[1336,5636],
		[1337,5638],
		[1338,5639],
		[1339,5640],
		[1340,5642],
		[1341,5643],
		[1342,5645],
		[1343,5646],
		[1344,5647],
		[1345,5649],
		[1346,5650],
		[1347,5651],
		[1348,5653],
		[1349,5654],
		[1350,5656],
		[1351,5658],
		[1352,5660],
		[1353,5662],
		[1354,5664],
		[1355,5666],
		[1356,5668],
		[1357,5670],
		[1358,5672],
		[1359,5674],
		[1360,5676],
		[1361,5678],
		[1362,5680],
		[1363,5682],
		[1364,5684],
		[1365,5686],
		[1366,5688],
		[1367,5690],
		[1368,5692],
		[1369,5694],
		[1370,5696],
		[1371,5698],
		[1372,5700],
		[1373,5702],
		[1374,5704],
		[1375,5706],
		[1376,5708],
		[1377,5710],
		[1378,5712],
		[1379,5714],
		[1380,5716],
		[1381,5718],
		[1382,5720],
		[1383,5722],
		[1384,5724],
		[1385,5726],
		[1386,5728],
		[1387,5730],
		[1388,5732],
		[1389,5734],
		[1390,5736],
		[1391,5738],
		[1392,5740],
		[1393,5742],
		[1394,5744],
		[1395,5746],
		[1396,5748],
		[1397,5750],
		[1398,5752],
		[1399,5754],
		[1400,5756],
		[1401,5758],
		[1402,5760],
		[1403,5762],
		[1404,5764],
		[1405,5766],
		[1406,5768],
		[1407,5770],
		[1408,5772],
		[1409,5774],
		[1410,5776],
		[1411,5778],
		[1412,5780],
		[1413,5782],
		[1414,5784],
		[1415,5786],
		[1416,5788],
		[1417,5790],
		[1418,5792],
		[1419,5794],
		[1420,5796],
		[1421,5798],
		[1422,5800],
		[1423,5802],
		[1424,5804],
		[1425,5806],
		[1426,5808],
		[1427,5810],
		[1428,5812],
		[1429,5814],
		[1430,5816],
		[1431,5818],
		[1432,5820],
		[1433,5822],
		[1434,5825],
		[1435,5827],
		[1436,5829],
		[1437,5831],
		[1438,5833],
		[1439,5835],
		[1440,5837],
		[1441,5839],
		[1442,5841],
		[1443,5843],
		[1444,5845],
		[1445,5847],
		[1446,5849],
		[1447,5851],
		[1448,5853],
		[1449,5855],
		[1450,5857],
		[1451,5859],
		[1452,5861],
		[1453,5863],
		[1454,5865],
		[1455,5867],
		[1456,5869],
		[1457,5871],
		[1458,5873],
		[1459,5875],
		[1460,5877],
		[1461,5879],
		[1462,5881],
		[1463,5883],
		[1464,5885],
		[1465,5887],
		[1466,5889],
		[1467,5891],
		[1468,5893],
		[1469,5895],
		[1470,5897],
		[1471,5899],
		[1472,5901],
		[1473,5903],
		[1474,5905],
		[1475,5907],
		[1476,5909],
		[1477,5911],
		[1478,5913],
		[1479,5915],
		[1480,5917],
		[1481,5919],
		[1482,5921],
		[1483,5923],
		[1484,5925],
		[1485,5927],
		[1486,5929],
		[1487,5931],
		[1488,5933],
		[1489,5935],
		[1490,5937],
		[1491,5939],
		[1492,5941],
		[1493,5943],
		[1494,5945],
		[1495,5947],
		[1496,5949],
		[1497,5951],
		[1498,5953],
		[1499,5955],
		[1500,5957],
		[1501,5959],
		[1502,5961],
		[1503,5963],
		[1504,5965],
		[1505,5967],
		[1506,5969],
		[1507,5971],
		[1508,5973],
		[1509,5975],
		[1510,5977],
		[1511,5979],
		[1512,5981],
		[1513,5983],
		[1514,5985],
		[1515,5987],
		[1516,5989],
		[1517,5991],
		[1518,5993],
		[1519,5996],
		[1520,5998],
		[1521,6000],
		[1522,6002],
		[1523,6004],
		[1524,6006],
		[1525,6008],
		[1526,6010],
		[1527,6012],
		[1528,6014],
		[1529,6016],
		[1530,6018],
		[1531,6020],
		[1532,6022],
		[1533,6024],
		[1534,6026],
		[1535,6028],
		[1536,6030],
		[1537,6032],
		[1538,6034],
		[1539,6036],
		[1540,6038],
		[1541,6040],
		[1542,6042],
		[1543,6044],
		[1544,6046],
		[1545,6048],
		[1546,6050],
		[1547,6052],
		[1548,6054],
		[1549,6056],
		[1550,6058],
		[1551,6060],
		[1552,6062],
		[1553,6064],
		[1554,6066],
		[1555,6068],
		[1556,6070],
		[1557,6072],
		[1558,6074],
		[1559,6076],
		[1560,6078],
		[1561,6080],
		[1562,6082],
		[1563,6084],
		[1564,6086],
		[1565,6088],
		[1566,6090],
		[1567,6092],
		[1568,6094],
		[1569,6096],
		[1570,6098],
		[1571,6100],
		[1572,6102],
		[1573,6104],
		[1574,6106],
		[1575,6108],
		[1576,6110],
		[1577,6112],
		[1578,6114],
		[1579,6116],
		[1580,6118],
		[1581,6120],
		[1582,6122],
		[1583,6124],
		[1584,6126],
		[1585,6128],
		[1586,6130],
		[1587,6132],
		[1588,6134],
		[1589,6136],
		[1590,6138],
		[1591,6140],
		[1592,6142],
		[1593,6144],
		[1594,6146],
		[1595,6148],
		[1596,6150],
		[1597,6152],
		[1598,6154],
		[1599,6156],
		[1600,6158],
		[1601,6160],
		[1602,6162],
		[1603,6164],
		[1604,6167],
		[1605,6169],
		[1606,6171],
		[1607,6173],
		[1608,6175],
		[1609,6177],
		[1610,6179],
		[1611,6181],
		[1612,6183],
		[1613,6185],
		[1614,6187],
		[1615,6189],
		[1616,6191],
		[1617,6193],
		[1618,6195],
		[1619,6197],
		[1620,6199],
		[1621,6201],
		[1622,6203],
		[1623,6205],
		[1624,6207],
		[1625,6209],
		[1626,6211],
		[1627,6213],
		[1628,6215],
		[1629,6217],
		[1630,6219],
		[1631,6221],
		[1632,6223],
		[1633,6225],
		[1634,6227],
		[1635,6229],
		[1636,6231],
		[1637,6233],
		[1638,6235],
		[1639,6237],
		[1640,6239],
		[1641,6241],
		[1642,6243],
		[1643,6245],
		[1644,6247],
		[1645,6249],
		[1646,6251],
		[1647,6253],
		[1648,6255],
		[1649,6257],
		[1650,6259],
		[1651,6261],
		[1652,6263],
		[1653,6265],
		[1654,6267],
		[1655,6269],
		[1656,6271],
		[1657,6273],
		[1658,6275],
		[1659,6277],
		[1660,6279],
		[1661,6281],
		[1662,6283],
		[1663,6285],
		[1664,6287],
		[1665,6289],
		[1666,6291],
		[1667,6293],
		[1668,6295],
		[1669,6297],
		[1670,6299],
		[1671,6301],
		[1672,6303],
		[1673,6305],
		[1674,6307],
		[1675,6309],
		[1676,6311],
		[1677,6313],
		[1678,6315],
		[1679,6317],
		[1680,6319],
		[1681,6321],
		[1682,6323],
		[1683,6325],
		[1684,6327],
		[1685,6329],
		[1686,6331],
		[1687,6333],
		[1688,6336],
		[1689,6338],
		[1690,6340],
		[1691,6342],
		[1692,6344],
		[1693,6346],
		[1694,6348],
		[1695,6350],
		[1696,6352],
		[1697,6354],
		[1698,6356],
		[1699,6358],
		[1700,6360],
		[1701,6362],
		[1702,6364],
		[1703,6366],
		[1704,6368],
		[1705,6370],
		[1706,6372],
		[1707,6374],
		[1708,6376],
		[1709,6378],
		[1710,6380],
		[1711,6382],
		[1712,6384],
		[1713,6386],
		[1714,6388],
		[1715,6390],
		[1716,6392],
		[1717,6394],
		[1718,6396],
		[1719,6398],
		[1720,6400],
		[1721,6402],
		[1722,6404],
		[1723,6406],
		[1724,6408],
		[1725,6410],
		[1726,6412],
		[1727,6414],
		[1728,6416],
		[1729,6418],
		[1730,6420],
		[1731,6422],
		[1732,6424],
		[1733,6426],
		[1734,6428],
		[1735,6430],
		[1736,6432],
		[1737,6434],
		[1738,6436],
		[1739,6438],
		[1740,6440],
		[1741,6442],
		[1742,6444],
		[1743,6446],
		[1744,6448],
		[1745,6450],
		[1746,6452],
		[1747,6454],
		[1748,6456],
		[1749,6458],
		[1750,6460],
		[1751,6462],
		[1752,6464],
		[1753,6466],
		[1754,6468],
		[1755,6470],
		[1756,6472],
		[1757,6474],
		[1758,6476],
		[1759,6478],
		[1760,6480],
		[1761,6482],
		[1762,6484],
		[1763,6486],
		[1764,6488],
		[1765,6490],
		[1766,6492],
		[1767,6494],
		[1768,6496],
		[1769,6498],
		[1770,6500],
		[1771,6502],
		[1772,6504],
		[1773,6507],
		[1774,6509],
		[1775,6511],
		[1776,6513],
		[1777,6515],
		[1778,6517],
		[1779,6519],
		[1780,6521],
		[1781,6523],
		[1782,6525],
		[1783,6527],
		[1784,6529],
		[1785,6531],
		[1786,6533],
		[1787,6535],
		[1788,6537],
		[1789,6539],
		[1790,6541],
		[1791,6543],
		[1792,6545],
		[1793,6547],
		[1794,6549],
		[1795,6551],
		[1796,6553],
		[1797,6555],
		[1798,6557],
		[1799,6559],
		[1800,6561],
		[1801,6563],
		[1802,6565],
		[1803,6567],
		[1804,6569],
		[1805,6571],
		[1806,6573],
		[1807,6575],
		[1808,6577],
		[1809,6579],
		[1810,6581],
		[1811,6583],
		[1812,6585],
		[1813,6587],
		[1814,6589],
		[1815,6591],
		[1816,6593],
		[1817,6595],
		[1818,6597],
		[1819,6599],
		[1820,6601],
		[1821,6603],
		[1822,6605],
		[1823,6607],
		[1824,6609],
		[1825,6611],
		[1826,6613],
		[1827,6615],
		[1828,6617],
		[1829,6619],
		[1830,6621],
		[1831,6623],
		[1832,6625],
		[1833,6627],
		[1834,6629],
		[1835,6631],
		[1836,6633],
		[1837,6635],
		[1838,6637],
		[1839,6639],
		[1840,6641],
		[1841,6643],
		[1842,6645],
		[1843,6647],
		[1844,6649],
		[1845,6651],
		[1846,6653],
		[1847,6655],
		[1848,6657],
		[1849,6659],
		[1850,6661],
		[1851,6663],
		[1852,6665],
		[1853,6667],
		[1854,6669],
		[1855,6671],
		[1856,6673],
		[1857,6675],
		[1858,6678],
		[1859,6680],
		[1860,6682],
		[1861,6684],
		[1862,6686],
		[1863,6688],
		[1864,6690],
		[1865,6692],
		[1866,6694],
		[1867,6696],
		[1868,6698],
		[1869,6700],
		[1870,6702],
		[1871,6704],
		[1872,6706],
		[1873,6708],
		[1874,6710],
		[1875,6712],
		[1876,6714],
		[1877,6716],
		[1878,6718],
		[1879,6720],
		[1880,6722],
		[1881,6724],
		[1882,6726],
		[1883,6728],
		[1884,6730],
		[1885,6732],
		[1886,6734],
		[1887,6736],
		[1888,6738],
		[1889,6740],
		[1890,6742],
		[1891,6744],
		[1892,6746],
		[1893,6748],
		[1894,6750],
		[1895,6752],
		[1896,6754],
		[1897,6756],
		[1898,6758],
		[1899,6760],
		[1900,6762],
		[1901,6764],
		[1902,6766],
		[1903,6768],
		[1904,6770],
		[1905,6772],
		[1906,6774],
		[1907,6776],
		[1908,6778],
		[1909,6780],
		[1910,6782],
		[1911,6784],
		[1912,6786],
		[1913,6788],
		[1914,6790],
		[1915,6792],
		[1916,6794],
		[1917,6796],
		[1918,6798],
		[1919,6800],
		[1920,6802],
		[1921,6804],
		[1922,6806],
		[1923,6808],
		[1924,6810],
		[1925,6812],
		[1926,6814],
		[1927,6816],
		[1928,6818],
		[1929,6820],
		[1930,6822],
		[1931,6824],
		[1932,6826],
		[1933,6828],
		[1934,6830],
		[1935,6832],
		[1936,6834],
		[1937,6836],
		[1938,6838],
		[1939,6840],
		[1940,6842],
		[1941,6844],
		[1942,6846],
		[1943,6849],
		[1944,6852],
		[1945,6855],
		[1946,6857],
		[1947,6860],
		[1948,6863],
		[1949,6865],
		[1950,6868],
		[1951,6871],
		[1952,6873],
		[1953,6876],
		[1954,6879],
		[1955,6881],
		[1956,6884],
		[1957,6887],
		[1958,6890],
		[1959,6892],
		[1960,6895],
		[1961,6898],
		[1962,6900],
		[1963,6903],
		[1964,6906],
		[1965,6908],
		[1966,6911],
		[1967,6914],
		[1968,6916],
		[1969,6919],
		[1970,6922],
		[1971,6924],
		[1972,6927],
		[1973,6930],
		[1974,6933],
		[1975,6935],
		[1976,6938],
		[1977,6941],
		[1978,6943],
		[1979,6946],
		[1980,6949],
		[1981,6951],
		[1982,6954],
		[1983,6957],
		[1984,6959],
		[1985,6962],
		[1986,6965],
		[1987,6967],
		[1988,6970],
		[1989,6973],
		[1990,6976],
		[1991,6978],
		[1992,6981],
		[1993,6984],
		[1994,6986],
		[1995,6989],
		[1996,6992],
		[1997,6994],
		[1998,6997],
		[1999,7000],
		[2000,7002],
		[2001,7005],
		[2002,7008],
		[2003,7010],
		[2004,7013],
		[2005,7016],
		[2006,7019],
		[2007,7021],
		[2008,7024],
		[2009,7027],
		[2010,7029],
		[2011,7032],
		[2012,7035],
		[2013,7037],
		[2014,7040],
		[2015,7043],
		[2016,7045],
		[2017,7048],
		[2018,7051],
		[2019,7054],
		[2020,7056],
		[2021,7059],
		[2022,7062],
		[2023,7064],
		[2024,7067],
		[2025,7070],
		[2026,7072],
		[2027,7075],
		[2028,7078],
		[2029,7080],
		[2030,7083],
		[2031,7086],
		[2032,7088],
		[2033,7091],
		[2034,7094],
		[2035,7097],
		[2036,7099],
		[2037,7102],
		[2038,7105],
		[2039,7107],
		[2040,7110],
		[2041,7113],
		[2042,7115],
		[2043,7118],
		[2044,7121],
		[2045,7123],
		[2046,7126],
		[2047,7129],
		[2048,7131],
		[2049,7134],
		[2050,7137],
		[2051,7140],
		[2052,7142],
		[2053,7145],
		[2054,7148],
		[2055,7150],
		[2056,7153],
		[2057,7156],
		[2058,7158],
		[2059,7161],
		[2060,7164],
		[2061,7166],
		[2062,7169],
		[2063,7172],
		[2064,7174],
		[2065,7177],
		[2066,7180],
		[2067,7183],
		[2068,7185],
		[2069,7188],
		[2070,7191],
		[2071,7193],
		[2072,7196],
		[2073,7199],
		[2074,7201],
		[2075,7204],
		[2076,7207],
		[2077,7209],
		[2078,7212],
		[2079,7215],
		[2080,7218],
		[2081,7220],
		[2082,7223],
		[2083,7226],
		[2084,7228],
		[2085,7231],
		[2086,7234],
		[2087,7236],
		[2088,7239],
		[2089,7242],
		[2090,7244],
		[2091,7247],
		[2092,7250],
		[2093,7252],
		[2094,7255],
		[2095,7258],
		[2096,7261],
		[2097,7263],
		[2098,7266],
		[2099,7269],
		[2100,7271],
		[2101,7274],
		[2102,7277],
		[2103,7279],
		[2104,7282],
		[2105,7285],
		[2106,7287],
		[2107,7290],
		[2108,7293],
		[2109,7295],
		[2110,7298],
		[2111,7301],
		[2112,7304],
		[2113,7306],
		[2114,7309],
		[2115,7312],
		[2116,7314],
		[2117,7317],
		[2118,7320],
		[2119,7322],
		[2120,7325],
		[2121,7328],
		[2122,7330],
		[2123,7333],
		[2124,7336],
		[2125,7338],
		[2126,7341],
		[2127,7344],
		[2128,7347],
		[2129,7349],
		[2130,7352],
		[2131,7355],
		[2132,7357],
		[2133,7360],
		[2134,7363],
		[2135,7365],
		[2136,7368],
		[2137,7371],
		[2138,7373],
		[2139,7376],
		[2140,7379],
		[2141,7382],
		[2142,7384],
		[2143,7387],
		[2144,7390],
		[2145,7392],
		[2146,7395],
		[2147,7398],
		[2148,7400],
		[2149,7403],
		[2150,7406],
		[2151,7408],
		[2152,7411],
		[2153,7414],
		[2154,7416],
		[2155,7419],
		[2156,7422],
		[2157,7425],
		[2158,7427],
		[2159,7430],
		[2160,7433],
		[2161,7435],
		[2162,7438],
		[2163,7441],
		[2164,7443],
		[2165,7446],
		[2166,7449],
		[2167,7451],
		[2168,7454],
		[2169,7457],
		[2170,7459],
		[2171,7462],
		[2172,7465],
		[2173,7468],
		[2174,7470],
		[2175,7473],
		[2176,7476],
		[2177,7478],
		[2178,7481],
		[2179,7484],
		[2180,7486],
		[2181,7489],
		[2182,7492],
		[2183,7494],
		[2184,7497],
		[2185,7500],
		[2186,7502],
		[2187,7505],
		[2188,7508],
		[2189,7511],
		[2190,7513],
		[2191,7516],
		[2192,7519],
		[2193,7521],
		[2194,7524],
		[2195,7527],
		[2196,7529],
		[2197,7532],
		[2198,7535],
		[2199,7537],
		[2200,7540],
		[2201,7543],
		[2202,7546],
		[2203,7548],
		[2204,7551],
		[2205,7554],
		[2206,7556],
		[2207,7559],
		[2208,7562],
		[2209,7564],
		[2210,7567],
		[2211,7570],
		[2212,7572],
		[2213,7575],
		[2214,7578],
		[2215,7580],
		[2216,7583],
		[2217,7586],
		[2218,7589],
		[2219,7591],
		[2220,7594],
		[2221,7597],
		[2222,7599],
		[2223,7602],
		[2224,7605],
		[2225,7607],
		[2226,7610],
		[2227,7613],
		[2228,7615],
		[2229,7618],
		[2230,7621],
		[2231,7623],
		[2232,7626],
		[2233,7629],
		[2234,7632],
		[2235,7634],
		[2236,7637],
		[2237,7640],
		[2238,7642],
		[2239,7645],
		[2240,7648],
		[2241,7650],
		[2242,7653],
		[2243,7656],
		[2244,7658],
		[2245,7661],
		[2246,7664],
		[2247,7666],
		[2248,7669],
		[2249,7672],
		[2250,7675],
		[2251,7677],
		[2252,7680],
		[2253,7683],
		[2254,7685],
		[2255,7688],
		[2256,7691],
		[2257,7693],
		[2258,7696],
		[2259,7699],
		[2260,7701],
		[2261,7704],
		[2262,7707],
		[2263,7710],
		[2264,7712],
		[2265,7715],
		[2266,7718],
		[2267,7720],
		[2268,7723],
		[2269,7726],
		[2270,7728],
		[2271,7731],
		[2272,7734],
		[2273,7736],
		[2274,7739],
		[2275,7742],
		[2276,7744],
		[2277,7747],
		[2278,7750],
		[2279,7753],
		[2280,7755],
		[2281,7758],
		[2282,7761],
		[2283,7763],
		[2284,7766],
		[2285,7769],
		[2286,7771],
		[2287,7774],
		[2288,7777],
		[2289,7779],
		[2290,7782],
		[2291,7785],
		[2292,7787],
		[2293,7790],
		[2294,7793],
		[2295,7796],
		[2296,7798],
		[2297,7801],
		[2298,7804],
		[2299,7806],
		[2300,7809],
		[2301,7812],
		[2302,7814],
		[2303,7817],
		[2304,7820],
		[2305,7822],
		[2306,7825],
		[2307,7828],
		[2308,7830],
		[2309,7833],
		[2310,7836],
		[2311,7839],
		[2312,7841],
		[2313,7844],
		[2314,7847],
		[2315,7849],
		[2316,7852],
		[2317,7855],
		[2318,7857],
		[2319,7860],
		[2320,7863],
		[2321,7865],
		[2322,7868],
		[2323,7871],
		[2324,7874],
		[2325,7876],
		[2326,7879],
		[2327,7882],
		[2328,7884],
		[2329,7887],
		[2330,7890],
		[2331,7892],
		[2332,7895],
		[2333,7898],
		[2334,7900],
		[2335,7903],
		[2336,7906],
		[2337,7908],
		[2338,7911],
		[2339,7914],
		[2340,7917],
		[2341,7919],
		[2342,7922],
		[2343,7925],
		[2344,7927],
		[2345,7930],
		[2346,7933],
		[2347,7935],
		[2348,7938],
		[2349,7941],
		[2350,7943],
		[2351,7946],
		[2352,7949],
		[2353,7951],
		[2354,7954],
		[2355,7957],
		[2356,7960],
		[2357,7962],
		[2358,7965],
		[2359,7968],
		[2360,7970],
		[2361,7973],
		[2362,7976],
		[2363,7978],
		[2364,7981],
		[2365,7984],
		[2366,7986],
		[2367,7989],
		[2368,7992],
		[2369,7994],
		[2370,7997],
		[2371,8000],
		[2372,8003],
		[2373,8005],
		[2374,8008],
		[2375,8011],
		[2376,8013],
		[2377,8016],
		[2378,8019],
		[2379,8021],
		[2380,8024],
		[2381,8027],
		[2382,8029],
		[2383,8032],
		[2384,8035],
		[2385,8037],
		[2386,8041],
		[2387,8046],
		[2388,8051],
		[2389,8056],
		[2390,8060],
		[2391,8065],
		[2392,8070],
		[2393,8075],
		[2394,8079],
		[2395,8084],
		[2396,8089],
		[2397,8094],
		[2398,8099],
		[2399,8103],
		[2400,8108],
		[2401,8113],
		[2402,8118],
		[2403,8122],
		[2404,8127],
		[2405,8132],
		[2406,8137],
		[2407,8141],
		[2408,8146],
		[2409,8151],
		[2410,8156],
		[2411,8161],
		[2412,8165],
		[2413,8170],
		[2414,8175],
		[2415,8180],
		[2416,8184],
		[2417,8189],
		[2418,8194],
		[2419,8199],
		[2420,8203],
		[2421,8208],
		[2422,8213],
		[2423,8218],
		[2424,8223],
		[2425,8227],
		[2426,8232],
		[2427,8237],
		[2428,8242],
		[2429,8246],
		[2430,8251],
		[2431,8256],
		[2432,8261],
		[2433,8265],
		[2434,8270],
		[2435,8275],
		[2436,8280],
		[2437,8285],
		[2438,8289],
		[2439,8294],
		[2440,8299],
		[2441,8304],
		[2442,8308],
		[2443,8313],
		[2444,8318],
		[2445,8323],
		[2446,8327],
		[2447,8332],
		[2448,8337],
		[2449,8342],
		[2450,8347],
		[2451,8351],
		[2452,8356],
		[2453,8361],
		[2454,8366],
		[2455,8370],
		[2456,8375],
		[2457,8380],
		[2458,8385],
		[2459,8389],
		[2460,8394],
		[2461,8399],
		[2462,8404],
		[2463,8409],
		[2464,8413],
		[2465,8418],
		[2466,8423],
		[2467,8428],
		[2468,8432],
		[2469,8437],
		[2470,8442],
		[2471,8447],
		[2472,8451],
		[2473,8456],
		[2474,8461],
		[2475,8466],
		[2476,8471],
		[2477,8475],
		[2478,8480],
		[2479,8485],
		[2480,8490],
		[2481,8494],
		[2482,8499],
		[2483,8504],
		[2484,8509],
		[2485,8513],
		[2486,8518],
		[2487,8523],
		[2488,8528],
		[2489,8533],
		[2490,8537],
		[2491,8542],
		[2492,8547],
		[2493,8552],
		[2494,8556],
		[2495,8561],
		[2496,8566],
		[2497,8571],
		[2498,8575],
		[2499,8580],
		[2500,8585],
		[2501,8590],
		[2502,8595],
		[2503,8599],
		[2504,8604],
		[2505,8609],
		[2506,8614],
		[2507,8618],
		[2508,8623],
		[2509,8628],
		[2510,8633],
		[2511,8637],
		[2512,8642],
		[2513,8647],
		[2514,8652],
		[2515,8657],
		[2516,8661],
		[2517,8666],
		[2518,8671],
		[2519,8676],
		[2520,8680],
		[2521,8685],
		[2522,8690],
		[2523,8695],
		[2524,8699],
		[2525,8704],
		[2526,8709],
		[2527,8714],
		[2528,8719],
		[2529,8723],
		[2530,8728],
		[2531,8733],
		[2532,8738],
		[2533,8742],
		[2534,8747],
		[2535,8752],
		[2536,8757],
		[2537,8761],
		[2538,8766],
		[2539,8771],
		[2540,8776],
		[2541,8781],
		[2542,8785],
		[2543,8790],
		[2544,8795],
		[2545,8800],
		[2546,8804],
		[2547,8809],
		[2548,8814],
		[2549,8819],
		[2550,8823],
		[2551,8828],
		[2552,8833],
		[2553,8838],
		[2554,8843],
		[2555,8847],
		[2556,8852],
		[2557,8857],
		[2558,8862],
		[2559,8866],
		[2560,8871],
		[2561,8876],
		[2562,8881],
		[2563,8885],
		[2564,8890],
		[2565,8895],
		[2566,8900],
		[2567,8905],
		[2568,8909],
		[2569,8914],
		[2570,8919],
		[2571,8924],
		[2572,8928],
		[2573,8933],
		[2574,8938],
		[2575,8943],
		[2576,8947],
		[2577,8952],
		[2578,8957],
		[2579,8962],
		[2580,8967],
		[2581,8971],
		[2582,8976],
		[2583,8981],
		[2584,8986],
		[2585,8990],
		[2586,8995],
		[2587,9000],
		[2588,9005],
		[2589,9009],
		[2590,9014],
		[2591,9019],
		[2592,9024],
		[2593,9029],
		[2594,9033],
		[2595,9038],
		[2596,9043],
		[2597,9048],
		[2598,9052],
		[2599,9057],
		[2600,9062],
		[2601,9067],
		[2602,9071],
		[2603,9076],
		[2604,9081],
		[2605,9086],
		[2606,9091],
		[2607,9095],
		[2608,9100],
		[2609,9105],
		[2610,9110],
		[2611,9114],
		[2612,9119],
		[2613,9124],
		[2614,9129],
		[2615,9133],
		[2616,9138],
		[2617,9143],
		[2618,9148],
		[2619,9153],
		[2620,9157],
		[2621,9162],
		[2622,9167],
		[2623,9172],
		[2624,9176],
		[2625,9181],
		[2626,9186],
		[2627,9191],
		[2628,9195],
		[2629,9200],
		[2630,9205],
		[2631,9210],
		[2632,9215],
		[2633,9219],
		[2634,9224],
		[2635,9229],
		[2636,9234],
		[2637,9238],
		[2638,9243],
		[2639,9248],
		[2640,9253],
		[2641,9257],
		[2642,9262],
		[2643,9267],
		[2644,9272],
		[2645,9277],
		[2646,9281],
		[2647,9286],
		[2648,9291],
		[2649,9296],
		[2650,9300],
		[2651,9305],
		[2652,9310],
		[2653,9315],
		[2654,9319],
		[2655,9324],
		[2656,9329],
		[2657,9334],
		[2658,9339],
		[2659,9343],
		[2660,9348],
		[2661,9353],
		[2662,9358],
		[2663,9362],
		[2664,9367],
		[2665,9372],
		[2666,9377],
		[2667,9381],
		[2668,9386],
		[2669,9391],
		[2670,9396],
		[2671,9401],
		[2672,9405],
		[2673,9410],
		[2674,9415],
		[2675,9420],
		[2676,9424],
		[2677,9429],
		[2678,9434],
		[2679,9439],
		[2680,9443],
		[2681,9448],
		[2682,9453],
		[2683,9458],
		[2684,9463],
		[2685,9467],
		[2686,9472],
		[2687,9477],
		[2688,9482],
		[2689,9486],
		[2690,9491],
		[2691,9496],
		[2692,9501],
		[2693,9505],
		[2694,9510],
		[2695,9515],
		[2696,9520],
		[2697,9525],
		[2698,9529],
		[2699,9534],
		[2700,9539],
		[2701,9544],
		[2702,9548],
		[2703,9553],
		[2704,9558],
		[2705,9563],
		[2706,9567],
		[2707,9572],
		[2708,9577],
		[2709,9582],
		[2710,9587],
		[2711,9591],
		[2712,9596],
		[2713,9601],
		[2714,9606],
		[2715,9610],
		[2716,9615],
		[2717,9620],
		[2718,9625],
		[2719,9629],
		[2720,9634],
		[2721,9639],
		[2722,9644],
		[2723,9649],
		[2724,9653],
		[2725,9658],
		[2726,9663],
		[2727,9668],
		[2728,9672],
		[2729,9677],
		[2730,9682],
		[2731,9687],
		[2732,9691],
		[2733,9696],
		[2734,9701],
		[2735,9706],
		[2736,9711],
		[2737,9715],
		[2738,9720],
		[2739,9725],
		[2740,9730],
		[2741,9734],
		[2742,9739],
		[2743,9744],
		[2744,9749],
		[2745,9753],
		[2746,9758],
		[2747,9763],
		[2748,9768],
		[2749,9773],
		[2750,9777],
		[2751,9782],
		[2752,9787],
		[2753,9792],
		[2754,9796],
		[2755,9801],
		[2756,9806],
		[2757,9811],
		[2758,9815],
		[2759,9820],
		[2760,9825],
		[2761,9830],
		[2762,9835],
		[2763,9839],
		[2764,9844],
		[2765,9849],
		[2766,9854],
		[2767,9858],
		[2768,9863],
		[2769,9868],
		[2770,9873],
		[2771,9877],
		[2772,9882],
		[2773,9887],
		[2774,9892],
		[2775,9897],
		[2776,9901],
		[2777,9906],
		[2778,9911],
		[2779,9916],
		[2780,9920],
		[2781,9925],
		[2782,9930],
		[2783,9935],
		[2784,9939],
		[2785,9944],
		[2786,9949],
		[2787,9954],
		[2788,9959],
		[2789,9963],
		[2790,9968],
		[2791,9973],
		[2792,9978],
		[2793,9982],
		[2794,9987],
		[2795,9992],
		[2796,9997],
		[2797,10001],
		[2798,10006],
		[2799,10011],
		[2800,10016],
		[2801,10021],
		[2802,10025],
		[2803,10030],
		[2804,10035],
		[2805,10040],
		[2806,10044],
		[2807,10049],
		[2808,10054],
		[2809,10059],
		[2810,10063],
		[2811,10068],
		[2812,10073],
		[2813,10078],
		[2814,10083],
		[2815,10087],
		[2816,10092],
		[2817,10097],
		[2818,10102],
		[2819,10106],
		[2820,10111],
		[2821,10116],
		[2822,10121],
		[2823,10125],
		[2824,10130],
		[2825,10135],
		[2826,10140],
		[2827,10145],
		[2828,10149],
		[2829,10154],
		[2830,10159],
		[2831,10164],
		[2832,10168],
		[2833,10173],
		[2834,10178],
		[2835,10183],
		[2836,10187],
		[2837,10192],
		[2838,10197],
		[2839,10202],
		[2840,10207],
		[2841,10211],
		[2842,10216],
		[2843,10221],
		[2844,10226],
		[2845,10230],
		[2846,10235],
		[2847,10240],
		[2848,10245],
		[2849,10249],
		[2850,10254],
		[2851,10259],
		[2852,10264],
		[2853,10269],
		[2854,10273],
		[2855,10278],
		[2856,10283],
		[2857,10288],
		[2858,10292],
		[2859,10297],
		[2860,10302],
		[2861,10307],
		[2862,10311],
		[2863,10316],
		[2864,10321],
		[2865,10326],
		[2866,10331],
		[2867,10335],
		[2868,10340],
		[2869,10345],
		[2870,10350],
		[2871,10354],
		[2872,10359],
		[2873,10364],
		[2874,10369],
		[2875,10373],
		[2876,10378],
		[2877,10383],
		[2878,10388],
		[2879,10393],
		[2880,10397],
		[2881,10402],
		[2882,10407],
		[2883,10412],
		[2884,10416],
		[2885,10421],
		[2886,10426],
		[2887,10431],
		[2888,10435],
		[2889,10440],
		[2890,10445],
		[2891,10450],
		[2892,10455],
		[2893,10459],
		[2894,10464],
		[2895,10469],
		[2896,10474],
		[2897,10478],
		[2898,10483],
		[2899,10488],
		[2900,10493],
		[2901,10497],
		[2902,10503],
		[2903,10511],
		[2904,10519],
		[2905,10527],
		[2906,10535],
		[2907,10543],
		[2908,10551],
		[2909,10559],
		[2910,10566],
		[2911,10574],
		[2912,10582],
		[2913,10590],
		[2914,10598],
		[2915,10606],
		[2916,10614],
		[2917,10622],
		[2918,10629],
		[2919,10637],
		[2920,10645],
		[2921,10653],
		[2922,10661],
		[2923,10669],
		[2924,10677],
		[2925,10684],
		[2926,10692],
		[2927,10700],
		[2928,10708],
		[2929,10716],
		[2930,10724],
		[2931,10732],
		[2932,10740],
		[2933,10747],
		[2934,10755],
		[2935,10763],
		[2936,10771],
		[2937,10779],
		[2938,10787],
		[2939,10795],
		[2940,10803],
		[2941,10810],
		[2942,10818],
		[2943,10826],
		[2944,10834],
		[2945,10842],
		[2946,10850],
		[2947,10858],
		[2948,10865],
		[2949,10873],
		[2950,10881],
		[2951,10889],
		[2952,10897],
		[2953,10905],
		[2954,10913],
		[2955,10921],
		[2956,10928],
		[2957,10936],
		[2958,10944],
		[2959,10952],
		[2960,10960],
		[2961,10968],
		[2962,10976],
		[2963,10984],
		[2964,10991],
		[2965,10999],
		[2966,11007],
		[2967,11015],
		[2968,11023],
		[2969,11031],
		[2970,11039],
		[2971,11046],
		[2972,11054],
		[2973,11062],
		[2974,11070],
		[2975,11078],
		[2976,11086],
		[2977,11094],
		[2978,11102],
		[2979,11109],
		[2980,11117],
		[2981,11125],
		[2982,11133],
		[2983,11141],
		[2984,11149],
		[2985,11157],
		[2986,11165],
		[2987,11172],
		[2988,11180],
		[2989,11188],
		[2990,11196],
		[2991,11204],
		[2992,11212],
		[2993,11220],
		[2994,11227],
		[2995,11235],
		[2996,11243],
		[2997,11251],
		[2998,11259],
		[2999,11267],
		[3000,11275],
		[3001,11283],
		[3002,11290],
		[3003,11298],
		[3004,11306],
		[3005,11314],
		[3006,11322],
		[3007,11330],
		[3008,11338],
		[3009,11346],
		[3010,11353],
		[3011,11361],
		[3012,11369],
		[3013,11377],
		[3014,11385],
		[3015,11393],
		[3016,11401],
		[3017,11408],
		[3018,11416],
		[3019,11424],
		[3020,11432],
		[3021,11440],
		[3022,11448],
		[3023,11456],
		[3024,11464],
		[3025,11471],
		[3026,11479],
		[3027,11487],
		[3028,11495],
		[3029,11503],
		[3030,11511],
		[3031,11519],
		[3032,11527],
		[3033,11534],
		[3034,11542],
		[3035,11550],
		[3036,11558],
		[3037,11566],
		[3038,11574],
		[3039,11582],
		[3040,11589],
		[3041,11597],
		[3042,11605],
		[3043,11613],
		[3044,11621],
		[3045,11629],
		[3046,11637],
		[3047,11645],
		[3048,11652],
		[3049,11660],
		[3050,11668],
		[3051,11676],
		[3052,11684],
		[3053,11692],
		[3054,11700],
		[3055,11708],
		[3056,11715],
		[3057,11723],
		[3058,11731],
		[3059,11739],
		[3060,11747],
		[3061,11755],
		[3062,11763],
		[3063,11770],
		[3064,11778],
		[3065,11786],
		[3066,11794],
		[3067,11802],
		[3068,11810],
		[3069,11818],
		[3070,11826],
		[3071,11833],
		[3072,11841],
		[3073,11849],
		[3074,11857],
		[3075,11865],
		[3076,11873],
		[3077,11881],
		[3078,11889],
		[3079,11896],
		[3080,11904],
		[3081,11912],
		[3082,11920],
		[3083,11928],
		[3084,11936],
		[3085,11944],
		[3086,11951],
		[3087,11959],
		[3088,11967],
		[3089,11975],
		[3090,11983],
		[3091,11991],
		[3092,11999],
		[3093,12007],
		[3094,12014],
		[3095,12022],
		[3096,12030],
		[3097,12038],
		[3098,12046],
		[3099,12054],
		[3100,12062],
		[3101,12070],
		[3102,12077],
		[3103,12085],
		[3104,12093],
		[3105,12101],
		[3106,12109],
		[3107,12117],
		[3108,12125],
		[3109,12132],
		[3110,12140],
		[3111,12148],
		[3112,12156],
		[3113,12164],
		[3114,12172],
		[3115,12180],
		[3116,12188],
		[3117,12195],
		[3118,12203],
		[3119,12211],
		[3120,12219],
		[3121,12227],
		[3122,12235],
		[3123,12243],
		[3124,12251],
		[3125,12258],
		[3126,12266],
		[3127,12274],
		[3128,12282],
		[3129,12290],
		[3130,12298],
		[3131,12306],
		[3132,12313],
		[3133,12321],
		[3134,12329],
		[3135,12337],
		[3136,12345],
		[3137,12353],
		[3138,12361],
		[3139,12369],
		[3140,12376],
		[3141,12384],
		[3142,12392],
		[3143,12400],
		[3144,12408],
		[3145,12416],
		[3146,12424],
		[3147,12432],
		[3148,12439],
		[3149,12447],
		[3150,12455],
		[3151,12463],
		[3152,12471],
		[3153,12479],
		[3154,12487],
		[3155,12494],
		[3156,12502],
		[3157,12510],
		[3158,12518],
		[3159,12526],
		[3160,12534],
		[3161,12542],
		[3162,12550],
		[3163,12557],
		[3164,12565],
		[3165,12573],
		[3166,12581],
		[3167,12589],
		[3168,12597],
		[3169,12605],
		[3170,12613],
		[3171,12620],
		[3172,12628],
		[3173,12636],
		[3174,12644],
		[3175,12652],
		[3176,12660],
		[3177,12668],
		[3178,12675],
		[3179,12683],
		[3180,12691],
		[3181,12699],
		[3182,12707],
		[3183,12715],
		[3184,12723],
		[3185,12731],
		[3186,12738],
		[3187,12746],
		[3188,12754],
		[3189,12762],
		[3190,12770],
		[3191,12778],
		[3192,12786],
		[3193,12794],
		[3194,12801],
		[3195,12809],
		[3196,12817],
		[3197,12825],
		[3198,12833],
		[3199,12841],
		[3200,12849],
		[3201,12856],
		[3202,12864],
		[3203,12872],
		[3204,12880],
		[3205,12888],
		[3206,12896],
		[3207,12904],
		[3208,12912],
		[3209,12919],
		[3210,12927],
		[3211,12935],
		[3212,12943],
		[3213,12951],
		[3214,12959],
		[3215,12967],
		[3216,12975],
		[3217,12982],
		[3218,12990],
		[3219,12998],
		[3220,13006],
		[3221,13014],
		[3222,13022],
		[3223,13030],
		[3224,13037],
		[3225,13045],
		[3226,13053],
		[3227,13061],
		[3228,13069],
		[3229,13077],
		[3230,13085],
		[3231,13093],
		[3232,13100],
		[3233,13108],
		[3234,13116],
		[3235,13124],
		[3236,13132],
		[3237,13140],
		[3238,13148],
		[3239,13156],
		[3240,13163],
		[3241,13171],
		[3242,13179],
		[3243,13187],
		[3244,13195],
		[3245,13203],
		[3246,13211],
		[3247,13218],
		[3248,13226],
		[3249,13234],
		[3250,13242],
		[3251,13250],
		[3252,13258],
		[3253,13266],
		[3254,13274],
		[3255,13281],
		[3256,13289],
		[3257,13297],
		[3258,13305],
		[3259,13313],
		[3260,13321],
		[3261,13329],
		[3262,13337],
		[3263,13344],
		[3264,13352],
		[3265,13360],
		[3266,13368],
		[3267,13376],
		[3268,13384],
		[3269,13392],
		[3270,13399],
		[3271,13407],
		[3272,13415],
		[3273,13423],
		[3274,13431],
		[3275,13439],
		[3276,13447],
		[3277,13455],
		[3278,13462],
		[3279,13470],
		[3280,13478],
		[3281,13486],
		[3282,13494],
		[3283,13502],
		[3284,13510],
		[3285,13518],
		[3286,13525],
		[3287,13533],
		[3288,13541],
		[3289,13549],
		[3290,13557],
		[3291,13565],
		[3292,13573],
		[3293,13580],
		[3294,13588],
		[3295,13596],
		[3296,13604],
		[3297,13612],
		[3298,13620],
		[3299,13628],
		[3300,13636],
		[3301,13643],
		[3302,13651],
		[3303,13659],
		[3304,13667],
		[3305,13675],
		[3306,13683],
		[3307,13691],
		[3308,13699],
		[3309,13706],
		[3310,13714],
		[3311,13722],
		[3312,13730],
		[3313,13738],
		[3314,13746],
		[3315,13754],
		[3316,13761],
		[3317,13769],
		[3318,13777],
		[3319,13785],
		[3320,13793],
		[3321,13801],
		[3322,13809],
		[3323,13817],
		[3324,13824],
		[3325,13832],
		[3326,13840],
		[3327,13848],
		[3328,13856],
		[3329,13864],
		[3330,13872],
		[3331,13880],
		[3332,13887],
		[3333,13895],
		[3334,13903],
		[3335,13911],
		[3336,13919],
		[3337,13927],
		[3338,13935],
		[3339,13942],
		[3340,13950],
		[3341,13958],
		[3342,13966],
		[3343,13974],
		[3344,13982],
		[3345,13990],
		[3346,13998],
		[3347,14005],
		[3348,14013],
		[3349,14021],
		[3350,14029],
		[3351,14037],
		[3352,14045],
		[3353,14053],
		[3354,14061],
		[3355,14068],
		[3356,14076],
		[3357,14084],
		[3358,14092],
		[3359,14100],
		[3360,14108],
		[3361,14116],
		[3362,14123],
		[3363,14131],
		[3364,14139],
		[3365,14147],
		[3366,14155],
		[3367,14163],
		[3368,14171],
		[3369,14179],
		[3370,14186],
		[3371,14194],
		[3372,14202],
		[3373,14210],
		[3374,14218],
		[3375,14226],
		[3376,14234],
		[3377,14242],
		[3378,14249],
		[3379,14257],
		[3380,14265],
		[3381,14273],
		[3382,14281],
		[3383,14289],
		[3384,14297],
		[3385,14304],
		[3386,14312],
		[3387,14320],
		[3388,14328],
		[3389,14336],
		[3390,14344],
		[3391,14352],
		[3392,14360],
		[3393,14367],
		[3394,14375],
		[3395,14383],
		[3396,14391],
		[3397,14399],
		[3398,14407],
		[3399,14415],
		[3400,14423],
		[3401,14430],
		[3402,14438],
		[3403,14446],
		[3404,14454],
		[3405,14462],
		[3406,14470],
		[3407,14478],
		[3408,14485],
		[3409,14493],
		[3410,14501],
		[3411,14509],
		[3412,14517],
		[3413,14525],
		[3414,14533],
		[3415,14541],
		[3416,14548],
		[3417,14556],
		[3418,14564],
		[3419,14572],
		[3420,14580],
		[3421,14588],
		[3422,14596],
		[3423,14604],
		[3424,14611],
		[3425,14619],
		[3426,14627],
		[3427,14635],
		[3428,14643],
		[3429,14651],
		[3430,14659],
		[3431,14666],
		[3432,14674],
		[3433,14682],
		[3434,14690],
		[3435,14698],
		[3436,14706],
		[3437,14714],
		[3438,14722],
		[3439,14729],
		[3440,14737],
		[3441,14745],
		[3442,14753],
		[3443,14761],
		[3444,14769],
		[3445,14777],
		[3446,14785],
		[3447,14792],
		[3448,14800],
		[3449,14808],
		[3450,14816],
		[3451,14824],
		[3452,14832],
		[3453,14840],
		[3454,14847],
		[3455,14855],
		[3456,14863],
		[3457,14871],
		[3458,14879],
		[3459,14887],
		[3460,14895],
		[3461,14903],
		[3462,14910],
		[3463,14918],
		[3464,14926],
		[3465,14934],
		[3466,14942],
		[3467,14950],
		[3468,14958],
		[3469,14966],
		[3470,14973],
		[3471,14981],
		[3472,14989],
		[3473,14997],
		[3474,15005],
		[3475,15013],
		[3476,15021],
		[3477,15028],
		[3478,15036],
		[3479,15044],
		[3480,15052],
		[3481,15060],
		[3482,15068],
		[3483,15076],
		[3484,15084],
		[3485,15091],
		[3486,15099],
		[3487,15107],
		[3488,15115],
		[3489,15123],
		[3490,15131],
		[3491,15139],
		[3492,15147],
		[3493,15154],
		[3494,15162],
		[3495,15170],
		[3496,15178],
		[3497,15186],
		[3498,15194],
		[3499,15202],
		[3500,15209],
		[3501,15217],
		[3502,15225],
		[3503,15233],
		[3504,15241],
		[3505,15249],
		[3506,15257],
		[3507,15265],
		[3508,15272],
		[3509,15280],
		[3510,15288],
		[3511,15296],
		[3512,15304],
		[3513,15312],
		[3514,15320],
		[3515,15324]
	]
}
