{
	"ramperbrightness": {
		"sectiondown": [
			[-1.399753262,5137.948716],
			[-1.771065421,6130.094804],
			[-2.084389381,6699.091115],
			[-4.149033708,9748.570787],
			[-5.579,11478.83],
			[-6.4435,12400.387],
			[-9.453243564,15030.90288],
			[-9.4848,15055.296],
			[-6.048776081,12543.56252],
			[-5.4510096,12140.66791],
			[-5.771499774,12354.43485],
			[-12.6378,16817.53],
			[-10.41418065,15452.22772],
			[-11.91195918,16279.00147],
			[-11.61771429,16130.99629],
			[-14.79130435,17660.6667],
			[-13.39013793,17017.53131],
			[-14.5314,17508.274],
			[-19.00635556,19387.75533],
			[-26.1017561,22048.53054],
			[-30.65128767,23568.07408],
			[-36.47113043,25087.05304],
			[-52.22290909,28835.97636],
			[-43.17726316,26782.61474],
			[-133.7504,45621.8272],
			[-55.29787234,30480.48936],
			[-63.26315789,31643.42105],
			[-93.21428571,35447.21429],
			[-93.8125,35514.8125],
			[-110.25,37109.25],
			[-134.6666667,38794],
			[-193,42119],
			[-255.5,44681.5],
			[-466.8333333,49542.16667]
		],
		"section_downpoint": [2672,1816,1477,1210,1066,874,773,731,674,667,650,614,552,503,482,459,430,420,375,334,261,238,227,208,193,146,127,113,97,69,57,41,23,5],
		"section_down_min_step": [43,34,29,15,11,10,7,7,10,12,27,12,15,13,13,11,12,11,8,6,5,5,3,4,2,3,3,2,2,2,2,1,1,1],
		"sectiondowngapminone": 20,
		"sectiondowngapmintwo": 80,
		"sectiondownkeybr": 674,
		"downlcmFlickValue": 2,
		"uptotaltime": 2800,
		"uplimmitcount": 25,
		"section_uppoint": [695,2251],
		"quickupstep": [48,144,131],
		"quickupgap": [20,0,0],
		"quickdownstep": [7,22,20,109],
		"quickdowngap": [40,40,30,20],
		"quick_sectionpoint": [1643,946,411,5],
		"pemtotaltime": 10000
	}
}
