{
	"panel":[
		{
			"panel_name":"pd2269_tm_nt37705_fhdp_cmd",
			"config": {
				"normal_brightness_max": 3515,
				"hbm_brightness_max":4095
			},
			"lcm_map_nit": [
				[0,0.00],
				[1,0.00],
				[2,0.00],
				[3,0.00],
				[4,0.02],
				[5,0.41],
				[6,1.93],
				[7,2.04],
				[8,2.16],
				[9,2.22],
				[10,2.36],
				[11,2.49],
				[12,2.59],
				[13,2.71],
				[14,2.86],
				[15,3.01],
				[16,3.09],
				[17,3.25],
				[18,3.41],
				[19,3.47],
				[20,3.68],
				[21,3.85],
				[22,4.02],
				[23,4.28],
				[24,4.28],
				[25,4.50],
				[26,4.67],
				[27,4.84],
				[28,4.96],
				[29,5.09],
				[30,5.20],
				[31,5.34],
				[32,5.44],
				[33,5.61],
				[34,5.68],
				[35,5.74],
				[36,5.96],
				[37,6.10],
				[38,6.23],
				[39,6.37],
				[40,6.51],
				[41,6.64],
				[42,6.76],
				[43,6.88],
				[44,7.02],
				[45,7.16],
				[46,7.21],
				[47,7.44],
				[48,7.59],
				[49,7.72],
				[50,7.88],
				[51,7.94],
				[52,8.11],
				[53,8.26],
				[54,8.42],
				[55,8.57],
				[56,8.73],
				[57,8.87],
				[58,9.02],
				[59,9.12],
				[60,9.29],
				[61,9.44],
				[62,9.59],
				[63,9.73],
				[64,9.86],
				[65,10.01],
				[66,10.03],
				[67,10.26],
				[68,10.42],
				[69,10.49],
				[70,10.61],
				[71,10.65],
				[72,10.90],
				[73,10.93],
				[74,11.19],
				[75,11.32],
				[76,11.47],
				[77,11.57],
				[78,11.57],
				[79,11.82],
				[80,11.97],
				[81,12.09],
				[82,12.18],
				[83,12.34],
				[84,12.53],
				[85,12.66],
				[86,12.71],
				[87,12.89],
				[88,13.03],
				[89,13.18],
				[90,13.33],
				[91,13.42],
				[92,13.62],
				[93,13.61],
				[94,13.90],
				[95,13.99],
				[96,14.14],
				[97,14.23],
				[98,14.43],
				[99,14.43],
				[100,14.73],
				[101,14.84],
				[102,14.92],
				[103,15.08],
				[104,15.16],
				[105,15.40],
				[106,15.56],
				[107,15.69],
				[108,15.86],
				[109,16.00],
				[110,16.17],
				[111,16.28],
				[112,16.39],
				[113,16.53],
				[114,16.65],
				[115,16.84],
				[116,16.85],
				[117,17.13],
				[118,17.30],
				[119,17.31],
				[120,17.58],
				[121,17.66],
				[122,17.84],
				[123,17.99],
				[124,18.08],
				[125,18.28],
				[126,18.45],
				[127,18.47],
				[128,18.79],
				[129,18.91],
				[130,18.95],
				[131,19.17],
				[132,19.26],
				[133,19.45],
				[134,19.52],
				[135,19.66],
				[136,19.90],
				[137,20.04],
				[138,19.97],
				[139,20.25],
				[140,20.39],
				[141,20.51],
				[142,20.66],
				[143,20.75],
				[144,20.98],
				[145,20.90],
				[146,21.17],
				[147,21.22],
				[148,21.44],
				[149,21.56],
				[150,21.63],
				[151,21.81],
				[152,22.00],
				[153,22.06],
				[154,22.20],
				[155,22.37],
				[156,22.45],
				[157,22.57],
				[158,22.74],
				[159,22.91],
				[160,22.86],
				[161,23.05],
				[162,23.26],
				[163,23.25],
				[164,23.54],
				[165,23.69],
				[166,23.88],
				[167,24.00],
				[168,24.06],
				[169,24.24],
				[170,24.33],
				[171,24.49],
				[172,24.52],
				[173,24.75],
				[174,24.72],
				[175,24.90],
				[176,25.06],
				[177,25.19],
				[178,25.42],
				[179,25.48],
				[180,25.75],
				[181,25.85],
				[182,25.95],
				[183,26.08],
				[184,26.20],
				[185,26.37],
				[186,26.36],
				[187,26.61],
				[188,26.80],
				[189,26.95],
				[190,26.92],
				[191,27.17],
				[192,27.09],
				[193,27.36],
				[194,27.42],
				[195,27.71],
				[196,27.89],
				[197,27.99],
				[198,28.06],
				[199,28.23],
				[200,28.23],
				[201,28.48],
				[202,28.62],
				[203,28.66],
				[204,28.97],
				[205,28.95],
				[206,29.08],
				[207,29.34],
				[208,29.32],
				[209,29.61],
				[210,29.74],
				[211,29.94],
				[212,29.92],
				[213,30.02],
				[214,30.07],
				[215,30.39],
				[216,30.53],
				[217,30.71],
				[218,30.60],
				[219,30.91],
				[220,31.07],
				[221,31.16],
				[222,31.17],
				[223,31.46],
				[224,31.64],
				[225,31.76],
				[226,31.86],
				[227,32.09],
				[228,32.03],
				[229,32.14],
				[230,32.46],
				[231,32.58],
				[232,32.73],
				[233,32.91],
				[234,33.06],
				[235,33.20],
				[236,33.09],
				[237,33.45],
				[238,33.39],
				[239,33.69],
				[240,33.85],
				[241,33.99],
				[242,33.99],
				[243,34.08],
				[244,34.24],
				[245,34.50],
				[246,34.62],
				[247,34.78],
				[248,34.94],
				[249,34.95],
				[250,35.28],
				[251,35.15],
				[252,35.28],
				[253,35.67],
				[254,35.75],
				[255,35.78],
				[256,36.09],
				[257,36.22],
				[258,36.21],
				[259,36.42],
				[260,36.40],
				[261,36.74],
				[262,36.72],
				[263,36.92],
				[264,37.18],
				[265,37.20],
				[266,37.52],
				[267,37.47],
				[268,37.75],
				[269,37.77],
				[270,37.86],
				[271,38.02],
				[272,38.32],
				[273,38.46],
				[274,38.38],
				[275,38.54],
				[276,38.86],
				[277,38.86],
				[278,39.18],
				[279,39.30],
				[280,39.47],
				[281,39.46],
				[282,39.68],
				[283,39.64],
				[284,39.98],
				[285,39.92],
				[286,40.16],
				[287,40.32],
				[288,40.44],
				[289,40.47],
				[290,40.80],
				[291,40.79],
				[292,41.12],
				[293,41.24],
				[294,41.21],
				[295,41.32],
				[296,41.50],
				[297,41.60],
				[298,41.91],
				[299,41.97],
				[300,42.20],
				[301,42.27],
				[302,42.33],
				[303,42.70],
				[304,42.60],
				[305,42.87],
				[306,43.06],
				[307,43.21],
				[308,43.29],
				[309,43.30],
				[310,43.66],
				[311,43.72],
				[312,43.93],
				[313,43.96],
				[314,44.13],
				[315,44.29],
				[316,44.43],
				[317,44.57],
				[318,44.69],
				[319,44.91],
				[320,44.90],
				[321,45.00],
				[322,45.39],
				[323,45.52],
				[324,45.49],
				[325,45.80],
				[326,45.82],
				[327,45.85],
				[328,46.08],
				[329,46.37],
				[330,46.46],
				[331,46.44],
				[332,46.73],
				[333,46.96],
				[334,46.90],
				[335,47.12],
				[336,47.34],
				[337,47.32],
				[338,47.62],
				[339,47.62],
				[340,47.95],
				[341,48.06],
				[342,47.97],
				[343,48.23],
				[344,48.42],
				[345,48.72],
				[346,48.80],
				[347,48.94],
				[348,49.12],
				[349,49.22],
				[350,49.18],
				[351,49.28],
				[352,49.50],
				[353,49.60],
				[354,49.64],
				[355,50.00],
				[356,49.96],
				[357,50.27],
				[358,50.28],
				[359,50.50],
				[360,50.45],
				[361,50.78],
				[362,50.82],
				[363,50.97],
				[364,51.00],
				[365,51.31],
				[366,51.44],
				[367,51.56],
				[368,51.44],
				[369,51.57],
				[370,51.79],
				[371,52.10],
				[372,52.09],
				[373,52.50],
				[374,52.44],
				[375,52.55],
				[376,52.86],
				[377,52.81],
				[378,52.95],
				[379,53.26],
				[380,53.38],
				[381,53.53],
				[382,53.51],
				[383,53.68],
				[384,53.73],
				[385,54.03],
				[386,54.23],
				[387,54.29],
				[388,54.47],
				[389,54.42],
				[390,54.58],
				[391,54.76],
				[392,54.91],
				[393,54.89],
				[394,55.08],
				[395,55.13],
				[396,55.62],
				[397,55.70],
				[398,55.77],
				[399,55.72],
				[400,55.93],
				[401,56.13],
				[402,56.23],
				[403,56.33],
				[404,56.55],
				[405,56.83],
				[406,56.69],
				[407,57.11],
				[408,57.20],
				[409,57.28],
				[410,57.21],
				[411,57.59],
				[412,57.46],
				[413,57.56],
				[414,57.82],
				[415,57.94],
				[416,58.19],
				[417,58.19],
				[418,58.32],
				[419,58.55],
				[420,58.66],
				[421,58.90],
				[422,58.90],
				[423,59.03],
				[424,59.37],
				[425,59.32],
				[426,59.43],
				[427,59.65],
				[428,59.79],
				[429,59.99],
				[430,60.08],
				[431,60.18],
				[432,60.23],
				[433,60.52],
				[434,60.45],
				[435,60.80],
				[436,60.80],
				[437,60.93],
				[438,61.06],
				[439,61.11],
				[440,61.33],
				[441,61.58],
				[442,61.50],
				[443,61.64],
				[444,62.06],
				[445,62.04],
				[446,62.21],
				[447,62.35],
				[448,62.39],
				[449,62.71],
				[450,62.71],
				[451,62.90],
				[452,63.07],
				[453,63.28],
				[454,63.20],
				[455,63.35],
				[456,63.35],
				[457,63.64],
				[458,63.97],
				[459,63.82],
				[460,64.01],
				[461,64.18],
				[462,64.30],
				[463,64.47],
				[464,64.71],
				[465,64.91],
				[466,64.93],
				[467,65.02],
				[468,65.24],
				[469,65.45],
				[470,65.45],
				[471,65.70],
				[472,65.78],
				[473,65.82],
				[474,66.08],
				[475,66.29],
				[476,66.29],
				[477,66.34],
				[478,66.56],
				[479,66.61],
				[480,66.90],
				[481,66.85],
				[482,67.01],
				[483,67.24],
				[484,67.25],
				[485,67.68],
				[486,67.67],
				[487,67.83],
				[488,67.94],
				[489,68.13],
				[490,68.23],
				[491,68.22],
				[492,68.51],
				[493,68.57],
				[494,68.88],
				[495,69.02],
				[496,69.03],
				[497,69.01],
				[498,69.18],
				[499,69.36],
				[500,69.56],
				[501,69.69],
				[502,69.86],
				[503,70.03],
				[504,70.02],
				[505,70.26],
				[506,70.23],
				[507,70.40],
				[508,70.67],
				[509,70.80],
				[510,71.02],
				[511,71.12],
				[512,71.13],
				[513,71.31],
				[514,71.50],
				[515,71.57],
				[516,71.72],
				[517,71.98],
				[518,71.86],
				[519,72.05],
				[520,72.26],
				[521,72.31],
				[522,72.44],
				[523,72.60],
				[524,72.86],
				[525,72.89],
				[526,73.06],
				[527,73.25],
				[528,73.29],
				[529,73.46],
				[530,73.66],
				[531,73.78],
				[532,73.94],
				[533,74.01],
				[534,74.09],
				[535,74.25],
				[536,74.54],
				[537,74.50],
				[538,74.65],
				[539,74.72],
				[540,74.91],
				[541,75.05],
				[542,75.22],
				[543,75.33],
				[544,75.50],
				[545,75.72],
				[546,75.78],
				[547,75.88],
				[548,76.05],
				[549,76.31],
				[550,76.42],
				[551,76.53],
				[552,76.63],
				[553,76.79],
				[554,76.97],
				[555,77.32],
				[556,77.20],
				[557,77.33],
				[558,77.43],
				[559,77.63],
				[560,77.74],
				[561,77.76],
				[562,77.98],
				[563,78.10],
				[564,78.17],
				[565,78.41],
				[566,78.61],
				[567,78.59],
				[568,78.70],
				[569,78.98],
				[570,79.07],
				[571,79.25],
				[572,79.35],
				[573,79.48],
				[574,79.75],
				[575,79.89],
				[576,80.25],
				[577,80.11],
				[578,80.44],
				[579,80.48],
				[580,80.65],
				[581,80.63],
				[582,80.78],
				[583,80.82],
				[584,81.01],
				[585,81.17],
				[586,81.26],
				[587,81.51],
				[588,81.56],
				[589,81.62],
				[590,81.81],
				[591,81.94],
				[592,82.02],
				[593,82.30],
				[594,82.52],
				[595,82.51],
				[596,82.62],
				[597,82.90],
				[598,83.01],
				[599,83.07],
				[600,83.32],
				[601,83.52],
				[602,83.56],
				[603,83.70],
				[604,83.83],
				[605,83.99],
				[606,84.08],
				[607,84.36],
				[608,84.37],
				[609,84.43],
				[610,84.54],
				[611,84.78],
				[612,84.94],
				[613,85.06],
				[614,85.21],
				[615,85.36],
				[616,85.32],
				[617,85.58],
				[618,85.65],
				[619,85.80],
				[620,85.85],
				[621,86.03],
				[622,86.23],
				[623,86.21],
				[624,86.45],
				[625,87.13],
				[626,86.77],
				[627,86.73],
				[628,86.74],
				[629,87.06],
				[630,87.09],
				[631,87.03],
				[632,87.29],
				[633,87.27],
				[634,87.37],
				[635,87.42],
				[636,87.60],
				[637,87.56],
				[638,87.65],
				[639,87.80],
				[640,87.80],
				[641,87.92],
				[642,88.18],
				[643,88.13],
				[644,88.31],
				[645,88.39],
				[646,88.46],
				[647,88.54],
				[648,88.77],
				[649,88.78],
				[650,88.97],
				[651,89.10],
				[652,89.10],
				[653,89.20],
				[654,89.31],
				[655,89.56],
				[656,89.49],
				[657,89.53],
				[658,89.78],
				[659,89.86],
				[660,89.93],
				[661,90.04],
				[662,90.08],
				[663,90.29],
				[664,90.47],
				[665,90.40],
				[666,90.50],
				[667,90.61],
				[668,90.70],
				[669,90.91],
				[670,90.92],
				[671,91.02],
				[672,91.09],
				[673,91.14],
				[674,91.28],
				[675,91.35],
				[676,91.50],
				[677,91.59],
				[678,91.87],
				[679,91.86],
				[680,91.83],
				[681,91.98],
				[682,92.10],
				[683,92.16],
				[684,92.33],
				[685,92.46],
				[686,92.42],
				[687,92.68],
				[688,92.72],
				[689,92.81],
				[690,92.93],
				[691,93.05],
				[692,93.08],
				[693,93.21],
				[694,93.22],
				[695,93.37],
				[696,93.57],
				[697,93.72],
				[698,93.67],
				[699,93.86],
				[700,93.96],
				[701,93.96],
				[702,94.20],
				[703,94.25],
				[704,94.41],
				[705,94.36],
				[706,94.56],
				[707,94.62],
				[708,94.72],
				[709,94.83],
				[710,94.98],
				[711,95.16],
				[712,95.10],
				[713,95.20],
				[714,95.30],
				[715,95.48],
				[716,95.57],
				[717,95.80],
				[718,95.86],
				[719,95.96],
				[720,96.00],
				[721,96.24],
				[722,96.23],
				[723,96.47],
				[724,96.55],
				[725,96.53],
				[726,96.60],
				[727,96.80],
				[728,96.78],
				[729,97.09],
				[730,97.22],
				[731,97.22],
				[732,97.40],
				[733,97.29],
				[734,97.49],
				[735,97.59],
				[736,97.85],
				[737,97.81],
				[738,98.04],
				[739,98.12],
				[740,98.13],
				[741,98.37],
				[742,98.53],
				[743,98.52],
				[744,98.68],
				[745,98.69],
				[746,98.74],
				[747,98.89],
				[748,99.04],
				[749,99.07],
				[750,99.25],
				[751,99.25],
				[752,99.36],
				[753,99.61],
				[754,99.66],
				[755,99.76],
				[756,100.06],
				[757,100.01],
				[758,100.08],
				[759,100.24],
				[760,100.33],
				[761,100.40],
				[762,100.57],
				[763,100.58],
				[764,100.71],
				[765,100.90],
				[766,100.85],
				[767,100.86],
				[768,101.35],
				[769,101.22],
				[770,101.24],
				[771,101.55],
				[772,101.48],
				[773,101.60],
				[774,101.80],
				[775,101.83],
				[776,101.88],
				[777,102.03],
				[778,102.22],
				[779,102.26],
				[780,102.42],
				[781,102.46],
				[782,102.56],
				[783,102.76],
				[784,102.80],
				[785,102.84],
				[786,103.02],
				[787,103.18],
				[788,103.17],
				[789,103.43],
				[790,103.59],
				[791,103.56],
				[792,103.69],
				[793,103.81],
				[794,104.06],
				[795,104.29],
				[796,104.12],
				[797,104.27],
				[798,104.38],
				[799,104.45],
				[800,104.73],
				[801,104.72],
				[802,104.86],
				[803,105.16],
				[804,105.05],
				[805,105.13],
				[806,105.41],
				[807,105.45],
				[808,105.42],
				[809,105.65],
				[810,105.73],
				[811,105.73],
				[812,106.07],
				[813,106.03],
				[814,105.98],
				[815,106.31],
				[816,106.39],
				[817,106.37],
				[818,106.75],
				[819,106.85],
				[820,106.84],
				[821,107.15],
				[822,107.10],
				[823,107.17],
				[824,107.50],
				[825,107.57],
				[826,107.52],
				[827,107.75],
				[828,107.89],
				[829,107.93],
				[830,108.12],
				[831,108.21],
				[832,108.25],
				[833,108.49],
				[834,108.38],
				[835,108.48],
				[836,108.77],
				[837,108.83],
				[838,108.79],
				[839,109.20],
				[840,109.19],
				[841,109.24],
				[842,109.57],
				[843,109.65],
				[844,109.56],
				[845,110.00],
				[846,110.00],
				[847,109.97],
				[848,110.22],
				[849,110.40],
				[850,110.64],
				[851,110.73],
				[852,110.77],
				[853,110.94],
				[854,111.07],
				[855,111.07],
				[856,111.38],
				[857,111.39],
				[858,111.33],
				[859,111.68],
				[860,111.78],
				[861,111.76],
				[862,112.07],
				[863,112.04],
				[864,112.01],
				[865,112.42],
				[866,112.27],
				[867,112.39],
				[868,112.51],
				[869,112.61],
				[870,112.76],
				[871,113.04],
				[872,113.00],
				[873,113.27],
				[874,113.43],
				[875,113.48],
				[876,113.49],
				[877,113.72],
				[878,113.75],
				[879,113.72],
				[880,113.92],
				[881,114.08],
				[882,114.12],
				[883,114.47],
				[884,114.56],
				[885,115.12],
				[886,115.31],
				[887,115.44],
				[888,115.49],
				[889,115.70],
				[890,115.68],
				[891,115.80],
				[892,116.17],
				[893,116.09],
				[894,116.14],
				[895,116.37],
				[896,116.50],
				[897,116.41],
				[898,116.71],
				[899,116.92],
				[900,116.86],
				[901,117.10],
				[902,117.15],
				[903,117.38],
				[904,117.60],
				[905,117.50],
				[906,117.86],
				[907,117.95],
				[908,118.00],
				[909,118.26],
				[910,118.20],
				[911,118.08],
				[912,118.54],
				[913,118.61],
				[914,118.74],
				[915,119.10],
				[916,118.97],
				[917,119.03],
				[918,119.36],
				[919,119.33],
				[920,119.44],
				[921,119.74],
				[922,119.84],
				[923,119.77],
				[924,120.04],
				[925,120.10],
				[926,120.10],
				[927,120.36],
				[928,120.53],
				[929,120.38],
				[930,120.73],
				[931,120.82],
				[932,120.77],
				[933,121.16],
				[934,121.12],
				[935,121.22],
				[936,121.51],
				[937,121.47],
				[938,121.63],
				[939,122.01],
				[940,121.85],
				[941,121.84],
				[942,122.24],
				[943,122.24],
				[944,122.24],
				[945,122.51],
				[946,122.58],
				[947,122.68],
				[948,122.95],
				[949,123.06],
				[950,123.14],
				[951,123.35],
				[952,123.32],
				[953,123.47],
				[954,123.82],
				[955,123.75],
				[956,123.69],
				[957,124.12],
				[958,124.11],
				[959,124.35],
				[960,124.40],
				[961,124.59],
				[962,124.62],
				[963,124.94],
				[964,124.97],
				[965,125.16],
				[966,125.33],
				[967,125.37],
				[968,125.48],
				[969,125.68],
				[970,125.63],
				[971,125.83],
				[972,125.97],
				[973,126.03],
				[974,126.22],
				[975,126.44],
				[976,126.40],
				[977,126.60],
				[978,126.94],
				[979,126.81],
				[980,126.99],
				[981,127.18],
				[982,127.19],
				[983,127.30],
				[984,127.40],
				[985,127.70],
				[986,127.65],
				[987,127.88],
				[988,127.99],
				[989,128.14],
				[990,128.30],
				[991,128.24],
				[992,128.42],
				[993,128.73],
				[994,128.78],
				[995,128.99],
				[996,129.06],
				[997,129.13],
				[998,129.32],
				[999,129.48],
				[1000,129.49],
				[1001,129.71],
				[1002,129.95],
				[1003,129.83],
				[1004,130.13],
				[1005,130.27],
				[1006,130.32],
				[1007,130.61],
				[1008,130.55],
				[1009,130.65],
				[1010,130.89],
				[1011,131.07],
				[1012,131.01],
				[1013,131.30],
				[1014,131.42],
				[1015,131.60],
				[1016,131.89],
				[1017,131.81],
				[1018,132.03],
				[1019,132.34],
				[1020,132.34],
				[1021,132.61],
				[1022,132.67],
				[1023,132.69],
				[1024,133.03],
				[1025,133.01],
				[1026,133.16],
				[1027,133.43],
				[1028,133.47],
				[1029,133.46],
				[1030,133.91],
				[1031,133.85],
				[1032,133.92],
				[1033,134.16],
				[1034,134.17],
				[1035,134.30],
				[1036,134.53],
				[1037,134.78],
				[1038,134.73],
				[1039,135.06],
				[1040,135.08],
				[1041,134.99],
				[1042,135.25],
				[1043,135.46],
				[1044,135.47],
				[1045,135.81],
				[1046,135.85],
				[1047,135.99],
				[1048,136.25],
				[1049,136.26],
				[1050,136.33],
				[1051,136.67],
				[1052,136.72],
				[1053,136.72],
				[1054,137.08],
				[1055,137.14],
				[1056,137.21],
				[1057,137.51],
				[1058,137.38],
				[1059,137.64],
				[1060,137.93],
				[1061,137.97],
				[1062,137.89],
				[1063,138.16],
				[1064,138.19],
				[1065,138.32],
				[1066,138.68],
				[1067,138.68],
				[1068,138.84],
				[1069,139.15],
				[1070,139.15],
				[1071,139.47],
				[1072,139.42],
				[1073,139.64],
				[1074,139.90],
				[1075,139.98],
				[1076,139.98],
				[1077,140.18],
				[1078,140.24],
				[1079,140.42],
				[1080,140.65],
				[1081,140.71],
				[1082,140.82],
				[1083,141.18],
				[1084,141.20],
				[1085,141.24],
				[1086,141.65],
				[1087,141.64],
				[1088,141.75],
				[1089,141.86],
				[1090,141.94],
				[1091,142.11],
				[1092,142.38],
				[1093,142.51],
				[1094,142.41],
				[1095,142.87],
				[1096,142.94],
				[1097,142.82],
				[1098,143.25],
				[1099,143.28],
				[1100,143.46],
				[1101,143.61],
				[1102,143.62],
				[1103,143.88],
				[1104,144.04],
				[1105,144.19],
				[1106,144.19],
				[1107,144.60],
				[1108,144.60],
				[1109,144.63],
				[1110,145.06],
				[1111,145.04],
				[1112,145.05],
				[1113,145.50],
				[1114,145.55],
				[1115,145.56],
				[1116,145.99],
				[1117,145.87],
				[1118,145.94],
				[1119,146.28],
				[1120,146.26],
				[1121,146.33],
				[1122,146.71],
				[1123,146.72],
				[1124,146.87],
				[1125,147.19],
				[1126,147.28],
				[1127,147.26],
				[1128,147.50],
				[1129,147.70],
				[1130,147.94],
				[1131,148.01],
				[1132,148.18],
				[1133,148.35],
				[1134,148.54],
				[1135,148.66],
				[1136,148.76],
				[1137,149.08],
				[1138,148.99],
				[1139,149.03],
				[1140,149.28],
				[1141,149.38],
				[1142,149.71],
				[1143,150.39],
				[1144,150.45],
				[1145,150.78],
				[1146,150.81],
				[1147,150.78],
				[1148,151.14],
				[1149,151.31],
				[1150,151.26],
				[1151,151.55],
				[1152,151.58],
				[1153,151.65],
				[1154,151.90],
				[1155,152.07],
				[1156,152.08],
				[1157,152.33],
				[1158,152.50],
				[1159,152.56],
				[1160,152.73],
				[1161,153.10],
				[1162,153.21],
				[1163,153.31],
				[1164,153.48],
				[1165,153.38],
				[1166,153.70],
				[1167,153.80],
				[1168,153.99],
				[1169,154.19],
				[1170,154.32],
				[1171,154.61],
				[1172,154.80],
				[1173,154.83],
				[1174,154.92],
				[1175,154.86],
				[1176,155.42],
				[1177,155.43],
				[1178,155.59],
				[1179,155.76],
				[1180,155.96],
				[1181,156.00],
				[1182,156.14],
				[1183,156.34],
				[1184,156.47],
				[1185,156.68],
				[1186,156.71],
				[1187,156.94],
				[1188,156.91],
				[1189,157.16],
				[1190,157.26],
				[1191,157.40],
				[1192,157.69],
				[1193,157.85],
				[1194,157.90],
				[1195,158.08],
				[1196,158.10],
				[1197,158.18],
				[1198,158.68],
				[1199,158.69],
				[1200,158.79],
				[1201,159.12],
				[1202,158.99],
				[1203,159.25],
				[1204,159.53],
				[1205,159.78],
				[1206,159.86],
				[1207,159.93],
				[1208,160.18],
				[1209,160.29],
				[1210,160.80],
				[1211,160.63],
				[1212,160.67],
				[1213,160.96],
				[1214,161.09],
				[1215,161.40],
				[1216,161.53],
				[1217,161.48],
				[1218,161.63],
				[1219,161.94],
				[1220,162.01],
				[1221,162.24],
				[1222,162.36],
				[1223,162.40],
				[1224,162.74],
				[1225,162.99],
				[1226,163.12],
				[1227,163.29],
				[1228,163.34],
				[1229,163.53],
				[1230,163.60],
				[1231,163.96],
				[1232,163.88],
				[1233,164.11],
				[1234,164.40],
				[1235,164.47],
				[1236,164.70],
				[1237,164.69],
				[1238,164.83],
				[1239,165.31],
				[1240,165.29],
				[1241,165.37],
				[1242,165.68],
				[1243,165.92],
				[1244,165.82],
				[1245,166.22],
				[1246,166.08],
				[1247,166.25],
				[1248,166.64],
				[1249,166.54],
				[1250,166.67],
				[1251,167.08],
				[1252,167.14],
				[1253,167.21],
				[1254,167.38],
				[1255,167.61],
				[1256,167.62],
				[1257,167.94],
				[1258,168.04],
				[1259,168.00],
				[1260,168.35],
				[1261,168.53],
				[1262,168.51],
				[1263,169.08],
				[1264,168.95],
				[1265,169.16],
				[1266,169.47],
				[1267,169.56],
				[1268,169.79],
				[1269,169.92],
				[1270,169.96],
				[1271,170.02],
				[1272,170.49],
				[1273,170.33],
				[1274,170.45],
				[1275,170.75],
				[1276,170.88],
				[1277,171.00],
				[1278,171.45],
				[1279,171.38],
				[1280,171.35],
				[1281,171.88],
				[1282,171.83],
				[1283,171.90],
				[1284,172.47],
				[1285,172.35],
				[1286,172.53],
				[1287,172.88],
				[1288,172.78],
				[1289,172.93],
				[1290,173.38],
				[1291,173.37],
				[1292,173.74],
				[1293,173.69],
				[1294,173.89],
				[1295,174.24],
				[1296,174.35],
				[1297,174.41],
				[1298,174.75],
				[1299,174.87],
				[1300,174.81],
				[1301,175.18],
				[1302,175.31],
				[1303,175.41],
				[1304,175.69],
				[1305,175.83],
				[1306,176.01],
				[1307,176.46],
				[1308,176.27],
				[1309,176.43],
				[1310,176.81],
				[1311,176.91],
				[1312,177.01],
				[1313,177.25],
				[1314,177.29],
				[1315,177.33],
				[1316,177.85],
				[1317,177.81],
				[1318,177.89],
				[1319,178.25],
				[1320,178.28],
				[1321,178.32],
				[1322,178.65],
				[1323,178.90],
				[1324,178.82],
				[1325,179.09],
				[1326,179.22],
				[1327,179.40],
				[1328,179.53],
				[1329,179.80],
				[1330,179.89],
				[1331,180.25],
				[1332,180.39],
				[1333,180.60],
				[1334,180.46],
				[1335,180.74],
				[1336,180.95],
				[1337,181.31],
				[1338,181.44],
				[1339,181.47],
				[1340,181.87],
				[1341,181.99],
				[1342,181.96],
				[1343,182.35],
				[1344,182.36],
				[1345,182.31],
				[1346,182.60],
				[1347,182.79],
				[1348,183.02],
				[1349,183.42],
				[1350,183.30],
				[1351,183.72],
				[1352,183.85],
				[1353,183.83],
				[1354,184.23],
				[1355,184.41],
				[1356,184.49],
				[1357,184.78],
				[1358,184.69],
				[1359,184.88],
				[1360,185.36],
				[1361,185.18],
				[1362,185.44],
				[1363,185.96],
				[1364,185.76],
				[1365,186.08],
				[1366,186.32],
				[1367,186.40],
				[1368,186.47],
				[1369,186.88],
				[1370,187.01],
				[1371,186.96],
				[1372,187.31],
				[1373,187.36],
				[1374,187.48],
				[1375,187.90],
				[1376,187.81],
				[1377,187.99],
				[1378,188.36],
				[1379,188.37],
				[1380,188.36],
				[1381,188.96],
				[1382,188.97],
				[1383,189.02],
				[1384,189.34],
				[1385,189.39],
				[1386,189.68],
				[1387,189.77],
				[1388,189.98],
				[1389,190.10],
				[1390,190.22],
				[1391,190.46],
				[1392,190.56],
				[1393,190.75],
				[1394,191.00],
				[1395,191.22],
				[1396,191.58],
				[1397,191.67],
				[1398,191.90],
				[1399,192.19],
				[1400,192.52],
				[1401,192.83],
				[1402,193.08],
				[1403,193.23],
				[1404,193.21],
				[1405,193.29],
				[1406,193.40],
				[1407,193.69],
				[1408,193.87],
				[1409,193.77],
				[1410,193.70],
				[1411,193.96],
				[1412,194.34],
				[1413,194.25],
				[1414,194.36],
				[1415,194.28],
				[1416,194.48],
				[1417,194.70],
				[1418,195.02],
				[1419,194.92],
				[1420,195.21],
				[1421,195.10],
				[1422,195.11],
				[1423,195.44],
				[1424,195.43],
				[1425,195.55],
				[1426,195.61],
				[1427,195.63],
				[1428,195.66],
				[1429,195.76],
				[1430,196.03],
				[1431,196.05],
				[1432,196.19],
				[1433,196.13],
				[1434,196.58],
				[1435,196.66],
				[1436,196.56],
				[1437,196.64],
				[1438,196.60],
				[1439,196.85],
				[1440,197.08],
				[1441,197.18],
				[1442,197.26],
				[1443,197.24],
				[1444,197.28],
				[1445,197.92],
				[1446,197.68],
				[1447,197.56],
				[1448,197.64],
				[1449,197.58],
				[1450,197.93],
				[1451,198.11],
				[1452,198.32],
				[1453,198.35],
				[1454,198.33],
				[1455,198.08],
				[1456,198.36],
				[1457,198.46],
				[1458,198.57],
				[1459,198.61],
				[1460,198.65],
				[1461,198.99],
				[1462,199.21],
				[1463,199.15],
				[1464,199.16],
				[1465,199.07],
				[1466,199.16],
				[1467,199.50],
				[1468,199.83],
				[1469,199.64],
				[1470,199.76],
				[1471,199.58],
				[1472,200.34],
				[1473,200.17],
				[1474,200.20],
				[1475,200.38],
				[1476,200.51],
				[1477,200.41],
				[1478,200.79],
				[1479,200.79],
				[1480,200.81],
				[1481,201.07],
				[1482,201.08],
				[1483,201.51],
				[1484,201.38],
				[1485,201.33],
				[1486,201.49],
				[1487,201.37],
				[1488,201.82],
				[1489,201.86],
				[1490,202.10],
				[1491,202.13],
				[1492,201.89],
				[1493,202.07],
				[1494,202.28],
				[1495,202.60],
				[1496,202.44],
				[1497,202.49],
				[1498,202.53],
				[1499,202.83],
				[1500,202.88],
				[1501,202.95],
				[1502,203.03],
				[1503,203.12],
				[1504,203.36],
				[1505,203.67],
				[1506,203.75],
				[1507,203.51],
				[1508,203.65],
				[1509,203.76],
				[1510,204.15],
				[1511,204.28],
				[1512,204.28],
				[1513,204.22],
				[1514,204.44],
				[1515,204.19],
				[1516,204.74],
				[1517,204.74],
				[1518,204.85],
				[1519,204.82],
				[1520,204.96],
				[1521,205.34],
				[1522,205.14],
				[1523,205.19],
				[1524,205.29],
				[1525,205.36],
				[1526,205.27],
				[1527,205.61],
				[1528,205.65],
				[1529,205.79],
				[1530,206.00],
				[1531,205.95],
				[1532,206.34],
				[1533,206.40],
				[1534,206.44],
				[1535,206.38],
				[1536,206.48],
				[1537,206.89],
				[1538,206.80],
				[1539,206.86],
				[1540,207.11],
				[1541,207.20],
				[1542,207.18],
				[1543,207.44],
				[1544,207.39],
				[1545,207.60],
				[1546,207.67],
				[1547,207.63],
				[1548,207.93],
				[1549,207.88],
				[1550,208.01],
				[1551,208.22],
				[1552,208.11],
				[1553,208.18],
				[1554,208.53],
				[1555,208.58],
				[1556,208.69],
				[1557,208.66],
				[1558,208.80],
				[1559,208.92],
				[1560,208.98],
				[1561,209.13],
				[1562,209.35],
				[1563,209.14],
				[1564,209.27],
				[1565,209.49],
				[1566,209.50],
				[1567,209.65],
				[1568,209.70],
				[1569,209.82],
				[1570,210.06],
				[1571,210.19],
				[1572,210.00],
				[1573,210.21],
				[1574,210.29],
				[1575,210.73],
				[1576,210.53],
				[1577,210.65],
				[1578,210.67],
				[1579,211.04],
				[1580,210.94],
				[1581,211.44],
				[1582,211.34],
				[1583,211.37],
				[1584,211.59],
				[1585,211.51],
				[1586,211.97],
				[1587,211.92],
				[1588,211.81],
				[1589,211.84],
				[1590,211.88],
				[1591,212.07],
				[1592,212.68],
				[1593,212.45],
				[1594,212.60],
				[1595,212.65],
				[1596,212.71],
				[1597,212.90],
				[1598,213.07],
				[1599,212.96],
				[1600,213.07],
				[1601,213.14],
				[1602,213.15],
				[1603,213.77],
				[1604,213.57],
				[1605,213.69],
				[1606,213.87],
				[1607,213.82],
				[1608,214.24],
				[1609,214.18],
				[1610,214.27],
				[1611,214.15],
				[1612,214.41],
				[1613,214.42],
				[1614,214.62],
				[1615,214.81],
				[1616,214.85],
				[1617,215.17],
				[1618,215.01],
				[1619,215.27],
				[1620,215.18],
				[1621,215.35],
				[1622,215.42],
				[1623,215.36],
				[1624,215.76],
				[1625,215.61],
				[1626,215.83],
				[1627,215.91],
				[1628,215.86],
				[1629,215.98],
				[1630,216.31],
				[1631,216.49],
				[1632,216.58],
				[1633,216.51],
				[1634,216.69],
				[1635,217.24],
				[1636,217.08],
				[1637,217.14],
				[1638,217.19],
				[1639,217.35],
				[1640,217.29],
				[1641,217.58],
				[1642,217.64],
				[1643,217.55],
				[1644,217.76],
				[1645,217.85],
				[1646,218.27],
				[1647,218.28],
				[1648,218.04],
				[1649,218.33],
				[1650,218.26],
				[1651,218.32],
				[1652,218.82],
				[1653,218.74],
				[1654,218.85],
				[1655,219.05],
				[1656,218.97],
				[1657,219.35],
				[1658,219.25],
				[1659,219.35],
				[1660,219.52],
				[1661,219.42],
				[1662,219.77],
				[1663,219.72],
				[1664,219.84],
				[1665,219.87],
				[1666,220.04],
				[1667,220.31],
				[1668,220.42],
				[1669,220.36],
				[1670,220.40],
				[1671,220.42],
				[1672,220.73],
				[1673,220.96],
				[1674,221.20],
				[1675,221.35],
				[1676,221.03],
				[1677,221.18],
				[1678,221.33],
				[1679,221.62],
				[1680,221.70],
				[1681,221.72],
				[1682,221.93],
				[1683,221.79],
				[1684,222.11],
				[1685,222.11],
				[1686,222.07],
				[1687,222.23],
				[1688,222.13],
				[1689,222.24],
				[1690,222.78],
				[1691,222.75],
				[1692,222.87],
				[1693,222.81],
				[1694,223.07],
				[1695,223.32],
				[1696,223.44],
				[1697,223.51],
				[1698,223.44],
				[1699,223.37],
				[1700,223.49],
				[1701,223.86],
				[1702,223.97],
				[1703,224.10],
				[1704,223.97],
				[1705,224.01],
				[1706,224.34],
				[1707,224.34],
				[1708,224.38],
				[1709,224.51],
				[1710,224.64],
				[1711,224.91],
				[1712,224.89],
				[1713,225.19],
				[1714,225.08],
				[1715,225.08],
				[1716,225.24],
				[1717,225.69],
				[1718,225.67],
				[1719,225.66],
				[1720,225.99],
				[1721,225.86],
				[1722,226.03],
				[1723,226.12],
				[1724,226.33],
				[1725,226.49],
				[1726,226.34],
				[1727,226.46],
				[1728,226.93],
				[1729,226.77],
				[1730,226.81],
				[1731,226.82],
				[1732,226.97],
				[1733,227.31],
				[1734,227.52],
				[1735,227.40],
				[1736,227.51],
				[1737,227.54],
				[1738,227.72],
				[1739,227.99],
				[1740,227.87],
				[1741,228.02],
				[1742,228.03],
				[1743,228.28],
				[1744,228.61],
				[1745,228.75],
				[1746,228.70],
				[1747,228.75],
				[1748,229.03],
				[1749,229.27],
				[1750,229.18],
				[1751,229.28],
				[1752,229.40],
				[1753,229.38],
				[1754,229.64],
				[1755,229.75],
				[1756,229.65],
				[1757,229.84],
				[1758,229.87],
				[1759,229.81],
				[1760,230.24],
				[1761,230.27],
				[1762,230.47],
				[1763,230.59],
				[1764,230.44],
				[1765,230.46],
				[1766,231.04],
				[1767,231.04],
				[1768,231.01],
				[1769,231.15],
				[1770,231.24],
				[1771,231.66],
				[1772,231.79],
				[1773,231.61],
				[1774,231.79],
				[1775,231.86],
				[1776,231.86],
				[1777,232.29],
				[1778,232.23],
				[1779,232.36],
				[1780,232.47],
				[1781,232.35],
				[1782,232.98],
				[1783,233.07],
				[1784,233.06],
				[1785,232.99],
				[1786,232.95],
				[1787,232.91],
				[1788,233.45],
				[1789,233.63],
				[1790,233.48],
				[1791,233.55],
				[1792,233.66],
				[1793,234.09],
				[1794,234.08],
				[1795,234.42],
				[1796,234.34],
				[1797,234.14],
				[1798,234.61],
				[1799,234.66],
				[1800,234.85],
				[1801,234.92],
				[1802,234.77],
				[1803,234.97],
				[1804,235.50],
				[1805,235.33],
				[1806,235.37],
				[1807,235.72],
				[1808,235.39],
				[1809,235.93],
				[1810,235.96],
				[1811,236.02],
				[1812,235.99],
				[1813,236.19],
				[1814,236.42],
				[1815,236.55],
				[1816,236.45],
				[1817,236.67],
				[1818,236.76],
				[1819,236.64],
				[1820,237.00],
				[1821,236.98],
				[1822,237.18],
				[1823,237.25],
				[1824,237.26],
				[1825,237.14],
				[1826,237.53],
				[1827,237.59],
				[1828,237.68],
				[1829,237.78],
				[1830,237.74],
				[1831,238.25],
				[1832,238.33],
				[1833,238.47],
				[1834,238.29],
				[1835,238.43],
				[1836,238.74],
				[1837,238.87],
				[1838,239.12],
				[1839,239.05],
				[1840,238.94],
				[1841,239.15],
				[1842,239.44],
				[1843,239.50],
				[1844,239.65],
				[1845,239.62],
				[1846,240.13],
				[1847,240.25],
				[1848,240.21],
				[1849,240.26],
				[1850,240.17],
				[1851,240.41],
				[1852,240.53],
				[1853,240.84],
				[1854,240.73],
				[1855,240.82],
				[1856,240.95],
				[1857,241.01],
				[1858,241.60],
				[1859,241.54],
				[1860,241.61],
				[1861,241.75],
				[1862,241.82],
				[1863,241.75],
				[1864,242.11],
				[1865,242.23],
				[1866,242.28],
				[1867,242.31],
				[1868,242.27],
				[1869,242.75],
				[1870,242.94],
				[1871,242.65],
				[1872,242.84],
				[1873,242.96],
				[1874,242.84],
				[1875,243.27],
				[1876,243.34],
				[1877,243.36],
				[1878,243.42],
				[1879,243.53],
				[1880,244.06],
				[1881,243.92],
				[1882,243.90],
				[1883,244.22],
				[1884,244.07],
				[1885,244.59],
				[1886,244.57],
				[1887,244.48],
				[1888,244.76],
				[1889,244.94],
				[1890,244.97],
				[1891,245.18],
				[1892,245.32],
				[1893,245.28],
				[1894,245.46],
				[1895,245.56],
				[1896,245.74],
				[1897,246.19],
				[1898,245.88],
				[1899,245.84],
				[1900,246.05],
				[1901,246.06],
				[1902,246.59],
				[1903,246.71],
				[1904,246.64],
				[1905,246.70],
				[1906,246.81],
				[1907,247.50],
				[1908,247.50],
				[1909,247.44],
				[1910,247.26],
				[1911,247.54],
				[1912,247.66],
				[1913,247.85],
				[1914,247.94],
				[1915,247.98],
				[1916,248.09],
				[1917,248.25],
				[1918,248.40],
				[1919,248.51],
				[1920,248.67],
				[1921,248.85],
				[1922,248.91],
				[1923,249.37],
				[1924,249.48],
				[1925,249.22],
				[1926,249.46],
				[1927,249.65],
				[1928,249.62],
				[1929,249.76],
				[1930,250.09],
				[1931,250.01],
				[1932,250.01],
				[1933,250.30],
				[1934,250.60],
				[1935,250.87],
				[1936,250.63],
				[1937,250.65],
				[1938,250.81],
				[1939,250.69],
				[1940,251.25],
				[1941,251.21],
				[1942,251.35],
				[1943,251.24],
				[1944,251.41],
				[1945,251.94],
				[1946,251.88],
				[1947,251.98],
				[1948,251.84],
				[1949,251.84],
				[1950,252.15],
				[1951,252.48],
				[1952,252.54],
				[1953,252.32],
				[1954,252.64],
				[1955,252.82],
				[1956,253.12],
				[1957,253.11],
				[1958,253.23],
				[1959,253.20],
				[1960,253.22],
				[1961,253.31],
				[1962,253.50],
				[1963,253.58],
				[1964,253.68],
				[1965,253.62],
				[1966,253.90],
				[1967,254.17],
				[1968,254.49],
				[1969,254.58],
				[1970,254.42],
				[1971,254.37],
				[1972,255.28],
				[1973,255.08],
				[1974,255.02],
				[1975,255.13],
				[1976,255.07],
				[1977,255.18],
				[1978,255.57],
				[1979,255.57],
				[1980,255.55],
				[1981,255.50],
				[1982,255.72],
				[1983,256.35],
				[1984,256.16],
				[1985,256.38],
				[1986,256.51],
				[1987,256.59],
				[1988,256.56],
				[1989,256.83],
				[1990,257.00],
				[1991,257.07],
				[1992,256.96],
				[1993,257.01],
				[1994,257.64],
				[1995,257.33],
				[1996,257.46],
				[1997,257.63],
				[1998,257.57],
				[1999,257.61],
				[2000,258.16],
				[2001,258.23],
				[2002,258.32],
				[2003,258.26],
				[2004,258.30],
				[2005,259.03],
				[2006,258.92],
				[2007,258.65],
				[2008,258.75],
				[2009,258.84],
				[2010,259.39],
				[2011,259.24],
				[2012,259.35],
				[2013,259.34],
				[2014,259.56],
				[2015,259.54],
				[2016,259.76],
				[2017,259.87],
				[2018,259.76],
				[2019,260.04],
				[2020,259.97],
				[2021,260.33],
				[2022,260.57],
				[2023,260.53],
				[2024,260.78],
				[2025,260.77],
				[2026,261.01],
				[2027,261.28],
				[2028,261.23],
				[2029,261.34],
				[2030,261.67],
				[2031,261.67],
				[2032,261.62],
				[2033,261.88],
				[2034,261.91],
				[2035,261.92],
				[2036,261.86],
				[2037,261.90],
				[2038,262.66],
				[2039,262.56],
				[2040,262.65],
				[2041,262.68],
				[2042,262.75],
				[2043,263.38],
				[2044,263.16],
				[2045,263.29],
				[2046,263.11],
				[2047,263.24],
				[2048,263.68],
				[2049,263.80],
				[2050,263.97],
				[2051,263.88],
				[2052,263.98],
				[2053,263.98],
				[2054,264.41],
				[2055,264.61],
				[2056,264.50],
				[2057,264.98],
				[2058,264.96],
				[2059,265.10],
				[2060,265.11],
				[2061,265.47],
				[2062,265.25],
				[2063,265.60],
				[2064,265.34],
				[2065,265.64],
				[2066,266.12],
				[2067,266.20],
				[2068,266.34],
				[2069,266.20],
				[2070,266.54],
				[2071,266.73],
				[2072,266.69],
				[2073,266.93],
				[2074,266.88],
				[2075,266.85],
				[2076,267.36],
				[2077,267.49],
				[2078,267.69],
				[2079,267.67],
				[2080,267.54],
				[2081,267.77],
				[2082,267.92],
				[2083,268.01],
				[2084,268.06],
				[2085,268.06],
				[2086,268.12],
				[2087,268.54],
				[2088,268.63],
				[2089,268.78],
				[2090,268.79],
				[2091,268.80],
				[2092,269.26],
				[2093,269.09],
				[2094,269.54],
				[2095,269.46],
				[2096,269.46],
				[2097,269.86],
				[2098,269.74],
				[2099,270.12],
				[2100,270.10],
				[2101,270.10],
				[2102,270.07],
				[2103,270.46],
				[2104,270.72],
				[2105,270.88],
				[2106,271.82],
				[2107,271.92],
				[2108,272.09],
				[2109,272.30],
				[2110,272.36],
				[2111,272.42],
				[2112,272.36],
				[2113,272.56],
				[2114,272.84],
				[2115,273.13],
				[2116,273.24],
				[2117,273.30],
				[2118,273.09],
				[2119,273.65],
				[2120,273.47],
				[2121,273.96],
				[2122,273.77],
				[2123,273.89],
				[2124,274.21],
				[2125,274.59],
				[2126,274.44],
				[2127,274.90],
				[2128,274.78],
				[2129,274.82],
				[2130,275.13],
				[2131,275.06],
				[2132,275.40],
				[2133,275.32],
				[2134,275.42],
				[2135,275.72],
				[2136,275.79],
				[2137,275.77],
				[2138,275.95],
				[2139,276.01],
				[2140,275.97],
				[2141,276.51],
				[2142,276.45],
				[2143,276.75],
				[2144,276.63],
				[2145,276.88],
				[2146,277.24],
				[2147,276.95],
				[2148,277.35],
				[2149,277.23],
				[2150,277.37],
				[2151,277.32],
				[2152,277.92],
				[2153,277.83],
				[2154,277.81],
				[2155,278.05],
				[2156,278.01],
				[2157,278.36],
				[2158,278.48],
				[2159,278.51],
				[2160,278.76],
				[2161,278.82],
				[2162,278.58],
				[2163,279.11],
				[2164,279.36],
				[2165,279.25],
				[2166,279.19],
				[2167,279.24],
				[2168,279.73],
				[2169,279.95],
				[2170,279.93],
				[2171,279.85],
				[2172,279.81],
				[2173,279.85],
				[2174,280.52],
				[2175,280.61],
				[2176,280.34],
				[2177,280.48],
				[2178,280.80],
				[2179,281.28],
				[2180,281.35],
				[2181,281.37],
				[2182,281.48],
				[2183,281.49],
				[2184,281.91],
				[2185,281.72],
				[2186,281.72],
				[2187,281.61],
				[2188,282.07],
				[2189,281.99],
				[2190,282.34],
				[2191,282.47],
				[2192,282.71],
				[2193,282.87],
				[2194,282.74],
				[2195,283.10],
				[2196,283.20],
				[2197,283.36],
				[2198,283.45],
				[2199,283.33],
				[2200,283.45],
				[2201,283.88],
				[2202,283.77],
				[2203,284.00],
				[2204,284.36],
				[2205,284.00],
				[2206,284.79],
				[2207,284.57],
				[2208,284.68],
				[2209,284.73],
				[2210,284.79],
				[2211,285.11],
				[2212,285.21],
				[2213,285.44],
				[2214,285.59],
				[2215,285.47],
				[2216,285.77],
				[2217,286.09],
				[2218,286.12],
				[2219,285.98],
				[2220,286.21],
				[2221,286.23],
				[2222,286.65],
				[2223,286.51],
				[2224,286.46],
				[2225,286.66],
				[2226,286.90],
				[2227,286.96],
				[2228,287.69],
				[2229,287.38],
				[2230,287.50],
				[2231,287.62],
				[2232,287.70],
				[2233,288.31],
				[2234,288.11],
				[2235,288.15],
				[2236,288.21],
				[2237,288.10],
				[2238,288.37],
				[2239,289.13],
				[2240,289.08],
				[2241,289.23],
				[2242,289.01],
				[2243,289.31],
				[2244,289.61],
				[2245,289.64],
				[2246,289.54],
				[2247,289.74],
				[2248,289.80],
				[2249,289.92],
				[2250,290.23],
				[2251,290.59],
				[2252,290.43],
				[2253,290.49],
				[2254,290.59],
				[2255,291.06],
				[2256,291.05],
				[2257,291.02],
				[2258,291.47],
				[2259,291.04],
				[2260,291.25],
				[2261,291.78],
				[2262,291.94],
				[2263,292.03],
				[2264,292.03],
				[2265,292.09],
				[2266,292.59],
				[2267,292.80],
				[2268,292.75],
				[2269,292.70],
				[2270,292.68],
				[2271,293.24],
				[2272,293.41],
				[2273,293.36],
				[2274,293.69],
				[2275,293.36],
				[2276,293.54],
				[2277,294.07],
				[2278,293.97],
				[2279,294.03],
				[2280,294.11],
				[2281,294.15],
				[2282,294.73],
				[2283,294.62],
				[2284,294.77],
				[2285,294.71],
				[2286,294.90],
				[2287,295.14],
				[2288,295.52],
				[2289,295.53],
				[2290,295.26],
				[2291,295.54],
				[2292,295.70],
				[2293,296.14],
				[2294,296.11],
				[2295,296.15],
				[2296,296.13],
				[2297,296.27],
				[2298,296.41],
				[2299,296.76],
				[2300,296.93],
				[2301,296.85],
				[2302,296.87],
				[2303,296.88],
				[2304,297.70],
				[2305,297.66],
				[2306,297.61],
				[2307,297.56],
				[2308,297.57],
				[2309,298.19],
				[2310,298.51],
				[2311,298.61],
				[2312,298.60],
				[2313,298.56],
				[2314,298.68],
				[2315,299.30],
				[2316,299.05],
				[2317,299.27],
				[2318,299.20],
				[2319,299.49],
				[2320,299.70],
				[2321,300.11],
				[2322,299.73],
				[2323,299.95],
				[2324,300.01],
				[2325,299.77],
				[2326,300.38],
				[2327,300.29],
				[2328,300.87],
				[2329,300.64],
				[2330,300.81],
				[2331,300.98],
				[2332,300.93],
				[2333,301.25],
				[2334,301.27],
				[2335,301.37],
				[2336,301.38],
				[2337,301.99],
				[2338,302.05],
				[2339,301.96],
				[2340,301.98],
				[2341,301.75],
				[2342,302.44],
				[2343,302.35],
				[2344,302.48],
				[2345,302.45],
				[2346,302.51],
				[2347,302.76],
				[2348,303.38],
				[2349,303.42],
				[2350,303.09],
				[2351,303.50],
				[2352,303.47],
				[2353,303.84],
				[2354,304.01],
				[2355,303.99],
				[2356,304.22],
				[2357,304.32],
				[2358,304.73],
				[2359,304.62],
				[2360,304.80],
				[2361,304.96],
				[2362,304.57],
				[2363,305.02],
				[2364,305.25],
				[2365,305.50],
				[2366,305.33],
				[2367,305.65],
				[2368,305.42],
				[2369,305.72],
				[2370,306.16],
				[2371,305.90],
				[2372,306.07],
				[2373,306.51],
				[2374,306.65],
				[2375,306.93],
				[2376,306.98],
				[2377,307.16],
				[2378,307.41],
				[2379,307.19],
				[2380,307.37],
				[2381,307.60],
				[2382,307.57],
				[2383,307.58],
				[2384,307.77],
				[2385,307.89],
				[2386,308.05],
				[2387,308.52],
				[2388,308.28],
				[2389,308.56],
				[2390,308.73],
				[2391,309.06],
				[2392,309.03],
				[2393,309.31],
				[2394,309.23],
				[2395,309.57],
				[2396,310.00],
				[2397,309.65],
				[2398,310.00],
				[2399,309.88],
				[2400,309.80],
				[2401,310.08],
				[2402,310.12],
				[2403,310.26],
				[2404,310.86],
				[2405,310.85],
				[2406,310.71],
				[2407,311.03],
				[2408,311.17],
				[2409,311.54],
				[2410,311.56],
				[2411,311.29],
				[2412,311.44],
				[2413,311.77],
				[2414,311.95],
				[2415,312.00],
				[2416,312.12],
				[2417,312.21],
				[2418,312.33],
				[2419,312.54],
				[2420,312.86],
				[2421,313.01],
				[2422,312.82],
				[2423,313.18],
				[2424,313.39],
				[2425,313.22],
				[2426,313.51],
				[2427,313.71],
				[2428,313.49],
				[2429,313.89],
				[2430,313.72],
				[2431,314.44],
				[2432,314.14],
				[2433,314.29],
				[2434,314.32],
				[2435,314.53],
				[2436,314.94],
				[2437,315.03],
				[2438,315.09],
				[2439,314.95],
				[2440,315.25],
				[2441,315.50],
				[2442,315.61],
				[2443,315.77],
				[2444,315.88],
				[2445,316.15],
				[2446,316.07],
				[2447,315.99],
				[2448,316.48],
				[2449,316.37],
				[2450,316.70],
				[2451,316.84],
				[2452,316.72],
				[2453,317.08],
				[2454,317.26],
				[2455,317.33],
				[2456,317.68],
				[2457,317.54],
				[2458,317.79],
				[2459,318.30],
				[2460,318.38],
				[2461,318.06],
				[2462,318.94],
				[2463,318.62],
				[2464,318.98],
				[2465,319.39],
				[2466,318.82],
				[2467,319.38],
				[2468,319.69],
				[2469,319.64],
				[2470,319.87],
				[2471,319.74],
				[2472,319.75],
				[2473,320.22],
				[2474,320.48],
				[2475,320.42],
				[2476,320.19],
				[2477,320.25],
				[2478,321.10],
				[2479,320.81],
				[2480,321.00],
				[2481,321.04],
				[2482,321.41],
				[2483,321.77],
				[2484,321.72],
				[2485,321.67],
				[2486,321.77],
				[2487,322.15],
				[2488,322.40],
				[2489,322.74],
				[2490,322.55],
				[2491,322.44],
				[2492,323.07],
				[2493,322.88],
				[2494,323.32],
				[2495,323.18],
				[2496,323.52],
				[2497,323.49],
				[2498,323.61],
				[2499,323.44],
				[2500,324.07],
				[2501,324.10],
				[2502,324.22],
				[2503,324.07],
				[2504,324.36],
				[2505,324.75],
				[2506,324.68],
				[2507,324.72],
				[2508,324.78],
				[2509,324.77],
				[2510,324.92],
				[2511,325.33],
				[2512,325.23],
				[2513,325.28],
				[2514,325.64],
				[2515,325.81],
				[2516,325.95],
				[2517,325.93],
				[2518,326.05],
				[2519,326.28],
				[2520,326.43],
				[2521,326.31],
				[2522,327.08],
				[2523,327.04],
				[2524,327.32],
				[2525,327.31],
				[2526,327.31],
				[2527,327.65],
				[2528,327.71],
				[2529,327.73],
				[2530,327.65],
				[2531,327.93],
				[2532,328.18],
				[2533,328.20],
				[2534,328.67],
				[2535,328.39],
				[2536,328.54],
				[2537,328.39],
				[2538,328.95],
				[2539,329.41],
				[2540,329.47],
				[2541,329.33],
				[2542,329.64],
				[2543,329.93],
				[2544,330.17],
				[2545,329.94],
				[2546,330.34],
				[2547,330.17],
				[2548,330.48],
				[2549,330.77],
				[2550,330.77],
				[2551,330.85],
				[2552,331.06],
				[2553,331.20],
				[2554,331.57],
				[2555,331.45],
				[2556,331.39],
				[2557,331.66],
				[2558,331.55],
				[2559,331.60],
				[2560,332.23],
				[2561,332.29],
				[2562,332.29],
				[2563,332.43],
				[2564,332.59],
				[2565,332.87],
				[2566,333.04],
				[2567,333.21],
				[2568,333.09],
				[2569,333.18],
				[2570,333.71],
				[2571,334.12],
				[2572,333.75],
				[2573,333.94],
				[2574,333.72],
				[2575,334.18],
				[2576,334.50],
				[2577,334.72],
				[2578,334.68],
				[2579,335.02],
				[2580,334.84],
				[2581,335.68],
				[2582,335.54],
				[2583,335.66],
				[2584,335.66],
				[2585,336.09],
				[2586,335.88],
				[2587,336.24],
				[2588,336.19],
				[2589,336.41],
				[2590,336.20],
				[2591,336.31],
				[2592,337.12],
				[2593,337.31],
				[2594,337.05],
				[2595,337.29],
				[2596,337.42],
				[2597,337.16],
				[2598,337.97],
				[2599,338.16],
				[2600,338.04],
				[2601,338.15],
				[2602,338.31],
				[2603,338.68],
				[2604,338.87],
				[2605,338.76],
				[2606,338.84],
				[2607,338.73],
				[2608,338.90],
				[2609,339.47],
				[2610,339.32],
				[2611,339.27],
				[2612,339.43],
				[2613,339.50],
				[2614,340.31],
				[2615,340.17],
				[2616,340.16],
				[2617,339.93],
				[2618,340.18],
				[2619,340.86],
				[2620,340.91],
				[2621,340.89],
				[2622,341.16],
				[2623,341.06],
				[2624,341.04],
				[2625,341.82],
				[2626,341.77],
				[2627,341.98],
				[2628,341.67],
				[2629,342.01],
				[2630,342.24],
				[2631,342.41],
				[2632,342.63],
				[2633,342.42],
				[2634,342.96],
				[2635,342.49],
				[2636,343.24],
				[2637,343.33],
				[2638,343.65],
				[2639,343.67],
				[2640,343.43],
				[2641,343.98],
				[2642,344.31],
				[2643,344.50],
				[2644,344.61],
				[2645,344.40],
				[2646,344.25],
				[2647,345.09],
				[2648,344.74],
				[2649,345.09],
				[2650,344.90],
				[2651,345.28],
				[2652,345.75],
				[2653,345.73],
				[2654,345.80],
				[2655,345.91],
				[2656,345.97],
				[2657,346.22],
				[2658,346.58],
				[2659,346.37],
				[2660,346.50],
				[2661,346.45],
				[2662,346.50],
				[2663,347.38],
				[2664,347.37],
				[2665,347.34],
				[2666,347.57],
				[2667,347.47],
				[2668,347.90],
				[2669,347.99],
				[2670,347.93],
				[2671,347.91],
				[2672,348.15],
				[2673,348.25],
				[2674,349.07],
				[2675,348.85],
				[2676,348.88],
				[2677,348.90],
				[2678,348.86],
				[2679,349.79],
				[2680,349.96],
				[2681,349.69],
				[2682,349.83],
				[2683,349.70],
				[2684,349.82],
				[2685,350.40],
				[2686,350.28],
				[2687,349.91],
				[2688,350.17],
				[2689,350.30],
				[2690,350.89],
				[2691,350.89],
				[2692,351.07],
				[2693,351.27],
				[2694,351.29],
				[2695,351.31],
				[2696,351.58],
				[2697,351.74],
				[2698,352.06],
				[2699,351.78],
				[2700,351.93],
				[2701,352.30],
				[2702,352.45],
				[2703,352.56],
				[2704,352.83],
				[2705,352.57],
				[2706,353.26],
				[2707,353.36],
				[2708,353.39],
				[2709,353.56],
				[2710,353.38],
				[2711,353.42],
				[2712,353.91],
				[2713,354.02],
				[2714,353.95],
				[2715,354.01],
				[2716,354.40],
				[2717,354.94],
				[2718,355.12],
				[2719,354.84],
				[2720,354.84],
				[2721,354.93],
				[2722,355.02],
				[2723,355.67],
				[2724,355.56],
				[2725,355.78],
				[2726,356.02],
				[2727,355.99],
				[2728,356.59],
				[2729,356.43],
				[2730,356.65],
				[2731,356.73],
				[2732,356.77],
				[2733,356.62],
				[2734,357.49],
				[2735,357.47],
				[2736,357.64],
				[2737,357.64],
				[2738,357.71],
				[2739,358.76],
				[2740,358.38],
				[2741,358.63],
				[2742,358.48],
				[2743,358.57],
				[2744,359.26],
				[2745,359.24],
				[2746,359.28],
				[2747,359.28],
				[2748,359.46],
				[2749,359.41],
				[2750,359.64],
				[2751,359.86],
				[2752,360.07],
				[2753,359.89],
				[2754,360.33],
				[2755,360.57],
				[2756,360.63],
				[2757,360.50],
				[2758,360.78],
				[2759,360.89],
				[2760,360.84],
				[2761,361.34],
				[2762,361.58],
				[2763,361.55],
				[2764,361.57],
				[2765,361.66],
				[2766,362.19],
				[2767,362.08],
				[2768,362.43],
				[2769,362.47],
				[2770,362.29],
				[2771,362.38],
				[2772,363.00],
				[2773,363.08],
				[2774,362.94],
				[2775,363.15],
				[2776,363.21],
				[2777,363.83],
				[2778,363.88],
				[2779,364.03],
				[2780,363.94],
				[2781,364.27],
				[2782,364.14],
				[2783,364.86],
				[2784,364.86],
				[2785,364.92],
				[2786,364.62],
				[2787,364.93],
				[2788,365.43],
				[2789,365.64],
				[2790,365.72],
				[2791,366.10],
				[2792,366.30],
				[2793,366.91],
				[2794,366.84],
				[2795,367.07],
				[2796,366.85],
				[2797,366.73],
				[2798,366.73],
				[2799,367.78],
				[2800,367.62],
				[2801,367.53],
				[2802,367.94],
				[2803,367.87],
				[2804,368.86],
				[2805,368.73],
				[2806,368.68],
				[2807,368.76],
				[2808,368.58],
				[2809,368.52],
				[2810,369.37],
				[2811,370.86],
				[2812,370.66],
				[2813,370.84],
				[2814,371.01],
				[2815,371.53],
				[2816,371.41],
				[2817,371.59],
				[2818,371.67],
				[2819,371.81],
				[2820,371.85],
				[2821,372.68],
				[2822,372.64],
				[2823,372.69],
				[2824,372.71],
				[2825,372.74],
				[2826,373.05],
				[2827,373.34],
				[2828,373.23],
				[2829,373.33],
				[2830,373.54],
				[2831,374.03],
				[2832,374.17],
				[2833,374.19],
				[2834,374.24],
				[2835,374.46],
				[2836,374.35],
				[2837,374.99],
				[2838,375.13],
				[2839,374.97],
				[2840,375.03],
				[2841,374.96],
				[2842,375.57],
				[2843,375.82],
				[2844,375.93],
				[2845,375.68],
				[2846,375.54],
				[2847,375.77],
				[2848,376.32],
				[2849,376.33],
				[2850,376.28],
				[2851,376.52],
				[2852,376.52],
				[2853,377.18],
				[2854,377.29],
				[2855,377.32],
				[2856,377.27],
				[2857,377.49],
				[2858,377.66],
				[2859,378.21],
				[2860,378.09],
				[2861,378.22],
				[2862,378.35],
				[2863,378.24],
				[2864,378.82],
				[2865,378.93],
				[2866,379.14],
				[2867,379.19],
				[2868,379.09],
				[2869,380.02],
				[2870,380.01],
				[2871,380.07],
				[2872,380.01],
				[2873,379.90],
				[2874,379.77],
				[2875,380.37],
				[2876,380.73],
				[2877,380.81],
				[2878,380.72],
				[2879,380.76],
				[2880,381.65],
				[2881,381.69],
				[2882,381.63],
				[2883,381.50],
				[2884,381.35],
				[2885,381.56],
				[2886,382.23],
				[2887,382.19],
				[2888,382.16],
				[2889,382.31],
				[2890,382.27],
				[2891,382.86],
				[2892,382.92],
				[2893,383.22],
				[2894,383.16],
				[2895,383.39],
				[2896,382.98],
				[2897,383.63],
				[2898,384.06],
				[2899,384.04],
				[2900,383.96],
				[2901,384.01],
				[2902,384.78],
				[2903,384.61],
				[2904,384.59],
				[2905,385.07],
				[2906,384.73],
				[2907,384.98],
				[2908,385.87],
				[2909,385.63],
				[2910,385.56],
				[2911,385.79],
				[2912,385.89],
				[2913,386.55],
				[2914,386.53],
				[2915,386.71],
				[2916,386.53],
				[2917,386.76],
				[2918,386.92],
				[2919,387.33],
				[2920,387.18],
				[2921,387.50],
				[2922,387.57],
				[2923,387.38],
				[2924,388.10],
				[2925,388.36],
				[2926,388.35],
				[2927,388.09],
				[2928,388.45],
				[2929,389.36],
				[2930,389.02],
				[2931,389.12],
				[2932,389.07],
				[2933,389.35],
				[2934,389.12],
				[2935,389.94],
				[2936,389.84],
				[2937,389.78],
				[2938,389.94],
				[2939,389.56],
				[2940,390.34],
				[2941,390.81],
				[2942,390.50],
				[2943,390.29],
				[2944,390.54],
				[2945,390.29],
				[2946,391.46],
				[2947,391.55],
				[2948,391.60],
				[2949,391.79],
				[2950,391.93],
				[2951,392.33],
				[2952,392.60],
				[2953,392.80],
				[2954,392.27],
				[2955,392.71],
				[2956,393.25],
				[2957,393.22],
				[2958,393.32],
				[2959,393.29],
				[2960,393.05],
				[2961,393.39],
				[2962,393.96],
				[2963,394.09],
				[2964,394.19],
				[2965,394.19],
				[2966,393.69],
				[2967,394.85],
				[2968,395.01],
				[2969,395.09],
				[2970,395.39],
				[2971,395.24],
				[2972,395.17],
				[2973,395.92],
				[2974,395.88],
				[2975,395.79],
				[2976,396.25],
				[2977,396.08],
				[2978,396.98],
				[2979,396.87],
				[2980,396.76],
				[2981,397.11],
				[2982,396.95],
				[2983,397.11],
				[2984,397.75],
				[2985,398.18],
				[2986,398.20],
				[2987,398.02],
				[2988,397.80],
				[2989,398.61],
				[2990,398.82],
				[2991,398.72],
				[2992,398.62],
				[2993,398.73],
				[2994,398.86],
				[2995,399.45],
				[2996,399.85],
				[2997,399.63],
				[2998,399.45],
				[2999,399.69],
				[3000,400.51],
				[3001,400.35],
				[3002,400.79],
				[3003,400.51],
				[3004,400.78],
				[3005,401.39],
				[3006,401.67],
				[3007,401.52],
				[3008,401.30],
				[3009,401.60],
				[3010,401.22],
				[3011,402.16],
				[3012,402.35],
				[3013,402.44],
				[3014,402.28],
				[3015,402.27],
				[3016,402.90],
				[3017,403.04],
				[3018,402.90],
				[3019,402.97],
				[3020,402.77],
				[3021,403.19],
				[3022,403.70],
				[3023,403.77],
				[3024,403.69],
				[3025,403.77],
				[3026,404.00],
				[3027,404.83],
				[3028,404.71],
				[3029,404.50],
				[3030,404.83],
				[3031,404.68],
				[3032,404.82],
				[3033,405.43],
				[3034,405.03],
				[3035,405.39],
				[3036,405.23],
				[3037,405.68],
				[3038,406.23],
				[3039,406.34],
				[3040,406.52],
				[3041,406.21],
				[3042,406.39],
				[3043,407.06],
				[3044,407.32],
				[3045,407.22],
				[3046,407.33],
				[3047,407.32],
				[3048,407.66],
				[3049,408.17],
				[3050,407.82],
				[3051,407.99],
				[3052,408.05],
				[3053,408.29],
				[3054,409.03],
				[3055,408.86],
				[3056,409.21],
				[3057,409.31],
				[3058,409.48],
				[3059,409.46],
				[3060,409.96],
				[3061,409.88],
				[3062,409.95],
				[3063,410.16],
				[3064,410.45],
				[3065,410.84],
				[3066,410.89],
				[3067,410.90],
				[3068,411.11],
				[3069,411.08],
				[3070,411.09],
				[3071,411.96],
				[3072,411.85],
				[3073,411.61],
				[3074,411.79],
				[3075,411.61],
				[3076,412.44],
				[3077,412.44],
				[3078,412.69],
				[3079,412.53],
				[3080,412.66],
				[3081,412.75],
				[3082,413.30],
				[3083,413.20],
				[3084,413.38],
				[3085,413.50],
				[3086,413.52],
				[3087,414.03],
				[3088,414.52],
				[3089,414.25],
				[3090,414.46],
				[3091,414.76],
				[3092,415.12],
				[3093,415.09],
				[3094,414.94],
				[3095,415.38],
				[3096,415.92],
				[3097,415.44],
				[3098,415.93],
				[3099,416.08],
				[3100,415.96],
				[3101,416.36],
				[3102,416.15],
				[3103,416.73],
				[3104,416.71],
				[3105,417.08],
				[3106,417.04],
				[3107,417.35],
				[3108,417.18],
				[3109,417.90],
				[3110,417.90],
				[3111,418.18],
				[3112,418.12],
				[3113,417.98],
				[3114,418.80],
				[3115,418.62],
				[3116,418.83],
				[3117,418.84],
				[3118,419.14],
				[3119,419.19],
				[3120,419.53],
				[3121,419.77],
				[3122,419.47],
				[3123,420.15],
				[3124,420.14],
				[3125,420.66],
				[3126,421.17],
				[3127,420.63],
				[3128,420.78],
				[3129,420.82],
				[3130,421.81],
				[3131,421.14],
				[3132,421.40],
				[3133,421.57],
				[3134,421.97],
				[3135,421.71],
				[3136,422.26],
				[3137,422.73],
				[3138,422.92],
				[3139,422.74],
				[3140,422.98],
				[3141,423.21],
				[3142,423.34],
				[3143,423.14],
				[3144,423.23],
				[3145,423.32],
				[3146,423.71],
				[3147,424.20],
				[3148,424.25],
				[3149,424.44],
				[3150,424.45],
				[3151,424.72],
				[3152,425.16],
				[3153,425.20],
				[3154,425.00],
				[3155,424.93],
				[3156,425.28],
				[3157,425.60],
				[3158,426.04],
				[3159,425.73],
				[3160,426.03],
				[3161,426.21],
				[3162,426.26],
				[3163,427.01],
				[3164,426.77],
				[3165,426.75],
				[3166,426.88],
				[3167,427.07],
				[3168,427.29],
				[3169,427.59],
				[3170,427.73],
				[3171,427.98],
				[3172,427.80],
				[3173,427.90],
				[3174,428.39],
				[3175,428.70],
				[3176,428.86],
				[3177,428.82],
				[3178,428.77],
				[3179,429.50],
				[3180,429.74],
				[3181,429.49],
				[3182,429.53],
				[3183,430.00],
				[3184,430.21],
				[3185,430.55],
				[3186,430.40],
				[3187,430.18],
				[3188,430.46],
				[3189,430.87],
				[3190,431.36],
				[3191,431.48],
				[3192,431.61],
				[3193,431.54],
				[3194,431.99],
				[3195,432.09],
				[3196,432.20],
				[3197,432.06],
				[3198,432.58],
				[3199,432.57],
				[3200,432.78],
				[3201,433.18],
				[3202,433.31],
				[3203,433.74],
				[3204,433.62],
				[3205,433.48],
				[3206,433.43],
				[3207,434.06],
				[3208,434.25],
				[3209,434.21],
				[3210,434.48],
				[3211,434.32],
				[3212,435.39],
				[3213,434.91],
				[3214,435.22],
				[3215,435.26],
				[3216,435.23],
				[3217,435.88],
				[3218,436.03],
				[3219,436.32],
				[3220,436.34],
				[3221,436.07],
				[3222,436.10],
				[3223,436.90],
				[3224,436.87],
				[3225,437.08],
				[3226,437.18],
				[3227,437.04],
				[3228,437.49],
				[3229,437.65],
				[3230,437.55],
				[3231,437.70],
				[3232,437.91],
				[3233,438.02],
				[3234,438.51],
				[3235,438.83],
				[3236,438.88],
				[3237,438.97],
				[3238,438.69],
				[3239,439.61],
				[3240,439.80],
				[3241,440.05],
				[3242,440.06],
				[3243,439.75],
				[3244,440.02],
				[3245,440.50],
				[3246,440.78],
				[3247,440.71],
				[3248,440.63],
				[3249,441.01],
				[3250,441.51],
				[3251,441.38],
				[3252,441.58],
				[3253,441.87],
				[3254,442.39],
				[3255,441.85],
				[3256,442.58],
				[3257,442.84],
				[3258,442.86],
				[3259,442.80],
				[3260,442.89],
				[3261,443.42],
				[3262,443.59],
				[3263,443.61],
				[3264,443.63],
				[3265,443.65],
				[3266,444.05],
				[3267,444.05],
				[3268,444.28],
				[3269,444.50],
				[3270,444.33],
				[3271,444.28],
				[3272,445.06],
				[3273,445.13],
				[3274,445.30],
				[3275,445.09],
				[3276,445.56],
				[3277,446.18],
				[3278,445.97],
				[3279,446.20],
				[3280,446.42],
				[3281,446.23],
				[3282,446.35],
				[3283,447.26],
				[3284,447.14],
				[3285,447.21],
				[3286,447.09],
				[3287,447.52],
				[3288,448.01],
				[3289,448.37],
				[3290,447.77],
				[3291,448.13],
				[3292,448.58],
				[3293,448.27],
				[3294,449.22],
				[3295,449.08],
				[3296,449.15],
				[3297,449.30],
				[3298,449.23],
				[3299,449.76],
				[3300,449.81],
				[3301,450.09],
				[3302,450.49],
				[3303,450.45],
				[3304,450.97],
				[3305,450.87],
				[3306,450.88],
				[3307,450.88],
				[3308,450.94],
				[3309,451.15],
				[3310,452.13],
				[3311,452.14],
				[3312,451.87],
				[3313,451.84],
				[3314,452.10],
				[3315,453.07],
				[3316,453.07],
				[3317,453.10],
				[3318,453.30],
				[3319,453.24],
				[3320,453.42],
				[3321,454.46],
				[3322,454.13],
				[3323,453.82],
				[3324,453.75],
				[3325,454.38],
				[3326,454.82],
				[3327,454.78],
				[3328,454.89],
				[3329,455.09],
				[3330,455.19],
				[3331,455.30],
				[3332,455.80],
				[3333,455.86],
				[3334,456.14],
				[3335,456.13],
				[3336,455.99],
				[3337,456.66],
				[3338,456.58],
				[3339,456.85],
				[3340,456.77],
				[3341,456.70],
				[3342,456.78],
				[3343,457.49],
				[3344,457.45],
				[3345,457.59],
				[3346,457.47],
				[3347,457.94],
				[3348,458.52],
				[3349,458.65],
				[3350,458.38],
				[3351,458.30],
				[3352,458.49],
				[3353,459.27],
				[3354,459.36],
				[3355,459.36],
				[3356,459.65],
				[3357,459.87],
				[3358,459.68],
				[3359,460.33],
				[3360,460.44],
				[3361,460.36],
				[3362,460.86],
				[3363,460.62],
				[3364,461.42],
				[3365,461.36],
				[3366,461.47],
				[3367,461.52],
				[3368,461.78],
				[3369,461.45],
				[3370,462.14],
				[3371,462.28],
				[3372,462.41],
				[3373,462.46],
				[3374,462.64],
				[3375,463.22],
				[3376,463.14],
				[3377,463.51],
				[3378,463.68],
				[3379,463.42],
				[3380,463.36],
				[3381,464.05],
				[3382,464.15],
				[3383,464.21],
				[3384,464.27],
				[3385,464.33],
				[3386,465.02],
				[3387,464.96],
				[3388,465.41],
				[3389,465.21],
				[3390,465.62],
				[3391,466.20],
				[3392,465.97],
				[3393,465.99],
				[3394,466.13],
				[3395,466.51],
				[3396,466.22],
				[3397,467.03],
				[3398,466.87],
				[3399,466.77],
				[3400,467.43],
				[3401,467.24],
				[3402,467.37],
				[3403,467.70],
				[3404,468.01],
				[3405,468.04],
				[3406,468.13],
				[3407,468.15],
				[3408,468.68],
				[3409,468.73],
				[3410,468.82],
				[3411,468.83],
				[3412,468.86],
				[3413,469.20],
				[3414,469.62],
				[3415,469.23],
				[3416,469.90],
				[3417,469.79],
				[3418,469.93],
				[3419,470.66],
				[3420,470.36],
				[3421,470.68],
				[3422,470.00],
				[3423,471.04],
				[3424,471.14],
				[3425,471.38],
				[3426,471.55],
				[3427,471.58],
				[3428,471.97],
				[3429,472.10],
				[3430,472.54],
				[3431,472.49],
				[3432,472.57],
				[3433,472.50],
				[3434,472.64],
				[3435,473.42],
				[3436,473.30],
				[3437,473.53],
				[3438,473.69],
				[3439,473.94],
				[3440,474.26],
				[3441,474.56],
				[3442,474.34],
				[3443,474.54],
				[3444,474.64],
				[3445,474.54],
				[3446,475.48],
				[3447,475.30],
				[3448,475.47],
				[3449,475.35],
				[3450,475.50],
				[3451,476.53],
				[3452,476.49],
				[3453,476.69],
				[3454,476.75],
				[3455,476.48],
				[3456,476.73],
				[3457,477.18],
				[3458,477.57],
				[3459,477.40],
				[3460,477.47],
				[3461,477.63],
				[3462,478.36],
				[3463,478.23],
				[3464,478.13],
				[3465,478.16],
				[3466,478.40],
				[3467,478.75],
				[3468,479.40],
				[3469,479.44],
				[3470,479.68],
				[3471,479.70],
				[3472,479.62],
				[3473,480.36],
				[3474,480.59],
				[3475,480.33],
				[3476,480.41],
				[3477,480.31],
				[3478,481.20],
				[3479,481.70],
				[3480,481.37],
				[3481,481.77],
				[3482,481.74],
				[3483,481.66],
				[3484,482.53],
				[3485,482.48],
				[3486,482.44],
				[3487,482.80],
				[3488,483.09],
				[3489,483.46],
				[3490,483.69],
				[3491,483.53],
				[3492,483.56],
				[3493,483.98],
				[3494,483.82],
				[3495,484.59],
				[3496,484.32],
				[3497,484.55],
				[3498,484.69],
				[3499,484.84],
				[3500,485.68],
				[3501,485.79],
				[3502,485.71],
				[3503,485.96],
				[3504,485.54],
				[3505,485.90],
				[3506,486.28],
				[3507,486.44],
				[3508,486.71],
				[3509,486.42],
				[3510,486.89],
				[3511,487.47],
				[3512,487.33],
				[3513,487.56],
				[3514,487.62],
				[3515,487.46],
				[3516,490.54],
				[3517,490.49],
				[3518,491.55],
				[3519,492.04],
				[3520,492.14],
				[3521,493.23],
				[3522,494.07],
				[3523,494.52],
				[3524,495.17],
				[3525,496.42],
				[3526,496.48],
				[3527,497.09],
				[3528,497.91],
				[3529,498.46],
				[3530,499.49],
				[3531,500.03],
				[3532,500.30],
				[3533,501.21],
				[3534,502.28],
				[3535,502.17],
				[3536,503.41],
				[3537,504.08],
				[3538,504.39],
				[3539,505.17],
				[3540,505.90],
				[3541,506.30],
				[3542,507.30],
				[3543,507.87],
				[3544,508.60],
				[3545,512.12],
				[3546,513.74],
				[3547,513.90],
				[3548,514.23],
				[3549,514.93],
				[3550,515.77],
				[3551,515.21],
				[3552,516.09],
				[3553,517.04],
				[3554,517.37],
				[3555,518.52],
				[3556,519.05],
				[3557,519.33],
				[3558,520.64],
				[3559,521.20],
				[3560,521.63],
				[3561,522.56],
				[3562,523.28],
				[3563,523.83],
				[3564,524.68],
				[3565,525.41],
				[3566,525.95],
				[3567,526.75],
				[3568,527.51],
				[3569,528.22],
				[3570,529.01],
				[3571,529.66],
				[3572,529.89],
				[3573,531.04],
				[3574,531.03],
				[3575,531.45],
				[3576,532.04],
				[3577,532.68],
				[3578,533.90],
				[3579,534.49],
				[3580,535.13],
				[3581,536.24],
				[3582,536.56],
				[3583,537.55],
				[3584,538.38],
				[3585,537.63],
				[3586,538.57],
				[3587,539.46],
				[3588,539.50],
				[3589,540.76],
				[3590,541.54],
				[3591,541.83],
				[3592,542.51],
				[3593,543.63],
				[3594,544.22],
				[3595,544.86],
				[3596,545.91],
				[3597,546.14],
				[3598,547.03],
				[3599,548.26],
				[3600,548.64],
				[3601,549.48],
				[3602,550.13],
				[3603,553.09],
				[3604,554.48],
				[3605,554.87],
				[3606,555.14],
				[3607,556.39],
				[3608,557.31],
				[3609,558.03],
				[3610,558.65],
				[3611,559.61],
				[3612,560.76],
				[3613,560.74],
				[3614,561.64],
				[3615,562.61],
				[3616,562.77],
				[3617,563.95],
				[3618,564.65],
				[3619,564.17],
				[3620,565.20],
				[3621,565.79],
				[3622,566.66],
				[3623,567.71],
				[3624,568.19],
				[3625,568.58],
				[3626,569.70],
				[3627,570.57],
				[3628,570.93],
				[3629,571.36],
				[3630,572.68],
				[3631,572.57],
				[3632,572.98],
				[3633,574.07],
				[3634,574.23],
				[3635,574.86],
				[3636,576.17],
				[3637,576.63],
				[3638,577.61],
				[3639,579.95],
				[3640,579.57],
				[3641,579.93],
				[3642,581.06],
				[3643,582.13],
				[3644,582.42],
				[3645,583.20],
				[3646,584.47],
				[3647,584.15],
				[3648,585.47],
				[3649,585.95],
				[3650,586.91],
				[3651,587.66],
				[3652,588.50],
				[3653,588.02],
				[3654,588.98],
				[3655,590.24],
				[3656,589.86],
				[3657,591.01],
				[3658,592.20],
				[3659,592.29],
				[3660,593.81],
				[3661,597.38],
				[3662,597.82],
				[3663,598.67],
				[3664,599.64],
				[3665,600.07],
				[3666,601.16],
				[3667,601.92],
				[3668,602.06],
				[3669,603.61],
				[3670,603.95],
				[3671,605.24],
				[3672,605.01],
				[3673,606.00],
				[3674,607.03],
				[3675,607.21],
				[3676,608.24],
				[3677,609.41],
				[3678,609.51],
				[3679,610.81],
				[3680,611.90],
				[3681,611.78],
				[3682,612.99],
				[3683,613.95],
				[3684,614.07],
				[3685,615.61],
				[3686,616.33],
				[3687,615.35],
				[3688,616.64],
				[3689,617.51],
				[3690,616.85],
				[3691,618.42],
				[3692,619.21],
				[3693,619.56],
				[3694,620.52],
				[3695,621.63],
				[3696,622.14],
				[3697,623.25],
				[3698,624.00],
				[3699,624.57],
				[3700,625.40],
				[3701,626.43],
				[3702,627.68],
				[3703,627.77],
				[3704,628.67],
				[3705,629.66],
				[3706,630.46],
				[3707,631.37],
				[3708,632.69],
				[3709,632.68],
				[3710,633.45],
				[3711,634.46],
				[3712,634.73],
				[3713,636.15],
				[3714,637.34],
				[3715,637.54],
				[3716,638.30],
				[3717,639.30],
				[3718,639.53],
				[3719,643.64],
				[3720,644.53],
				[3721,643.92],
				[3722,644.88],
				[3723,645.72],
				[3724,646.26],
				[3725,647.55],
				[3726,648.08],
				[3727,648.51],
				[3728,649.52],
				[3729,650.22],
				[3730,651.40],
				[3731,651.47],
				[3732,652.88],
				[3733,654.30],
				[3734,654.32],
				[3735,655.69],
				[3736,656.67],
				[3737,656.67],
				[3738,657.59],
				[3739,659.17],
				[3740,659.07],
				[3741,660.15],
				[3742,661.27],
				[3743,661.64],
				[3744,662.41],
				[3745,663.64],
				[3746,663.98],
				[3747,664.93],
				[3748,665.47],
				[3749,665.50],
				[3750,666.65],
				[3751,667.77],
				[3752,668.17],
				[3753,669.33],
				[3754,670.32],
				[3755,670.06],
				[3756,670.67],
				[3757,671.92],
				[3758,672.43],
				[3759,672.85],
				[3760,674.24],
				[3761,675.01],
				[3762,675.89],
				[3763,676.67],
				[3764,677.33],
				[3765,677.82],
				[3766,679.09],
				[3767,679.65],
				[3768,680.42],
				[3769,681.26],
				[3770,682.28],
				[3771,682.89],
				[3772,684.00],
				[3773,684.78],
				[3774,684.73],
				[3775,685.98],
				[3776,686.92],
				[3777,690.78],
				[3778,691.74],
				[3779,692.68],
				[3780,692.82],
				[3781,693.73],
				[3782,694.98],
				[3783,695.62],
				[3784,696.35],
				[3785,697.38],
				[3786,697.69],
				[3787,698.63],
				[3788,699.91],
				[3789,699.37],
				[3790,699.96],
				[3791,701.46],
				[3792,703.01],
				[3793,702.96],
				[3794,704.54],
				[3795,705.50],
				[3796,705.43],
				[3797,706.77],
				[3798,708.45],
				[3799,707.83],
				[3800,709.15],
				[3801,710.04],
				[3802,711.72],
				[3803,711.64],
				[3804,712.41],
				[3805,713.03],
				[3806,713.79],
				[3807,714.74],
				[3808,714.55],
				[3809,715.80],
				[3810,717.00],
				[3811,717.04],
				[3812,718.47],
				[3813,719.90],
				[3814,719.81],
				[3815,720.86],
				[3816,721.75],
				[3817,721.94],
				[3818,723.26],
				[3819,724.40],
				[3820,724.40],
				[3821,725.36],
				[3822,727.04],
				[3823,727.81],
				[3824,727.16],
				[3825,728.62],
				[3826,729.65],
				[3827,730.00],
				[3828,730.83],
				[3829,732.20],
				[3830,732.53],
				[3831,733.74],
				[3832,734.91],
				[3833,734.82],
				[3834,735.76],
				[3835,740.00],
				[3836,740.34],
				[3837,742.01],
				[3838,743.46],
				[3839,742.82],
				[3840,744.16],
				[3841,745.40],
				[3842,745.54],
				[3843,747.00],
				[3844,747.93],
				[3845,748.42],
				[3846,749.84],
				[3847,750.91],
				[3848,750.42],
				[3849,751.58],
				[3850,752.61],
				[3851,752.98],
				[3852,753.84],
				[3853,755.43],
				[3854,757.18],
				[3855,756.96],
				[3856,758.18],
				[3857,759.24],
				[3858,758.71],
				[3859,759.71],
				[3860,760.34],
				[3861,761.15],
				[3862,762.75],
				[3863,763.13],
				[3864,762.83],
				[3865,764.36],
				[3866,765.51],
				[3867,765.82],
				[3868,767.22],
				[3869,768.51],
				[3870,768.85],
				[3871,769.41],
				[3872,770.89],
				[3873,770.57],
				[3874,772.26],
				[3875,773.31],
				[3876,773.38],
				[3877,774.36],
				[3878,776.14],
				[3879,776.75],
				[3880,777.15],
				[3881,778.70],
				[3882,778.66],
				[3883,780.16],
				[3884,781.07],
				[3885,782.24],
				[3886,782.74],
				[3887,783.55],
				[3888,784.95],
				[3889,785.42],
				[3890,786.56],
				[3891,787.84],
				[3892,787.03],
				[3893,791.35],
				[3894,792.73],
				[3895,792.95],
				[3896,793.91],
				[3897,795.20],
				[3898,795.68],
				[3899,796.64],
				[3900,797.96],
				[3901,798.23],
				[3902,799.57],
				[3903,800.36],
				[3904,800.63],
				[3905,802.54],
				[3906,803.18],
				[3907,803.75],
				[3908,804.50],
				[3909,805.23],
				[3910,806.15],
				[3911,806.97],
				[3912,808.11],
				[3913,809.36],
				[3914,809.73],
				[3915,810.66],
				[3916,812.09],
				[3917,812.45],
				[3918,813.28],
				[3919,814.63],
				[3920,814.62],
				[3921,816.16],
				[3922,816.84],
				[3923,817.09],
				[3924,818.51],
				[3925,819.87],
				[3926,818.81],
				[3927,820.31],
				[3928,821.66],
				[3929,821.97],
				[3930,823.09],
				[3931,824.18],
				[3932,824.22],
				[3933,825.71],
				[3934,827.53],
				[3935,827.11],
				[3936,828.38],
				[3937,829.73],
				[3938,829.86],
				[3939,831.38],
				[3940,832.19],
				[3941,832.37],
				[3942,833.66],
				[3943,835.12],
				[3944,836.39],
				[3945,836.63],
				[3946,837.41],
				[3947,839.21],
				[3948,839.65],
				[3949,840.89],
				[3950,842.06],
				[3951,845.07],
				[3952,846.09],
				[3953,847.32],
				[3954,847.75],
				[3955,849.24],
				[3956,850.49],
				[3957,850.25],
				[3958,851.85],
				[3959,853.50],
				[3960,852.22],
				[3961,853.27],
				[3962,854.45],
				[3963,854.59],
				[3964,856.50],
				[3965,857.80],
				[3966,857.62],
				[3967,859.40],
				[3968,860.08],
				[3969,860.62],
				[3970,861.96],
				[3971,862.88],
				[3972,862.61],
				[3973,864.26],
				[3974,865.90],
				[3975,867.46],
				[3976,867.43],
				[3977,868.80],
				[3978,870.26],
				[3979,870.03],
				[3980,870.78],
				[3981,872.29],
				[3982,872.44],
				[3983,873.76],
				[3984,874.71],
				[3985,875.52],
				[3986,876.34],
				[3987,878.49],
				[3988,878.43],
				[3989,879.43],
				[3990,881.12],
				[3991,881.16],
				[3992,882.37],
				[3993,883.46],
				[3994,882.47],
				[3995,883.86],
				[3996,885.05],
				[3997,885.47],
				[3998,886.46],
				[3999,887.88],
				[4000,888.29],
				[4001,889.67],
				[4002,890.65],
				[4003,891.01],
				[4004,892.12],
				[4005,893.04],
				[4006,894.32],
				[4007,895.29],
				[4008,896.38],
				[4009,900.96],
				[4010,901.08],
				[4011,902.13],
				[4012,903.72],
				[4013,903.92],
				[4014,905.61],
				[4015,906.48],
				[4016,906.62],
				[4017,907.97],
				[4018,909.44],
				[4019,909.63],
				[4020,910.78],
				[4021,911.75],
				[4022,912.40],
				[4023,913.24],
				[4024,915.34],
				[4025,915.54],
				[4026,916.43],
				[4027,918.36],
				[4028,916.88],
				[4029,918.29],
				[4030,919.42],
				[4031,919.93],
				[4032,921.13],
				[4033,922.55],
				[4034,923.00],
				[4035,924.92],
				[4036,927.18],
				[4037,927.31],
				[4038,926.19],
				[4039,927.60],
				[4040,929.43],
				[4041,929.70],
				[4042,930.59],
				[4043,931.62],
				[4044,932.13],
				[4045,933.89],
				[4046,934.21],
				[4047,934.87],
				[4048,935.73],
				[4049,937.15],
				[4050,938.03],
				[4051,939.87],
				[4052,940.29],
				[4053,940.52],
				[4054,941.72],
				[4055,942.78],
				[4056,942.92],
				[4057,944.98],
				[4058,946.05],
				[4059,945.79],
				[4060,947.48],
				[4061,948.40],
				[4062,948.08],
				[4063,949.47],
				[4064,950.03],
				[4065,950.82],
				[4066,952.72],
				[4067,956.76],
				[4068,958.47],
				[4069,959.28],
				[4070,959.31],
				[4071,961.11],
				[4072,961.66],
				[4073,962.74],
				[4074,964.08],
				[4075,964.56],
				[4076,965.92],
				[4077,967.20],
				[4078,967.55],
				[4079,968.27],
				[4080,969.61],
				[4081,970.53],
				[4082,971.72],
				[4083,972.68],
				[4084,973.59],
				[4085,974.47],
				[4086,975.89],
				[4087,976.54],
				[4088,977.39],
				[4089,978.83],
				[4090,979.78],
				[4091,980.28],
				[4092,981.88],
				[4093,982.32],
				[4094,983.19],
				[4095,984.47]
			]
		}
	]
}
